Title,Abstract,StoreId,ArticleType,Authors,copyright,digitalObjectIdentifier,documentType,entryDate,issn,language,languageOfSummary,pages,placeOfPublication,pubdate,pubtitle,year,DocumentURL,startPage,FindACopy,Database
DEPARTMENT OF THE GULF.,"The steamer Cahawba, from New-Orleans 28th ult., arrived yesterday. Among the passengers is Gen. BAILEY.",91801166,Historical Newspapers,," Copyright New York Times Company Sep 6, 1864"," 78992233 , 1449492 , 113715", article," Sep 6, 1864",0362-4331, English, English, 5," New York, N.Y.","Sep 6, 1864",New York Times (1857-1922),1864,http://search.proquest.com/docview/91801166?accountid=13567, 5,http://openurl.lib.rochester.edu/find?ctx_ver=Z39.88-2004&amp;ctx_enc=info:ofi/enc:UTF-8&amp;rfr_id=info:sid/ProQ%3Ahnpnewyorktimeswindex&amp;rft_val_fmt=info:ofi/fmt:kev:mtx:journal&amp;rft.genre=article&amp;rft.jtitle=New+York+Times+%281857-1922%29&amp;rft.atitle=DEPARTMENT+OF+THE+GULF.%3A+ARRIVAL+OF+THE+CAHAWBA%2C+DETAILS+OF+THE+CAPTURE+OF+FORT+MORGAN.+INTERESTING+MISCELLANEOUS+INTELLIGENCE.&amp;rft.au=&amp;rft.aulast=&amp;rft.aufirst=&amp;rft.date=1864-09-06&amp;rft.volume=&amp;rft.issue=&amp;rft.spage=5&amp;rft.isbn=&amp;rft.btitle=&amp;rft.title=New+York+Times+%281857-1922%29&amp;rft.issn=03624331,ProQuest Historical Newspapers: The New York Times (1851-2009) with Index (1851-1993)
MOBILE.,I have the honor and pleasure of being able to give you a full description of the engagement which has compelled the unconditional surrender of the remaining rebel stronghold of Mobile Bay.,91804297,Historical Newspapers,," Copyright New York Times Company Sep 6, 1864"," 78992234 , 1449492 , 113715", article," Sep 6, 1864",0362-4331, English, English, 5," New York, N.Y.","Sep 6, 1864",New York Times (1857-1922),1864,http://search.proquest.com/docview/91804297?accountid=13567, 5,http://openurl.lib.rochester.edu/find?ctx_ver=Z39.88-2004&amp;ctx_enc=info:ofi/enc:UTF-8&amp;rfr_id=info:sid/ProQ%3Ahnpnewyorktimeswindex&amp;rft_val_fmt=info:ofi/fmt:kev:mtx:journal&amp;rft.genre=article&amp;rft.jtitle=New+York+Times+%281857-1922%29&amp;rft.atitle=MOBILE.%3A+PARTICULARS+OF+THE+SURRENDER+OF+FORT+MORGAN.+STORY+OF+A+MOBILE+REFUGEE.+ADDRESS+OF+MAJ.-GEN.+GORDON+GRANGER&amp;rft.au=&amp;rft.aulast=&amp;rft.aufirst=&amp;rft.date=1864-09-06&amp;rft.volume=&amp;rft.issue=&amp;rft.spage=5&amp;rft.isbn=&amp;rft.btitle=&amp;rft.title=New+York+Times+%281857-1922%29&amp;rft.issn=03624331,ProQuest Historical Newspapers: The New York Times (1851-2009) with Index (1851-1993)
MOBILE.,"The following is a letter from the late executive officer of the Tennessee, which we publish as the first account of the fight in Mobile bay from any person who was on board that ship during the action:",91810951,Historical Newspapers,," Copyright New York Times Company Sep 6, 1864"," 78992259 , 1449492 , 113715", article," Sep 6, 1864",0362-4331, English, English, 8," New York, N.Y.","Sep 6, 1864",New York Times (1857-1922),1864,http://search.proquest.com/docview/91810951?accountid=13567, 8,http://openurl.lib.rochester.edu/find?ctx_ver=Z39.88-2004&amp;ctx_enc=info:ofi/enc:UTF-8&amp;rfr_id=info:sid/ProQ%3Ahnpnewyorktimeswindex&amp;rft_val_fmt=info:ofi/fmt:kev:mtx:journal&amp;rft.genre=article&amp;rft.jtitle=New+York+Times+%281857-1922%29&amp;rft.atitle=MOBILE.%3A+THE+NAVAL+FIGHT.&amp;rft.au=&amp;rft.aulast=&amp;rft.aufirst=&amp;rft.date=1864-09-06&amp;rft.volume=&amp;rft.issue=&amp;rft.spage=8&amp;rft.isbn=&amp;rft.btitle=&amp;rft.title=New+York+Times+%281857-1922%29&amp;rft.issn=03624331,ProQuest Historical Newspapers: The New York Times (1851-2009) with Index (1851-1993)
OPERATIONS BELOW MOBILE.,"The monitors Winnebago and Chickasaw, built at St. Louis, played an important bart in the Mobile fight. It is due to the St. Louis mechanics that the following letter, addressed to the Hon. H.T. BLOW, should be given to the public. The writer, Mr. SHOCK, is Chief Engineer of Admiral FARRAGUT'S fleet:",91843987,Historical Newspapers,," Copyright New York Times Company Sep 4, 1864"," 82014510-1 , 1470619 , 113715", article," Sep 4, 1864",0362-4331, English, English, 2," New York, N.Y.","Sep 4, 1864",New York Times (1857-1922),1864,http://search.proquest.com/docview/91843987?accountid=13567, 2,http://openurl.lib.rochester.edu/find?ctx_ver=Z39.88-2004&amp;ctx_enc=info:ofi/enc:UTF-8&amp;rfr_id=info:sid/ProQ%3Ahnpnewyorktimeswindex&amp;rft_val_fmt=info:ofi/fmt:kev:mtx:journal&amp;rft.genre=article&amp;rft.jtitle=New+York+Times+%281857-1922%29&amp;rft.atitle=OPERATIONS+BELOW+MOBILE.%3A+PERFORMANCE+OF+THE+MONITORS.&amp;rft.au=&amp;rft.aulast=&amp;rft.aufirst=&amp;rft.date=1864-09-04&amp;rft.volume=&amp;rft.issue=&amp;rft.spage=2&amp;rft.isbn=&amp;rft.btitle=&amp;rft.title=New+York+Times+%281857-1922%29&amp;rft.issn=03624331,ProQuest Historical Newspapers: The New York Times (1851-2009) with Index (1851-1993)
SURRENDER OF FORT MORGAN.,"SIR: I had the honor in my dispatch, No. 31, to state to the Department that Fort Morgan had surrendered on the 23d inst. to the army and navy, though at the time the dispatch was written and mailed the ceremony of surrender had not actually taken place.",91862160,Historical Newspapers,," Copyright New York Times Company Sep 3, 1864"," 78991993-1 , 1449490 , 113715", front_page," Sep 3, 1864",0362-4331, English, English, 1," New York, N.Y.","Sep 3, 1864",New York Times (1857-1922),1864,http://search.proquest.com/docview/91862160?accountid=13567, 1,http://openurl.lib.rochester.edu/find?ctx_ver=Z39.88-2004&amp;ctx_enc=info:ofi/enc:UTF-8&amp;rfr_id=info:sid/ProQ%3Ahnpnewyorktimeswindex&amp;rft_val_fmt=info:ofi/fmt:kev:mtx:journal&amp;rft.genre=unknown&amp;rft.jtitle=New+York+Times+%281857-1922%29&amp;rft.atitle=SURRENDER+OF+FORT+MORGAN.%3A+OFFICIAL+DISPATCHES+FROM+ADMIRAL+FARRAGUT.---THE+CORRESPONDENCE+PRELIMINARY+TO+THE+CAPITULATION.---WANTON+DESTRUCTION+OF+PROPERTY+BY+THE+REBELS.&amp;rft.au=&amp;rft.aulast=&amp;rft.aufirst=&amp;rft.date=1864-09-03&amp;rft.volume=&amp;rft.issue=&amp;rft.spage=1&amp;rft.isbn=&amp;rft.btitle=&amp;rft.title=New+York+Times+%281857-1922%29&amp;rft.issn=03624331,ProQuest Historical Newspapers: The New York Times (1851-2009) with Index (1851-1993)
Gen. Canby's Report of the Fall of Fort Morgan.,"By the surrender of Fort Morgan we have about six hundred prisoners, sixty pieces of artillery, and a large quantity of material. In the twelve hours preceding the surrender, about 3,000 shell were thrown into the fort. The citadel and barracks are entirely destroyed, and the works generally much injured. Many of the guns were spiked, the carriages burned, and much of the ammunition destroyed by the rebels. The losses in the army were one man killed and seven wounded, (Signed.)",91859539,Historical Newspapers,," Copyright New York Times Company Sep 2, 1864"," 78991916 , 1449488 , 113715", front_page," Sep 2, 1864",0362-4331, English, English, 1," New York, N.Y.","Sep 2, 1864",New York Times (1857-1922),1864,http://search.proquest.com/docview/91859539?accountid=13567, 1,http://openurl.lib.rochester.edu/find?ctx_ver=Z39.88-2004&amp;ctx_enc=info:ofi/enc:UTF-8&amp;rfr_id=info:sid/ProQ%3Ahnpnewyorktimeswindex&amp;rft_val_fmt=info:ofi/fmt:kev:mtx:journal&amp;rft.genre=unknown&amp;rft.jtitle=New+York+Times+%281857-1922%29&amp;rft.atitle=Gen.+Canby%27s+Report+of+the+Fall+of+Fort+Morgan.%3A+Six+Hundred+Prisoners+and+Sixty+Pieces+of+Artillery+Captured.+Many+of+the+Guns+Spiked+and+the+Carriages+Burned+by+the+Rebels.+The+Loss+in+Our+Army+but+One+Killed+and+Seven+Wounded.&amp;rft.au=&amp;rft.aulast=&amp;rft.aufirst=&amp;rft.date=1864-09-02&amp;rft.volume=&amp;rft.issue=&amp;rft.spage=1&amp;rft.isbn=&amp;rft.btitle=&amp;rft.title=New+York+Times+%281857-1922%29&amp;rft.issn=03624331,ProQuest Historical Newspapers: The New York Times (1851-2009) with Index (1851-1993)
FROM NEW-ORLEANS.,"The steamship Yazoo, Capt. COUCH, from NewOrleans Aug. 24, with the mails, merchandise and passengers to LUDLAM, HEINEKEN &amp; Co., arrived yesterday morning. She passed in the river, bound up, United States navy dispatch steamer Tennessee and gunboat Bienville, with prisoners from Fort Morgan. The United States transport McClellan left New-Orleans at 3 A.M. of the 24th, for New-York via Mobile.",91886692,Historical Newspapers,," Copyright New York Times Company Sep 2, 1864"," 78991917 , 1449488 , 113715", front_page," Sep 2, 1864",0362-4331, English, English, 1," New York, N.Y.","Sep 2, 1864",New York Times (1857-1922),1864,http://search.proquest.com/docview/91886692?accountid=13567, 1,http://openurl.lib.rochester.edu/find?ctx_ver=Z39.88-2004&amp;ctx_enc=info:ofi/enc:UTF-8&amp;rfr_id=info:sid/ProQ%3Ahnpnewyorktimeswindex&amp;rft_val_fmt=info:ofi/fmt:kev:mtx:journal&amp;rft.genre=unknown&amp;rft.jtitle=New+York+Times+%281857-1922%29&amp;rft.atitle=FROM+NEW-ORLEANS.%3A+ARRIVAL+OF+THE+YAZOO--THE+CAPTURE+OF+FORT+MORGAN+FULLY+CONFIRMED--THE+SURRENDER+UNCONDITIONAL--ENTHUSIASM+OF+OUR+MEN.+FURTHER+DETAILS.&amp;rft.au=&amp;rft.aulast=&amp;rft.aufirst=&amp;rft.date=1864-09-02&amp;rft.volume=&amp;rft.issue=&amp;rft.spage=1&amp;rft.isbn=&amp;rft.btitle=&amp;rft.title=New+York+Times+%281857-1922%29&amp;rft.issn=03624331,ProQuest Historical Newspapers: The New York Times (1851-2009) with Index (1851-1993)
DETAILS OF NEWS.,"The time is getting to be very tedious while awaiting our next grand attack. The wooden vessels are merely lying on their oars; the army is, however, very busy in their preparations for attack on Morgan. They completed their first battery on Sunday evening, and at 6:40 P.M., opened on the fort to obtain range, &amp; c., I suppose.",91875436,Historical Newspapers,," Copyright New York Times Company Sep 2, 1864"," 78991918 , 1449488 , 113715", front_page," Sep 2, 1864",0362-4331, English, English, 1," New York, N.Y.","Sep 2, 1864",New York Times (1857-1922),1864,http://search.proquest.com/docview/91875436?accountid=13567, 1,http://openurl.lib.rochester.edu/find?ctx_ver=Z39.88-2004&amp;ctx_enc=info:ofi/enc:UTF-8&amp;rfr_id=info:sid/ProQ%3Ahnpnewyorktimeswindex&amp;rft_val_fmt=info:ofi/fmt:kev:mtx:journal&amp;rft.genre=unknown&amp;rft.jtitle=New+York+Times+%281857-1922%29&amp;rft.atitle=DETAILS+OF+NEWS.%3A+PROGRESS+OF+OPERATIONS+AT+MOBILE.+PREPARATIONS+FOR+THE+BOMBARDMENT.&amp;rft.au=&amp;rft.aulast=&amp;rft.aufirst=&amp;rft.date=1864-09-02&amp;rft.volume=&amp;rft.issue=&amp;rft.spage=1&amp;rft.isbn=&amp;rft.btitle=&amp;rft.title=New+York+Times+%281857-1922%29&amp;rft.issn=03624331,ProQuest Historical Newspapers: The New York Times (1851-2009) with Index (1851-1993)
THE SITUATION.,"The flag of truce boat returned last evening. The Yankees say Fort Morgan capitulated at 2 o'clock last Tuesday. On Monday afternoon they concentrated their fire on the fort, when the bombardment was renewed spiritedly.",91829270,Historical Newspapers,," Copyright New York Times Company Sep 1, 1864"," 78991810-1 , 1449487 , 113715", front_page," Sep 1, 1864",0362-4331, English, English, 1," New York, N.Y.","Sep 1, 1864",New York Times (1857-1922),1864,http://search.proquest.com/docview/91829270?accountid=13567, 1,http://openurl.lib.rochester.edu/find?ctx_ver=Z39.88-2004&amp;ctx_enc=info:ofi/enc:UTF-8&amp;rfr_id=info:sid/ProQ%3Ahnpnewyorktimeswindex&amp;rft_val_fmt=info:ofi/fmt:kev:mtx:journal&amp;rft.genre=unknown&amp;rft.jtitle=New+York+Times+%281857-1922%29&amp;rft.atitle=THE+SITUATION.%3A+THE+SURRENDER+OF+FORT+MORGAN.+DETAILS+OF+THE+CAPITULATION+FIVE+HUNDRED+AND+EIGHTY-ONE+PRISONERS+CAPTURED.THE+GUNS+SPIKED+BY+THE+REBELS.WAR+THUNDER+FOR+COPPERHEADS+OUR+LOSSES+IN+THE+RECENT+BATTLES+HOW+THE+REBELS+ARE+SAID+TO+BE+GETTING+AROUND+THE+BREAK+IN+THE+WELDON+ROAD.+THE+FIGHT+AT+REAM%27S+STATION+LEE%27S+OFFICIAL+DISPATCH.+THE+QUOTA+OF+PENNSYLVANIA.+PHILADELPHIA%2C+WEDNESDAY%2C+AUG.+31.+LEGALITY+OF+THE+SOLDIERS%27+VOTING+BILL+ESTABLISHED.+THE+CONGRESSIONAL+COMMITTEE+ON+DEFENCES.+THE+EUROPA+OUTWARD+BOUND%2C&amp;rft.au=&amp;rft.aulast=&amp;rft.aufirst=&amp;rft.date=1864-09-01&amp;rft.volume=&amp;rft.issue=&amp;rft.spage=1&amp;rft.isbn=&amp;rft.btitle=&amp;rft.title=New+York+Times+%281857-1922%29&amp;rft.issn=03624331,ProQuest Historical Newspapers: The New York Times (1851-2009) with Index (1851-1993)
DEPARTMENT OF THE GULF.,"Our files of New-Orleans papers, to Aug. 21, give us the following interesting details of news: FORT MORGAN. Under date of Aug. 14, a correspondent of the New-Orleans Times writes from Mobile Bay:",91813592,Historical Newspapers,," Copyright New York Times Company Aug 31, 1864"," 78731132 , 1446383 , 113715", article," Aug 31, 1864",0362-4331, English, English, 2," New York, N.Y.","Aug 31, 1864",New York Times (1857-1922),1864,http://search.proquest.com/docview/91813592?accountid=13567, 2,http://openurl.lib.rochester.edu/find?ctx_ver=Z39.88-2004&amp;ctx_enc=info:ofi/enc:UTF-8&amp;rfr_id=info:sid/ProQ%3Ahnpnewyorktimeswindex&amp;rft_val_fmt=info:ofi/fmt:kev:mtx:journal&amp;rft.genre=article&amp;rft.jtitle=New+York+Times+%281857-1922%29&amp;rft.atitle=DEPARTMENT+OF+THE+GULF.%3A+OPERATIONS+AGAINST+FORT+MORGAN+RECONNOISSANCES+AND+DISCOVERIES.&amp;rft.au=&amp;rft.aulast=&amp;rft.aufirst=&amp;rft.date=1864-08-31&amp;rft.volume=&amp;rft.issue=&amp;rft.spage=2&amp;rft.isbn=&amp;rft.btitle=&amp;rft.title=New+York+Times+%281857-1922%29&amp;rft.issn=03624331,ProQuest Historical Newspapers: The New York Times (1851-2009) with Index (1851-1993)
SOUTHERN NEWS.,"The Evening Telegraph has Richmond papers, including the following extracts:",91860181,Historical Newspapers,," Copyright New York Times Company Aug 30, 1864"," 78731031 , 1446382 , 113715", front_page," Aug 30, 1864",0362-4331, English, English, 1," New York, N.Y.","Aug 30, 1864",New York Times (1857-1922),1864,http://search.proquest.com/docview/91860181?accountid=13567, 1,http://openurl.lib.rochester.edu/find?ctx_ver=Z39.88-2004&amp;ctx_enc=info:ofi/enc:UTF-8&amp;rfr_id=info:sid/ProQ%3Ahnpnewyorktimeswindex&amp;rft_val_fmt=info:ofi/fmt:kev:mtx:journal&amp;rft.genre=unknown&amp;rft.jtitle=New+York+Times+%281857-1922%29&amp;rft.atitle=SOUTHERN+NEWS.%3A+THE+REPORTED+CAPTURE+OF+FORT+MORGAN+CONFIRMED.+ADVANCE+OF+GEN.+SMITH%27S+COLUMN.+CONFLAGRATION+IN+ATLANTA.&amp;rft.au=&amp;rft.aulast=&amp;rft.aufirst=&amp;rft.date=1864-08-30&amp;rft.volume=&amp;rft.issue=&amp;rft.spage=1&amp;rft.isbn=&amp;rft.btitle=&amp;rft.title=New+York+Times+%281857-1922%29&amp;rft.issn=03624331,ProQuest Historical Newspapers: The New York Times (1851-2009) with Index (1851-1993)
FALL OF FORT MORGAN.,"The capture of Fort Morgan is fully confirmed by dispatches from Gens. GRANT and SHERMAN, who derive their information from Richmond and Mobile papers.",91887126,Historical Newspapers,," Copyright New York Times Company Aug 30, 1864"," 78731023 , 1446382 , 113715", front_page," Aug 30, 1864",0362-4331, English, English, 1," New York, N.Y.","Aug 30, 1864",New York Times (1857-1922),1864,http://search.proquest.com/docview/91887126?accountid=13567, 1,http://openurl.lib.rochester.edu/find?ctx_ver=Z39.88-2004&amp;ctx_enc=info:ofi/enc:UTF-8&amp;rfr_id=info:sid/ProQ%3Ahnpnewyorktimeswindex&amp;rft_val_fmt=info:ofi/fmt:kev:mtx:journal&amp;rft.genre=unknown&amp;rft.jtitle=New+York+Times+%281857-1922%29&amp;rft.atitle=FALL+OF+FORT+MORGAN.%3A+THE+FORTRESS+SURRENDERS+TO+OUR+FORCES.+AN+UNEXPECTED+ANNOUNCEMENT+TO+THE+REBELS.+THEY+AWAIT+AN+EXPLANATION.+FARRAGUT+WILL+GIVE+THEM+ONE+THE+GARRISON%2C+GUNS+AND+MUNITIONS+ALL+OURS.+%5BOFFICIAL.%5D+SECRETARY+STANTON+TO+GEN.+DIX.+THE+FALL+OF+FORT+MORGAN+ITS+SURRENDER%2C+WITH+ALL+THE+GARRISON%2C+GUNS%2C+%26C.&amp;rft.au=&amp;rft.aulast=&amp;rft.aufirst=&amp;rft.date=1864-08-30&amp;rft.volume=&amp;rft.issue=&amp;rft.spage=1&amp;rft.isbn=&amp;rft.btitle=&amp;rft.title=New+York+Times+%281857-1922%29&amp;rft.issn=03624331,ProQuest Historical Newspapers: The New York Times (1851-2009) with Index (1851-1993)
Admiral Farragut's Operations at Mobile.,"Maj.-Gen. Dix: A dispatch from Gen. GRANT, just received, states that the Richmond papers of yesterday, (27th) announce that Fort Morgan is in our possession. It is not stated whether the fort was surrendered or whether it was blown up.",91858460,Historical Newspapers,," Copyright New York Times Company Aug 29, 1864"," 78730940-1 , 1446381 , 113715", front_page," Aug 29, 1864",0362-4331, English, English, 1," New York, N.Y.","Aug 29, 1864",New York Times (1857-1922),1864,http://search.proquest.com/docview/91858460?accountid=13567, 1,http://openurl.lib.rochester.edu/find?ctx_ver=Z39.88-2004&amp;ctx_enc=info:ofi/enc:UTF-8&amp;rfr_id=info:sid/ProQ%3Ahnpnewyorktimeswindex&amp;rft_val_fmt=info:ofi/fmt:kev:mtx:journal&amp;rft.genre=unknown&amp;rft.jtitle=New+York+Times+%281857-1922%29&amp;rft.atitle=Admiral+Farragut%27s+Operations+at+Mobile.%3A+THE+CAPTURE+OF+FORT+MORGAN.+Grant%27s+Movements+Around+Richmond.+Third+Great+Attempt+of+the+Rebels+to+Regain+the+Weldon+Railroad.+GREAT+BATTLE+ON+THURSDAY.+Hancock+Attacked+the+Rebels+Again+Repulsed.+REBEL+MOVEMENTS+IN+THE+SHENANDOAH.+%5BOFFICIAL.%5D+From+the+Army+of+the+Potomac.&amp;rft.au=&amp;rft.aulast=&amp;rft.aufirst=&amp;rft.date=1864-08-29&amp;rft.volume=&amp;rft.issue=&amp;rft.spage=1&amp;rft.isbn=&amp;rft.btitle=&amp;rft.title=New+York+Times+%281857-1922%29&amp;rft.issn=03624331,ProQuest Historical Newspapers: The New York Times (1851-2009) with Index (1851-1993)
The Defences of Mobile Bay.,,91861299,Historical Newspapers,," Copyright New York Times Company Aug 29, 1864"," 78730956 , 1446381 , 113715", article," Aug 29, 1864",0362-4331, English, English, 3," New York, N.Y.","Aug 29, 1864",New York Times (1857-1922),1864,http://search.proquest.com/docview/91861299?accountid=13567, 3,http://openurl.lib.rochester.edu/find?ctx_ver=Z39.88-2004&amp;ctx_enc=info:ofi/enc:UTF-8&amp;rfr_id=info:sid/ProQ%3Ahnpnewyorktimeswindex&amp;rft_val_fmt=info:ofi/fmt:kev:mtx:journal&amp;rft.genre=article&amp;rft.jtitle=New+York+Times+%281857-1922%29&amp;rft.atitle=The+Defences+of+Mobile+Bay.&amp;rft.au=&amp;rft.aulast=&amp;rft.aufirst=&amp;rft.date=1864-08-29&amp;rft.volume=&amp;rft.issue=&amp;rft.spage=3&amp;rft.isbn=&amp;rft.btitle=&amp;rft.title=New+York+Times+%281857-1922%29&amp;rft.issn=03624331,ProQuest Historical Newspapers: The New York Times (1851-2009) with Index (1851-1993)
SOUTHERN NEWS.,"The Richmond papers to Aug. 22, the receipt of which we have already acknowledged, furnish us the following interesting extracts in addition to those already published:",91851849,Historical Newspapers,," Copyright New York Times Company Aug 28, 1864"," 78730866 , 1446380 , 113715", article," Aug 28, 1864",0362-4331, English, English, 2," New York, N.Y.","Aug 28, 1864",New York Times (1857-1922),1864,http://search.proquest.com/docview/91851849?accountid=13567, 2,http://openurl.lib.rochester.edu/find?ctx_ver=Z39.88-2004&amp;ctx_enc=info:ofi/enc:UTF-8&amp;rfr_id=info:sid/ProQ%3Ahnpnewyorktimeswindex&amp;rft_val_fmt=info:ofi/fmt:kev:mtx:journal&amp;rft.genre=article&amp;rft.jtitle=New+York+Times+%281857-1922%29&amp;rft.atitle=SOUTHERN+NEWS.%3A+RECENT+OPERATIONS+BEFORE+ATLANTA.+THE+REBEL+SITUATION+AT+MOBILE.+MORE+PEACE+TALK+FROM+THE+RICHMOND+PAPERS.+INTERESTING+MISCELLANEOUS+INTELLIGENCE.+ATLANTA.+SUMMARY+OF+OPERATIONS+TO+AUG.+5.+SUNDAY%27S+BATTLE.+AN+UNSUCCESSFUL+EFFORT+FROM+THE+VALLEY.+MOBILE.+A+REVIEW+OF+THE+SITUATION.+GEN.+HUNTER%27S+RAID.+THE+VIRGINIA+MILITARY+INSTITUTE.+TRADING+IN+GREENBACKS.+THE+OGDEN+CASE.+THE+ARREST+OP+MR.+MAGILL.+RETALIATION+THREATENED.+PEACE+QUESTION.+THE+ALLEGED+ARMISTICE.+A+DUEL.+THE+REBEL+TREASURER%2C+INDICTMENT+FOR+GAMBLING.+A+BLOCKADE-RUNNER+DESTROYED.+THE+TALLAHASSEE.+NORTH+CAROLINA.+COURTESIES+TO+THE+ENEMY.+ORDERED+TO+DUTY.+THE+PEACE+DEMOCRATS.+MISCELLANEOUS.+THE+DUELING+CASE.+PRESENTATION+TO+EX-SECRETARY+MEMMINGER.+FINANCIAL+PROJECTS.+AUCTION+SALES.+AN+ORDER+BY+GEN.+HILL.&amp;rft.au=&amp;rft.aulast=&amp;rft.aufirst=&amp;rft.date=1864-08-28&amp;rft.volume=&amp;rft.issue=&amp;rft.spage=2&amp;rft.isbn=&amp;rft.btitle=&amp;rft.title=New+York+Times+%281857-1922%29&amp;rft.issn=03624331,ProQuest Historical Newspapers: The New York Times (1851-2009) with Index (1851-1993)
NEWS FROM WASHINGTON.,"FROM ADMIRAL FARRAGUT. The Navy Department is in receipt of dispatches from Admiral FARRAGUT, dated Mobile Bay, Aug. 12, giving a detailed report of his entrance into Mobile Bay on the 5th inst. He says, notwithstanding the loss of life, particularly on the Hartford, and the terrible disaster to the Tecumseh, the result of the fight was a ...",91850458,Historical Newspapers,," Copyright New York Times Company Aug 28, 1864"," 78730887 , 1446380 , 113715", article," Aug 28, 1864",0362-4331, English, English, 4," New York, N.Y.","Aug 28, 1864",New York Times (1857-1922),1864,http://search.proquest.com/docview/91850458?accountid=13567, 4,http://openurl.lib.rochester.edu/find?ctx_ver=Z39.88-2004&amp;ctx_enc=info:ofi/enc:UTF-8&amp;rfr_id=info:sid/ProQ%3Ahnpnewyorktimeswindex&amp;rft_val_fmt=info:ofi/fmt:kev:mtx:journal&amp;rft.genre=article&amp;rft.jtitle=New+York+Times+%281857-1922%29&amp;rft.atitle=NEWS+FROM+WASHINGTON.%3A+DISPATCHES+TO+THE+ASSOCIATED+PRESS.+A+NAVAL+AFFAIR.+TRADE+IN+THE+MOORISH+DOMINIONS.+SENTENCES+FOR+DESERTION.&amp;rft.au=&amp;rft.aulast=&amp;rft.aufirst=&amp;rft.date=1864-08-28&amp;rft.volume=&amp;rft.issue=&amp;rft.spage=4&amp;rft.isbn=&amp;rft.btitle=&amp;rft.title=New+York+Times+%281857-1922%29&amp;rft.issn=03624331,ProQuest Historical Newspapers: The New York Times (1851-2009) with Index (1851-1993)
The Fight in Mobile Bay.,"The subjoined extract from a private letter describes the fight with the ram Tennessee, as witnessed from the flag-ship Hartford:",91861962,Historical Newspapers,," Copyright New York Times Company Aug 27, 1864"," 80297648 , 1459081 , 113715", article," Aug 27, 1864",0362-4331, English, English, 2," New York, N.Y.","Aug 27, 1864",New York Times (1857-1922),1864,http://search.proquest.com/docview/91861962?accountid=13567, 2,http://openurl.lib.rochester.edu/find?ctx_ver=Z39.88-2004&amp;ctx_enc=info:ofi/enc:UTF-8&amp;rfr_id=info:sid/ProQ%3Ahnpnewyorktimeswindex&amp;rft_val_fmt=info:ofi/fmt:kev:mtx:journal&amp;rft.genre=article&amp;rft.jtitle=New+York+Times+%281857-1922%29&amp;rft.atitle=The+Fight+in+Mobile+Bay.&amp;rft.au=&amp;rft.aulast=&amp;rft.aufirst=&amp;rft.date=1864-08-27&amp;rft.volume=&amp;rft.issue=&amp;rft.spage=2&amp;rft.isbn=&amp;rft.btitle=&amp;rft.title=New+York+Times+%281857-1922%29&amp;rft.issn=03624331,ProQuest Historical Newspapers: The New York Times (1851-2009) with Index (1851-1993)
DEPARTMENT OF THE GULF.,"The United States steam transport Mississippi Capt. KENNEDY, arrived at this port, this morning, from New-Orleans 18th inst., and the Bar 19th. She brings a number of passengers, and 175 sick and wounded soldiers, consigned to the United States Assistant Quartermaster.",91879584,Historical Newspapers,," Copyright New York Times Company Aug 27, 1864"," 80297647-1 , 1459081 , 113715", article," Aug 27, 1864",0362-4331, English, English, 2," New York, N.Y.","Aug 27, 1864",New York Times (1857-1922),1864,http://search.proquest.com/docview/91879584?accountid=13567, 2,http://openurl.lib.rochester.edu/find?ctx_ver=Z39.88-2004&amp;ctx_enc=info:ofi/enc:UTF-8&amp;rfr_id=info:sid/ProQ%3Ahnpnewyorktimeswindex&amp;rft_val_fmt=info:ofi/fmt:kev:mtx:journal&amp;rft.genre=article&amp;rft.jtitle=New+York+Times+%281857-1922%29&amp;rft.atitle=DEPARTMENT+OF+THE+GULF.%3A+ARRIVAL+OF+THE+MISSISSIPPI+FROM+NEW-ORLEANS.+AFFAIRS+AT+MOBILE.+A+RECONNOISSANCE+OF+THE+HARBOR.+THE+STEAMSHIP+NASHVILLE+SUNK+IN+THE+CHANNEL.+A+CONGRATULATORY+ORDER+FROM+ADMIRAL+FARRAGUT.+MOBILE.+A+REPORT+FROM+THR+NAVAL+HEADQUARTERS.+THE+RAM+TENNESSEE.+MYSTERIOUS+SILENCE+OF+FORT+MORGAN.+THE+FORT+TO+BE+OBSTINATELY+DEFENDED.+THE+DEFENCES+OF+MOBILE.+THE+MISSISSIPPI.+GUERRILLAS+ALONG+THE+RIVER.+REPORT+OF+THE+IDA+HANDY.+MILITARY+ORDERS.+GEN.+HERRON+COMMANDING+AT+BATON+ROUGE.&amp;rft.au=&amp;rft.aulast=&amp;rft.aufirst=&amp;rft.date=1864-08-27&amp;rft.volume=&amp;rft.issue=&amp;rft.spage=2&amp;rft.isbn=&amp;rft.btitle=&amp;rft.title=New+York+Times+%281857-1922%29&amp;rft.issn=03624331,ProQuest Historical Newspapers: The New York Times (1851-2009) with Index (1851-1993)
SOUTHERN NEWS.,"The enemy's force engaged to-day consisted of three brigades of the Fifth Corps, with 18 pieces of artillery, and an unascertained force of cavalry, commanded by Gen. WARREN. The enemy engaged our cavalry about 9 o'clock, about four miles southwest of the town, driving them in some four miles, when our infantry came into action at 2 o'clock, driving the enemy back some three-quarters of a mile. Night closed the engagement with the enemy holding the Weldon Railroad at a point about three miles below the city.",91809865,Historical Newspapers,," Copyright New York Times Company Aug 26, 1864"," 80297529-1 , 1459080 , 113715", front_page," Aug 26, 1864",0362-4331, English, English, 1," New York, N.Y.","Aug 26, 1864",New York Times (1857-1922),1864,http://search.proquest.com/docview/91809865?accountid=13567, 1,http://openurl.lib.rochester.edu/find?ctx_ver=Z39.88-2004&amp;ctx_enc=info:ofi/enc:UTF-8&amp;rfr_id=info:sid/ProQ%3Ahnpnewyorktimeswindex&amp;rft_val_fmt=info:ofi/fmt:kev:mtx:journal&amp;rft.genre=unknown&amp;rft.jtitle=New+York+Times+%281857-1922%29&amp;rft.atitle=SOUTHERN+NEWS.%3A+REBEL+ACCOUNTS+OF+THE+LATE+BATTLES.+NAMES+OF+FEDERAL+OFFICERS+CAPTURED.+HIGH+EXPECTATIONS+OF+WHEELER%27S+RAID+THE+PEACE+QUESTION+VIGOROUSLY+DISCUSSED.+WHAT+IS+EXPECTED+FROM+THE+CHICAGO+CONVENTION.+WHAT+THE+REBELS+HANG+THEIR+HOPES+UPON.+PROSPECTS+OF+AN+EXCHANGE+OF+PRISONERS.+WE+HAVE+RECEIVED+FULL+FILES+OF+RICHMOND+PAPERS+TO+AUGUST+22%2C+WHICH+CONTAIN+MUCH+INTERESTING+AND+IMPORTANT+INTELLIGENCE.+WE+MAKE+THE+FOLLOWING+EXTRACTS%3A+THE+WAR+IN+VIRGINIA.+REBEL+ACCOUNTS+OF+THE+LATE+BATTLES+BELOW+PETERSBURGH.+GEORGIA.+WHEELER%27S+MOVEMENTS.+FLORIDA.+MOBILE.+THE+PRISONERS.+PROSPECTS+OF+AN+EXCHANGE.+RETALIATION.+FROM+THE+RICHMOND+DISPATCH%2C+AUG.+22.+FEDERAL+DESERTIONS.+%22+GENERAL+ORDER+NO.+65.%22+GEN.+FORREST+AND+THE+NEGROES.+VIRGINIA+AND+TENNESSEE+RAILROAD.+TEXAS.+THE+AFFAIR+AT+EAGLE+PASS.+THE+MARKETS.+SPIRIT+OF+THE+PRESS--THE+PEACE+QUESTION.+LET+US+BE+PATIENT+AND+WARY%21&amp;rft.au=&amp;rft.aulast=&amp;rft.aufirst=&amp;rft.date=1864-08-26&amp;rft.volume=&amp;rft.issue=&amp;rft.spage=1&amp;rft.isbn=&amp;rft.btitle=&amp;rft.title=New+York+Times+%281857-1922%29&amp;rft.issn=03624331,ProQuest Historical Newspapers: The New York Times (1851-2009) with Index (1851-1993)
FROM NEW-ORLEANS.,"We have New-Orleans dates of the afternoon of the 10th, through the steamer Ida Handy, just arrived.",91805882,Historical Newspapers,," Copyright New York Times Company Aug 26, 1864"," 80297540 , 1459080 , 113715", article," Aug 26, 1864",0362-4331, English, English, 2," New York, N.Y.","Aug 26, 1864",New York Times (1857-1922),1864,http://search.proquest.com/docview/91805882?accountid=13567, 2,http://openurl.lib.rochester.edu/find?ctx_ver=Z39.88-2004&amp;ctx_enc=info:ofi/enc:UTF-8&amp;rfr_id=info:sid/ProQ%3Ahnpnewyorktimeswindex&amp;rft_val_fmt=info:ofi/fmt:kev:mtx:journal&amp;rft.genre=article&amp;rft.jtitle=New+York+Times+%281857-1922%29&amp;rft.atitle=FROM+NEW-ORLEANS.%3A+MATTERS+IN+THE+WESTERN+GULF+THE+SITUATION+AT+MOBILE+AFFAIRS+IN+LOUISIANA+AND+MISSISSIPPI.&amp;rft.au=&amp;rft.aulast=&amp;rft.aufirst=&amp;rft.date=1864-08-26&amp;rft.volume=&amp;rft.issue=&amp;rft.spage=2&amp;rft.isbn=&amp;rft.btitle=&amp;rft.title=New+York+Times+%281857-1922%29&amp;rft.issn=03624331,ProQuest Historical Newspapers: The New York Times (1851-2009) with Index (1851-1993)
"THE CAMPAIGN, ITS SUCCESS AND ITS MISTAKES","The Public expectation was raised so high by the early successes of GRANT and SHERMAN, that, in the minds of many, there is an evident feeling of disappointment that the campaign is not now ended. Is that reasonable? Is a campaign, which involves on both sides the movement of a million of men and thousands of miles ...",91812257,Historical Newspapers,," Copyright New York Times Company Aug 26, 1864"," 80297577-1 , 1459080 , 113715", article," Aug 26, 1864",0362-4331, English, English, 5," New York, N.Y.","Aug 26, 1864",New York Times (1857-1922),1864,http://search.proquest.com/docview/91812257?accountid=13567, 5,http://openurl.lib.rochester.edu/find?ctx_ver=Z39.88-2004&amp;ctx_enc=info:ofi/enc:UTF-8&amp;rfr_id=info:sid/ProQ%3Ahnpnewyorktimeswindex&amp;rft_val_fmt=info:ofi/fmt:kev:mtx:journal&amp;rft.genre=article&amp;rft.jtitle=New+York+Times+%281857-1922%29&amp;rft.atitle=THE+CAMPAIGN%2C+ITS+SUCCESS+AND+ITS+MISTAKES%3A+CHANGES+OF+THE+LAST+THIRTY+DAYS+MOVEMENTS+OF+GRANT%2C+SHERMAN+AND+FARRAGUT+BLUNDER+OF+THE+SHENANDOAH+VALLEY.&amp;rft.au=&amp;rft.aulast=&amp;rft.aufirst=&amp;rft.date=1864-08-26&amp;rft.volume=&amp;rft.issue=&amp;rft.spage=5&amp;rft.isbn=&amp;rft.btitle=&amp;rft.title=New+York+Times+%281857-1922%29&amp;rft.issn=03624331,ProQuest Historical Newspapers: The New York Times (1851-2009) with Index (1851-1993)
THE BATTLE WITH THE FORTS.,"Preparations for the attack had been in progress for two weeks past, and by a general order, dated ""Flagship Hartford, July 10, 1864,"" each vessel was sent to Pensacola Navy-yard, in her turn, for the purpose of stripping off all the spars and rigging which might interfere with her movement in action, and by hanging heavy cable chains over her side to form an iron shield for the protection of the boilers and machinery, which are partially exposed above the water line.",91867700,Historical Newspapers,," Copyright New York Times Company Aug 25, 1864"," 461024422 , 6028492 , 113715", article," Aug 25, 1864",0362-4331, English, English,," New York, N.Y.","Aug 25, 1864",New York Times (1857-1922),1864,http://search.proquest.com/docview/91867700?accountid=13567, 2,http://openurl.lib.rochester.edu/find?ctx_ver=Z39.88-2004&amp;ctx_enc=info:ofi/enc:UTF-8&amp;rfr_id=info:sid/ProQ%3Ahnpnewyorktimeswindex&amp;rft_val_fmt=info:ofi/fmt:kev:mtx:journal&amp;rft.genre=article&amp;rft.jtitle=New+York+Times+%281857-1922%29&amp;rft.atitle=THE+BATTLE+WITH+THE+FORTS.%3A+INTERESTING+PARTICULARS+OF+THE+NAVAL+ENGAGEMENT+BY+A+PARTICIPANT.+PREPARATIONS+FOR+THE+CONFLICT.+THE+MORNING+OF+THE+ENGAGEMENT.+MOVING+UP+THE+CHANNEL.+THE+FORT+ENGAGED.+APPEARANCE+OF+THE+RAM.+SINKING+OF+THE+TECUMSEH.+NOBLE+SELF-SACRIFICE.+INSIDE+THE+BAY.+ENGAGEMENT+WITH+THE+RAM.+THE+LACKAWANA+ATTACKS+THE+RAM.+A+SINGULAR+SCENE.+THE+RAM+SURRENDERS.+SURRENDER+OF+THE+SELMA.+THE+FORTS--IMPORTANCE+OF+THE+VICTORY.+THANKS+TO+THE+MEN.+THANKS+TO+ALMIGHTY+GOD.+THE+LOSSES.+CATCHING+A+TARTAR.&amp;rft.au=&amp;rft.aulast=&amp;rft.aufirst=&amp;rft.date=1864-08-25&amp;rft.volume=&amp;rft.issue=&amp;rft.spage=2&amp;rft.isbn=&amp;rft.btitle=&amp;rft.title=New+York+Times+%281857-1922%29&amp;rft.issn=03624331,ProQuest Historical Newspapers: The New York Times (1851-2009) with Index (1851-1993)
LATEST FROM MOBILE.,"The land forces under Gen. GRANGER are within 300 yards of Fort Morgan, and a general assault is expected in a few days. The fleet is fully prepared, including the ram Tennessee.",91798149,Historical Newspapers,," Copyright New York Times Company Aug 24, 1864"," 78730696 , 1446378 , 113715", article," Aug 24, 1864",0362-4331, English, English, 4," New York, N.Y.","Aug 24, 1864",New York Times (1857-1922),1864,http://search.proquest.com/docview/91798149?accountid=13567, 4,http://openurl.lib.rochester.edu/find?ctx_ver=Z39.88-2004&amp;ctx_enc=info:ofi/enc:UTF-8&amp;rfr_id=info:sid/ProQ%3Ahnpnewyorktimeswindex&amp;rft_val_fmt=info:ofi/fmt:kev:mtx:journal&amp;rft.genre=article&amp;rft.jtitle=New+York+Times+%281857-1922%29&amp;rft.atitle=LATEST+FROM+MOBILE.%3A+THE+EXPECTED+ASSAULT+OF+FORT+MORGAN+THE+LAND+FORCES+AND+FLEET+ALL+READY+THE+FORT+SILENT.&amp;rft.au=&amp;rft.aulast=&amp;rft.aufirst=&amp;rft.date=1864-08-24&amp;rft.volume=&amp;rft.issue=&amp;rft.spage=4&amp;rft.isbn=&amp;rft.btitle=&amp;rft.title=New+York+Times+%281857-1922%29&amp;rft.issn=03624331,ProQuest Historical Newspapers: The New York Times (1851-2009) with Index (1851-1993)
THE SIEGE OF FORT MORGAN.,,91793966,Historical Newspapers,," Copyright New York Times Company Aug 24, 1864"," 78730699 , 1446378 , 113715", article," Aug 24, 1864",0362-4331, English, English, 4," New York, N.Y.","Aug 24, 1864",New York Times (1857-1922),1864,http://search.proquest.com/docview/91793966?accountid=13567, 4,http://openurl.lib.rochester.edu/find?ctx_ver=Z39.88-2004&amp;ctx_enc=info:ofi/enc:UTF-8&amp;rfr_id=info:sid/ProQ%3Ahnpnewyorktimeswindex&amp;rft_val_fmt=info:ofi/fmt:kev:mtx:journal&amp;rft.genre=article&amp;rft.jtitle=New+York+Times+%281857-1922%29&amp;rft.atitle=THE+SIEGE+OF+FORT+MORGAN.&amp;rft.au=&amp;rft.aulast=&amp;rft.aufirst=&amp;rft.date=1864-08-24&amp;rft.volume=&amp;rft.issue=&amp;rft.spage=4&amp;rft.isbn=&amp;rft.btitle=&amp;rft.title=New+York+Times+%281857-1922%29&amp;rft.issn=03624331,ProQuest Historical Newspapers: The New York Times (1851-2009) with Index (1851-1993)
MOBILE.,The following was received at the Navy Department this morning:,91804290,Historical Newspapers,," Copyright New York Times Company Aug 24, 1864"," 78730701 , 1446378 , 113715", article," Aug 24, 1864",0362-4331, English, English, 5," New York, N.Y.","Aug 24, 1864",New York Times (1857-1922),1864,http://search.proquest.com/docview/91804290?accountid=13567, 5,http://openurl.lib.rochester.edu/find?ctx_ver=Z39.88-2004&amp;ctx_enc=info:ofi/enc:UTF-8&amp;rfr_id=info:sid/ProQ%3Ahnpnewyorktimeswindex&amp;rft_val_fmt=info:ofi/fmt:kev:mtx:journal&amp;rft.genre=article&amp;rft.jtitle=New+York+Times+%281857-1922%29&amp;rft.atitle=MOBILE.%3A+OFFICIAL+DISPATCHES+FROM+ADMIRAL+FARRAGUT.+THE+EVACUATION+OF+FORT+POWELL+AND+THE+SURRENDER+OF+FORT+GAINES.+THE+CASUALTIES+IN+MOBILE+BAY.&amp;rft.au=&amp;rft.aulast=&amp;rft.aufirst=&amp;rft.date=1864-08-24&amp;rft.volume=&amp;rft.issue=&amp;rft.spage=5&amp;rft.isbn=&amp;rft.btitle=&amp;rft.title=New+York+Times+%281857-1922%29&amp;rft.issn=03624331,ProQuest Historical Newspapers: The New York Times (1851-2009) with Index (1851-1993)
DEPARTMENT OF THE GULF.,"The steamer E.B. Sunder, from New-Orleans Aug. 14, arrived at this port yesterday.",91802466,Historical Newspapers,," Copyright New York Times Company Aug 23, 1864"," 78730553 , 1446377 , 113715", front_page," Aug 23, 1864",0362-4331, English, English, 1," New York, N.Y.","Aug 23, 1864",New York Times (1857-1922),1864,http://search.proquest.com/docview/91802466?accountid=13567, 1,http://openurl.lib.rochester.edu/find?ctx_ver=Z39.88-2004&amp;ctx_enc=info:ofi/enc:UTF-8&amp;rfr_id=info:sid/ProQ%3Ahnpnewyorktimeswindex&amp;rft_val_fmt=info:ofi/fmt:kev:mtx:journal&amp;rft.genre=unknown&amp;rft.jtitle=New+York+Times+%281857-1922%29&amp;rft.atitle=DEPARTMENT+OF+THE+GULF.%3A+ADVICES+FROM+NEW-ORLEANS+TO+AUGUST+14.+THE+OPERATIONS+AT+MOBILE.+THE+SIEGE+OF+PORT+MORGAN.+INTERESTING%2C+REBEL+ACCOUNTS+OF+THE+NAVAL+BATTLE.+OUR+NEW-ORLEANS+CORRESPONDENCE+GALLANTRY+OF+ADMIRAL+FARRAGUT+THE+TENNESSEE+THE+PRISONERS.&amp;rft.au=&amp;rft.aulast=&amp;rft.aufirst=&amp;rft.date=1864-08-23&amp;rft.volume=&amp;rft.issue=&amp;rft.spage=1&amp;rft.isbn=&amp;rft.btitle=&amp;rft.title=New+York+Times+%281857-1922%29&amp;rft.issn=03624331,ProQuest Historical Newspapers: The New York Times (1851-2009) with Index (1851-1993)
FORT MORGAN.,,91838703,Historical Newspapers,," Copyright New York Times Company Aug 23, 1864"," 78730557 , 1446377 , 113715", article," Aug 23, 1864",0362-4331, English, English, 2," New York, N.Y.","Aug 23, 1864",New York Times (1857-1922),1864,http://search.proquest.com/docview/91838703?accountid=13567, 2,http://openurl.lib.rochester.edu/find?ctx_ver=Z39.88-2004&amp;ctx_enc=info:ofi/enc:UTF-8&amp;rfr_id=info:sid/ProQ%3Ahnpnewyorktimeswindex&amp;rft_val_fmt=info:ofi/fmt:kev:mtx:journal&amp;rft.genre=article&amp;rft.jtitle=New+York+Times+%281857-1922%29&amp;rft.atitle=FORT+MORGAN.&amp;rft.au=&amp;rft.aulast=&amp;rft.aufirst=&amp;rft.date=1864-08-23&amp;rft.volume=&amp;rft.issue=&amp;rft.spage=2&amp;rft.isbn=&amp;rft.btitle=&amp;rft.title=New+York+Times+%281857-1922%29&amp;rft.issn=03624331,ProQuest Historical Newspapers: The New York Times (1851-2009) with Index (1851-1993)
REBEL ACCOUNTS.,,91814575,Historical Newspapers,," Copyright New York Times Company Aug 23, 1864"," 78730560-1 , 1446377 , 113715", article," Aug 23, 1864",0362-4331, English, English, 2," New York, N.Y.","Aug 23, 1864",New York Times (1857-1922),1864,http://search.proquest.com/docview/91814575?accountid=13567, 2,http://openurl.lib.rochester.edu/find?ctx_ver=Z39.88-2004&amp;ctx_enc=info:ofi/enc:UTF-8&amp;rfr_id=info:sid/ProQ%3Ahnpnewyorktimeswindex&amp;rft_val_fmt=info:ofi/fmt:kev:mtx:journal&amp;rft.genre=article&amp;rft.jtitle=New+York+Times+%281857-1922%29&amp;rft.atitle=REBEL+ACCOUNTS.%3A+THE+NAVAL+ENGAGEMENT.+THE+EVACUATION+OF+FORT+POWELL.+NON-COMBATANTS+ORDERED+TO+LEAVE.+BUCHANAN%27S+SUCCESSOR.+OFFICERS+CAPTURED+AT+FORT+GAINES.+A+FALSE+PROPHET.+THE+MAYOR%27S+PROCLAMATION.+GENERAL+CALL+TO+THE+CITIZENS.+ADMIRAL+FARRAGUT%27S+ORDERS.+OFFICIAL+REBEL+ANNOUNCEMENT+OF+THE+DEFEAT.&amp;rft.au=&amp;rft.aulast=&amp;rft.aufirst=&amp;rft.date=1864-08-23&amp;rft.volume=&amp;rft.issue=&amp;rft.spage=2&amp;rft.isbn=&amp;rft.btitle=&amp;rft.title=New+York+Times+%281857-1922%29&amp;rft.issn=03624331,ProQuest Historical Newspapers: The New York Times (1851-2009) with Index (1851-1993)
DEPARTMENT OF THE SOUTH.,"On the night of the 9th inst., a blockade-runner, while attempting to either pass out of, or enter into Charleston Harbor, ran aground on Sullivan's Island beach, near the old pier opposite Fort Moultrie, when she was discovered at daylight the next morning by the gunners at Battery Chatfield.",91808935,Historical Newspapers,," Copyright New York Times Company Aug 23, 1864"," 78730562 , 1446377 , 113715", article," Aug 23, 1864",0362-4331, English, English, 2," New York, N.Y.","Aug 23, 1864",New York Times (1857-1922),1864,http://search.proquest.com/docview/91808935?accountid=13567, 2,http://openurl.lib.rochester.edu/find?ctx_ver=Z39.88-2004&amp;ctx_enc=info:ofi/enc:UTF-8&amp;rfr_id=info:sid/ProQ%3Ahnpnewyorktimeswindex&amp;rft_val_fmt=info:ofi/fmt:kev:mtx:journal&amp;rft.genre=article&amp;rft.jtitle=New+York+Times+%281857-1922%29&amp;rft.atitle=DEPARTMENT+OF+THE+SOUTH.%3A+ARRIVAL+OF+THE+JOHN+J.+RICE+FROM+HILTON+HEAD.+THE+DIFFICULTIES+OF+BLOCKADE-RUNNING+AT+CHARLESTON.+THE+BOMBARDMENT+OF+SUMTER.+ARRIVAL+OF+DESERTERS.+A+SUCCESSFUL+EXPEDITION.+PRISONERS+UNDER+FIRE+RETALIATORY+MEASURES.THE+STEAMER+J.J.+RICE%2C+FROM+HILTON+HEAD+AUG.+17%2C+ARRIVED+AT+THIS+PORT+YESTERDAY.OUR+HILTON+HEAD+CORRESPONDENCE.BLOCKADE-RUNNER+SUNK+FIRING+ON+SUMTER+DESERTERS+A+COUNTY+MEETING+BROKEN+UP+A+SUCCESSFUL+%5BEXPEDITION+RETALIATION+EXCHANGE+OF+PRISONERS.+A+BLOCKADE-RUNNER+SUNK.+SUMTER.+DESERTERS.+THE+FORTS+AT+HILTON+HEAD.+RECRUITING.+THE+VICTORY+IN+MOBILE+HARBOR.+RETALIATION.+MORE+EXCHANGED+PRISONERS.&amp;rft.au=&amp;rft.aulast=&amp;rft.aufirst=&amp;rft.date=1864-08-23&amp;rft.volume=&amp;rft.issue=&amp;rft.spage=2&amp;rft.isbn=&amp;rft.btitle=&amp;rft.title=New+York+Times+%281857-1922%29&amp;rft.issn=03624331,ProQuest Historical Newspapers: The New York Times (1851-2009) with Index (1851-1993)
THE MONITOR TECUMSEH.,,91751625,Historical Newspapers," From the True Delta, Aug. 11.
From the True Delta, Aug. 11."," Copyright New York Times Company Aug 23, 1864"," 78730563 , 1446377 , 113715", article," Aug 23, 1864",0362-4331, English, English, 2," New York, N.Y.","Aug 23, 1864",New York Times (1857-1922),1864,http://search.proquest.com/docview/91751625?accountid=13567, 2,http://openurl.lib.rochester.edu/find?ctx_ver=Z39.88-2004&amp;ctx_enc=info:ofi/enc:UTF-8&amp;rfr_id=info:sid/ProQ%3Ahnpnewyorktimeswindex&amp;rft_val_fmt=info:ofi/fmt:kev:mtx:journal&amp;rft.genre=article&amp;rft.jtitle=New+York+Times+%281857-1922%29&amp;rft.atitle=THE+MONITOR+TECUMSEH.%3A+HER+DISTRUCTION+BY+A+REBEL+TORPEDO+LIST+OF+THOSE+SAVED.&amp;rft.au=From+the+True+Delta%2C+Aug.+11.&amp;rft.aulast=From+the+True+Delta&amp;rft.aufirst=Aug.&amp;rft.date=1864-08-23&amp;rft.volume=&amp;rft.issue=&amp;rft.spage=2&amp;rft.isbn=&amp;rft.btitle=&amp;rft.title=New+York+Times+%281857-1922%29&amp;rft.issn=03624331,ProQuest Historical Newspapers: The New York Times (1851-2009) with Index (1851-1993)
"The Situation in Mobile, as Viewed at Washington.","Rebel sympathizers here denounce ANDERSON as a ""traitor"", for the surrender of Fort Gaines be fore the fort had been fairly under fire for twenty four hours. The rebel dispatch from Mobile pronounces his conduct ""inexplicable,"" and the fact that Gen. PAGE had removed him from command when he visited the fort, and appointed a successor, shows that he (PAGE) believed the fort capable of a further resistance. But ANDERSON had already (unknown to PAGE) surrendered the fort on board of our fleet. It appears strange, however that the commander who succeeded ANDERSON should also have agreed to the surrender, as it would proba- ...",91867832,Historical Newspapers,," Copyright New York Times Company Aug 22, 1864"," 78730462 , 1446376 , 113715", article," Aug 22, 1864",0362-4331, English, English, 2," New York, N.Y.","Aug 22, 1864",New York Times (1857-1922),1864,http://search.proquest.com/docview/91867832?accountid=13567, 2,http://openurl.lib.rochester.edu/find?ctx_ver=Z39.88-2004&amp;ctx_enc=info:ofi/enc:UTF-8&amp;rfr_id=info:sid/ProQ%3Ahnpnewyorktimeswindex&amp;rft_val_fmt=info:ofi/fmt:kev:mtx:journal&amp;rft.genre=article&amp;rft.jtitle=New+York+Times+%281857-1922%29&amp;rft.atitle=The+Situation+in+Mobile%2C+as+Viewed+at+Washington.&amp;rft.au=&amp;rft.aulast=&amp;rft.aufirst=&amp;rft.date=1864-08-22&amp;rft.volume=&amp;rft.issue=&amp;rft.spage=2&amp;rft.isbn=&amp;rft.btitle=&amp;rft.title=New+York+Times+%281857-1922%29&amp;rft.issn=03624331,ProQuest Historical Newspapers: The New York Times (1851-2009) with Index (1851-1993)
OUR NEW-ORLEANS CORRESPONDENCE,"You may expect to hear shortly of the offensive being taken again in this department. Before this reaches you, GORDON GRANGER will be thundering at the gates of Mobile. I understand that our base of operations is to be Pascagoula. I presume that the importance of a demonstration upon this City of Mobile at this time is fully appreciated by Gen. CANBY, and that it is being pushed forward with all dispatch.",91862964,Historical Newspapers,," Copyright New York Times Company Aug 22, 1864"," 78730459 , 1446376 , 113715", article," Aug 22, 1864",0362-4331, English, English, 2," New York, N.Y.","Aug 22, 1864",New York Times (1857-1922),1864,http://search.proquest.com/docview/91862964?accountid=13567, 2,http://openurl.lib.rochester.edu/find?ctx_ver=Z39.88-2004&amp;ctx_enc=info:ofi/enc:UTF-8&amp;rfr_id=info:sid/ProQ%3Ahnpnewyorktimeswindex&amp;rft_val_fmt=info:ofi/fmt:kev:mtx:journal&amp;rft.genre=article&amp;rft.jtitle=New+York+Times+%281857-1922%29&amp;rft.atitle=OUR+NEW-ORLEANS+CORRESPONDENCE%3A+FARRAGUT+AND+GRANGER+AGAINST+MOBILE--AN+ENROLLMENT+IN+NEW-ORLEANS--CONSOLIDATION+OF+THE+CORPS+D%27AFRIQUE.&amp;rft.au=&amp;rft.aulast=&amp;rft.aufirst=&amp;rft.date=1864-08-22&amp;rft.volume=&amp;rft.issue=&amp;rft.spage=2&amp;rft.isbn=&amp;rft.btitle=&amp;rft.title=New+York+Times+%281857-1922%29&amp;rft.issn=03624331,ProQuest Historical Newspapers: The New York Times (1851-2009) with Index (1851-1993)
SOUTHERN NEWS.,"From late Southern papers, received at this office, we make the following interesting extracts:",91864062,Historical Newspapers," From the Richmond Dispatch, Aug. 15.
From the Richmond Dispatch, Aug. 15."," Copyright New York Times Company Aug 21, 1864"," 78730327 , 1446375 , 113715", front_page," Aug 21, 1864",0362-4331, English, English, 1," New York, N.Y.","Aug 21, 1864",New York Times (1857-1922),1864,http://search.proquest.com/docview/91864062?accountid=13567, 1,http://openurl.lib.rochester.edu/find?ctx_ver=Z39.88-2004&amp;ctx_enc=info:ofi/enc:UTF-8&amp;rfr_id=info:sid/ProQ%3Ahnpnewyorktimeswindex&amp;rft_val_fmt=info:ofi/fmt:kev:mtx:journal&amp;rft.genre=unknown&amp;rft.jtitle=New+York+Times+%281857-1922%29&amp;rft.atitle=SOUTHERN+NEWS.%3A+EXTRACTS+FROM+OUR+RICHMOND+FILES.+THE+SITUATION+BEFORE+RICHMOND%2C+ATLANTA+AND+MOBILE.+INTERESTING+CHAPTER+ON+BLOCKADE+RUNNING.+PETERSBURGH.+THE+SHELLING+OF+THE+CITY+SUSPENDED.+FIGHTING+DOWN+THE+RIVER.+GRANT%27S+OPERATIONS+BEFORE+PETERSBURGH.&amp;rft.au=From+the+Richmond+Dispatch%2C+Aug.+15.&amp;rft.aulast=From+the+Richmond+Dispatch&amp;rft.aufirst=Aug.&amp;rft.date=1864-08-21&amp;rft.volume=&amp;rft.issue=&amp;rft.spage=1&amp;rft.isbn=&amp;rft.btitle=&amp;rft.title=New+York+Times+%281857-1922%29&amp;rft.issn=03624331,ProQuest Historical Newspapers: The New York Times (1851-2009) with Index (1851-1993)
MOBILE.,Nothing later from Fort Morgan. The wires are broken.,91874344,Historical Newspapers,," Copyright New York Times Company Aug 21, 1864"," 78730330 , 1446375 , 113715", front_page," Aug 21, 1864",0362-4331, English, English, 2," New York, N.Y.","Aug 21, 1864",New York Times (1857-1922),1864,http://search.proquest.com/docview/91874344?accountid=13567, 2,http://openurl.lib.rochester.edu/find?ctx_ver=Z39.88-2004&amp;ctx_enc=info:ofi/enc:UTF-8&amp;rfr_id=info:sid/ProQ%3Ahnpnewyorktimeswindex&amp;rft_val_fmt=info:ofi/fmt:kev:mtx:journal&amp;rft.genre=unknown&amp;rft.jtitle=New+York+Times+%281857-1922%29&amp;rft.atitle=MOBILE.%3A+SURRENDER+OF+FORT+GAINES.&amp;rft.au=&amp;rft.aulast=&amp;rft.aufirst=&amp;rft.date=1864-08-21&amp;rft.volume=&amp;rft.issue=&amp;rft.spage=2&amp;rft.isbn=&amp;rft.btitle=&amp;rft.title=New+York+Times+%281857-1922%29&amp;rft.issn=03624331,ProQuest Historical Newspapers: The New York Times (1851-2009) with Index (1851-1993)
THE PASSAGE BY THE FORTS.,"The 5th of August was indeed an eventful day a Mobile Bay, and if in giving the subjoined ac count of those events, we republish some things already given to our readers, they will excuse the repetition:",91880242,Historical Newspapers," From the Era, Aug. 10.
From the Era, Aug. 10."," Copyright New York Times Company Aug 21, 1864"," 78730378 , 1446375 , 113715", article," Aug 21, 1864",0362-4331, English, English, 5," New York, N.Y.","Aug 21, 1864",New York Times (1857-1922),1864,http://search.proquest.com/docview/91880242?accountid=13567, 5,http://openurl.lib.rochester.edu/find?ctx_ver=Z39.88-2004&amp;ctx_enc=info:ofi/enc:UTF-8&amp;rfr_id=info:sid/ProQ%3Ahnpnewyorktimeswindex&amp;rft_val_fmt=info:ofi/fmt:kev:mtx:journal&amp;rft.genre=article&amp;rft.jtitle=New+York+Times+%281857-1922%29&amp;rft.atitle=THE+PASSAGE+BY+THE+FORTS.%3A+THE+FIGHT.+THE+TORPEDOES.+THE+FIGHT+WITH+THE+REBEL+VESSELS.+OVER+VALIANT.+THE+PHILLIPPE.+THE+PRISONERS%27+SENTIMENTS.+OFF+FOR+PENSACOLA.+ATTEMPT+TO+RECAPTURE+RUCHANAN.&amp;rft.au=From+the+Era%2C+Aug.+10.&amp;rft.aulast=From+the+Era&amp;rft.aufirst=Aug.&amp;rft.date=1864-08-21&amp;rft.volume=&amp;rft.issue=&amp;rft.spage=5&amp;rft.isbn=&amp;rft.btitle=&amp;rft.title=New+York+Times+%281857-1922%29&amp;rft.issn=03624331,ProQuest Historical Newspapers: The New York Times (1851-2009) with Index (1851-1993)
Additional Particulars of the Capture of Forts Gaines and Powell The Passage by the Forts.,,91862045,Historical Newspapers,," Copyright New York Times Company Aug 21, 1864"," 78730377 , 1446375 , 113715", article," Aug 21, 1864",0362-4331, English, English, 5," New York, N.Y.","Aug 21, 1864",New York Times (1857-1922),1864,http://search.proquest.com/docview/91862045?accountid=13567, 5,http://openurl.lib.rochester.edu/find?ctx_ver=Z39.88-2004&amp;ctx_enc=info:ofi/enc:UTF-8&amp;rfr_id=info:sid/ProQ%3Ahnpnewyorktimeswindex&amp;rft_val_fmt=info:ofi/fmt:kev:mtx:journal&amp;rft.genre=article&amp;rft.jtitle=New+York+Times+%281857-1922%29&amp;rft.atitle=Additional+Particulars+of+the+Capture+of+Forts+Gaines+and+Powell+The+Passage+by+the+Forts.&amp;rft.au=&amp;rft.aulast=&amp;rft.aufirst=&amp;rft.date=1864-08-21&amp;rft.volume=&amp;rft.issue=&amp;rft.spage=5&amp;rft.isbn=&amp;rft.btitle=&amp;rft.title=New+York+Times+%281857-1922%29&amp;rft.issn=03624331,ProQuest Historical Newspapers: The New York Times (1851-2009) with Index (1851-1993)
MOBILE.,"The steamer Kate Dale, from Fort Gaines Harbor, yesterday morning, arrived here last night.",91813509,Historical Newspapers,," Copyright New York Times Company Aug 20, 1864"," 78730149-1 , 1446374 , 113715", front_page," Aug 20, 1864",0362-4331, English, English, 1," New York, N.Y.","Aug 20, 1864",New York Times (1857-1922),1864,http://search.proquest.com/docview/91813509?accountid=13567, 1,http://openurl.lib.rochester.edu/find?ctx_ver=Z39.88-2004&amp;ctx_enc=info:ofi/enc:UTF-8&amp;rfr_id=info:sid/ProQ%3Ahnpnewyorktimeswindex&amp;rft_val_fmt=info:ofi/fmt:kev:mtx:journal&amp;rft.genre=unknown&amp;rft.jtitle=New+York+Times+%281857-1922%29&amp;rft.atitle=MOBILE.%3A+THE+SIEGE+OF+FORT+MORGAN.+ADVICES+TO+AUGUST+11.+FARRAGUT+DEMANDS+THE+UNCONDITIONAL+SURRENDER+OF+THE+FORT.+PREPARATIONS+FOR+A+DETERMINED+RESISTANCE.+COMMUNICATION+BETWEEN+THE+FORT+AND+CITY+CUT+OFF.+ITS+SPEEDY+REDUCTION+ANTICIPATED.+FROM+WASHINGTON.+THE+SOUTHWEST.+SECOND+DISPATCH.&amp;rft.au=&amp;rft.aulast=&amp;rft.aufirst=&amp;rft.date=1864-08-20&amp;rft.volume=&amp;rft.issue=&amp;rft.spage=1&amp;rft.isbn=&amp;rft.btitle=&amp;rft.title=New+York+Times+%281857-1922%29&amp;rft.issn=03624331,ProQuest Historical Newspapers: The New York Times (1851-2009) with Index (1851-1993)
THE BATTLE BELOW MOBILE.,,91820407,Historical Newspapers,," Copyright New York Times Company Aug 20, 1864"," 78730194 , 1446374 , 113715", article," Aug 20, 1864",0362-4331, English, English, 2," New York, N.Y.","Aug 20, 1864",New York Times (1857-1922),1864,http://search.proquest.com/docview/91820407?accountid=13567, 2,http://openurl.lib.rochester.edu/find?ctx_ver=Z39.88-2004&amp;ctx_enc=info:ofi/enc:UTF-8&amp;rfr_id=info:sid/ProQ%3Ahnpnewyorktimeswindex&amp;rft_val_fmt=info:ofi/fmt:kev:mtx:journal&amp;rft.genre=article&amp;rft.jtitle=New+York+Times+%281857-1922%29&amp;rft.atitle=THE+BATTLE+BELOW+MOBILE.&amp;rft.au=&amp;rft.aulast=&amp;rft.aufirst=&amp;rft.date=1864-08-20&amp;rft.volume=&amp;rft.issue=&amp;rft.spage=2&amp;rft.isbn=&amp;rft.btitle=&amp;rft.title=New+York+Times+%281857-1922%29&amp;rft.issn=03624331,ProQuest Historical Newspapers: The New York Times (1851-2009) with Index (1851-1993)
NEWS FROM WASHINGTON.,,91804830,Historical Newspapers,," Copyright New York Times Company Aug 20, 1864"," 78730280-1 , 1446374 , 113715", article," Aug 20, 1864",0362-4331, English, English, 8," New York, N.Y.","Aug 20, 1864",New York Times (1857-1922),1864,http://search.proquest.com/docview/91804830?accountid=13567, 8,http://openurl.lib.rochester.edu/find?ctx_ver=Z39.88-2004&amp;ctx_enc=info:ofi/enc:UTF-8&amp;rfr_id=info:sid/ProQ%3Ahnpnewyorktimeswindex&amp;rft_val_fmt=info:ofi/fmt:kev:mtx:journal&amp;rft.genre=article&amp;rft.jtitle=New+York+Times+%281857-1922%29&amp;rft.atitle=NEWS+FROM+WASHINGTON.&amp;rft.au=&amp;rft.aulast=&amp;rft.aufirst=&amp;rft.date=1864-08-20&amp;rft.volume=&amp;rft.issue=&amp;rft.spage=8&amp;rft.isbn=&amp;rft.btitle=&amp;rft.title=New+York+Times+%281857-1922%29&amp;rft.issn=03624331,ProQuest Historical Newspapers: The New York Times (1851-2009) with Index (1851-1993)
OFFICIAL DISPATCH.,"To Maj. Gen. John A. Dix: The following official report of the surrender of Fort Gaines and the abandonment of Fort Powell, dated Aug. 9, New-Orleans, has just been received from Maj.-Gen. CANBY: ...",91848705,Historical Newspapers,," Copyright New York Times Company Aug 17, 1864"," 82083479-1 , 1470964 , 113715", front_page," Aug 17, 1864",0362-4331, English, English, 1," New York, N.Y.","Aug 17, 1864",New York Times (1857-1922),1864,http://search.proquest.com/docview/91848705?accountid=13567, 1,http://openurl.lib.rochester.edu/find?ctx_ver=Z39.88-2004&amp;ctx_enc=info:ofi/enc:UTF-8&amp;rfr_id=info:sid/ProQ%3Ahnpnewyorktimeswindex&amp;rft_val_fmt=info:ofi/fmt:kev:mtx:journal&amp;rft.genre=unknown&amp;rft.jtitle=New+York+Times+%281857-1922%29&amp;rft.atitle=OFFICIAL+DISPATCH.%3A+THE+CAPITULATION+OF+FORT+GAINES--26+GUNS%2C+874+PRISONERS+AND+STORES+FOR+A+YEAR+SURRENDERED%2C+REPORTS+FROM+SHERIDAN+AND+GRANT.+FORT+POWELL.&amp;rft.au=&amp;rft.aulast=&amp;rft.aufirst=&amp;rft.date=1864-08-17&amp;rft.volume=&amp;rft.issue=&amp;rft.spage=1&amp;rft.isbn=&amp;rft.btitle=&amp;rft.title=New+York+Times+%281857-1922%29&amp;rft.issn=03624331,ProQuest Historical Newspapers: The New York Times (1851-2009) with Index (1851-1993)
NEWS OF THE DAY.,"Gen. GRANT has commenced a new, formidable, and thus far successful movement against the rebel capital. On Saturday last a powerful force, under Gen. HANCOCK, was thrown across the river at Deep Bottom.",91848771,Historical Newspapers,," Copyright New York Times Company Aug 17, 1864"," 82083519-1 , 1470964 , 113715", article," Aug 17, 1864",0362-4331, English, English, 4," New York, N.Y.","Aug 17, 1864",New York Times (1857-1922),1864,http://search.proquest.com/docview/91848771?accountid=13567, 4,http://openurl.lib.rochester.edu/find?ctx_ver=Z39.88-2004&amp;ctx_enc=info:ofi/enc:UTF-8&amp;rfr_id=info:sid/ProQ%3Ahnpnewyorktimeswindex&amp;rft_val_fmt=info:ofi/fmt:kev:mtx:journal&amp;rft.genre=article&amp;rft.jtitle=New+York+Times+%281857-1922%29&amp;rft.atitle=NEWS+OF+THE+DAY.%3A+THE+REBELLION.+FROM+EUROPE.+GENERAL+NEWS.+THE+TRYING+TIME+FOR+THE+UNION+PARTY.+AN+ARMISTICE--THE+LAST+HOPE+OF+THE+REBELS.+THE+VICTORY+IN+MOBILE+BAY.+DENMARK+AND+GERMANY--THE+TERMS+OF+SETTLEMENT.+THE+RESUMPTION+OF+OPERATIONS+ON+THE+JAMES+RIVER.&amp;rft.au=&amp;rft.aulast=&amp;rft.aufirst=&amp;rft.date=1864-08-17&amp;rft.volume=&amp;rft.issue=&amp;rft.spage=4&amp;rft.isbn=&amp;rft.btitle=&amp;rft.title=New+York+Times+%281857-1922%29&amp;rft.issn=03624331,ProQuest Historical Newspapers: The New York Times (1851-2009) with Index (1851-1993)
FROM MOBILE.,The following official dispatches have been received by the Navy Department:,91794731,Historical Newspapers,," Copyright New York Times Company Aug 16, 1864"," 94113892-1 , 1540400 , 113715", front_page," Aug 16, 1864",0362-4331, English, English, 1," New York, N.Y.","Aug 16, 1864",New York Times (1857-1922),1864,http://search.proquest.com/docview/91794731?accountid=13567, 1,http://openurl.lib.rochester.edu/find?ctx_ver=Z39.88-2004&amp;ctx_enc=info:ofi/enc:UTF-8&amp;rfr_id=info:sid/ProQ%3Ahnpnewyorktimeswindex&amp;rft_val_fmt=info:ofi/fmt:kev:mtx:journal&amp;rft.genre=unknown&amp;rft.jtitle=New+York+Times+%281857-1922%29&amp;rft.atitle=FROM+MOBILE.%3A+ADMIRAL+FARRAGUT%27S+OFFICIAL+REPORT.+GRAPHIC+DESCRIPTION+OF+THE+PASSAGE+OF+THE+FORTS.THE+ACTION+WITH+THE+TENNESSEE.THE+PRISONERS+CAPTURED+ON+THE+REBEL+IRON-CLADS.CASUALTIES+ON+BOARD+OUR+FLEET.&amp;rft.au=&amp;rft.aulast=&amp;rft.aufirst=&amp;rft.date=1864-08-16&amp;rft.volume=&amp;rft.issue=&amp;rft.spage=1&amp;rft.isbn=&amp;rft.btitle=&amp;rft.title=New+York+Times+%281857-1922%29&amp;rft.issn=03624331,ProQuest Historical Newspapers: The New York Times (1851-2009) with Index (1851-1993)
FROM THE SOUTH.,"We have received full files of Richmond papers as late as Aug. 12--Friday last. Although telegrams from Fortress Monroe have anticipated the news which they contain, they furnish us highly interesting extracts:",91853035,Historical Newspapers,," Copyright New York Times Company Aug 16, 1864"," 94113898 , 1540400 , 113715", front_page," Aug 16, 1864",0362-4331, English, English, 1," New York, N.Y.","Aug 16, 1864",New York Times (1857-1922),1864,http://search.proquest.com/docview/91853035?accountid=13567, 1,http://openurl.lib.rochester.edu/find?ctx_ver=Z39.88-2004&amp;ctx_enc=info:ofi/enc:UTF-8&amp;rfr_id=info:sid/ProQ%3Ahnpnewyorktimeswindex&amp;rft_val_fmt=info:ofi/fmt:kev:mtx:journal&amp;rft.genre=unknown&amp;rft.jtitle=New+York+Times+%281857-1922%29&amp;rft.atitle=FROM+THE+SOUTH.%3A+TERRIBLE+LAMENTATIONS+OVER+THE+REBEL+DEFEAT+AT+MOBILE.+SURVEY+OF+THE+SITUATION.+SHERMAN%27S+POSITION+DEEMED+VERY+PERILOUS.+THE+RIGHTS+OF+ALIENS--THEY+HAVE+NONE+WHICH+REBELS+ARE+BOUND+TO+RESPECT.+THE+POLITICAL+SITUATION+NORTH.+THE+PEACE+NEGOTIATIONS---THE+WAR+DRAWING+TO+A+CLOSE.+MOBILE.+BLACK+INFAMY.+THE+FALL+OF+FORT+MORGAN+CONCEDED.+THE+SITUATION+AT+MOBILE.+THE+SITUATION.+THE+REBEL+LOSS.+SURRENDER+OF+FORT+GAINES.+THE+WAR+IN+GEORGIA.+SHERMAN%27+POSITION+PERILOUS.+SHELLING+ATLANTA.+VIRGINIA.+BEAUREGARD%27S+MINE.+BEAUREGARD%27S+DISPATCH.+FROM+THE+SOUTH.+GEN.+GRANT+MOVING.+ALIENS+IN+REBELDOM.+IMPORTANT+DECISION+BY+JUDGE+HALYBURTON.+THE+POLITICAL+SITUATION.+THE+DESIRE+FOR+PEACE+HYPOTHETICAL.+THE+WAR+DRAWING+TO+A+CLOSE.&amp;rft.au=&amp;rft.aulast=&amp;rft.aufirst=&amp;rft.date=1864-08-16&amp;rft.volume=&amp;rft.issue=&amp;rft.spage=1&amp;rft.isbn=&amp;rft.btitle=&amp;rft.title=New+York+Times+%281857-1922%29&amp;rft.issn=03624331,ProQuest Historical Newspapers: The New York Times (1851-2009) with Index (1851-1993)
NEWS OF THE DAY.,"The official dispatches of Admiral FARRAGUT, which we lay before our readers this morning, add nothing to what is already known respecting the capture of Mobile; but they tell the whole story with that admirable brevity and clearness which are so characteristic of the gallant Admiral.",91844585,Historical Newspapers,," Copyright New York Times Company Aug 16, 1864"," 94113922-1 , 1540400 , 113715", article," Aug 16, 1864",0362-4331, English, English, 4," New York, N.Y.","Aug 16, 1864",New York Times (1857-1922),1864,http://search.proquest.com/docview/91844585?accountid=13567, 4,http://openurl.lib.rochester.edu/find?ctx_ver=Z39.88-2004&amp;ctx_enc=info:ofi/enc:UTF-8&amp;rfr_id=info:sid/ProQ%3Ahnpnewyorktimeswindex&amp;rft_val_fmt=info:ofi/fmt:kev:mtx:journal&amp;rft.genre=article&amp;rft.jtitle=New+York+Times+%281857-1922%29&amp;rft.atitle=NEWS+OF+THE+DAY.%3A+THE+REBELLION.+FROM+EUROPE.+GENERAL+NEWS.+THE+PRESIDENTIAL+CANVAS.+GEN.+SHERMAN+ON+THE+RECRUITMENT+OF+SOUTHERN+NEGROES.+GOOD+ADVICE+FOR+THOSE+WHO+NEED+IT.+ALIENS+IN+THE+REBEL+STATES.&amp;rft.au=&amp;rft.aulast=&amp;rft.aufirst=&amp;rft.date=1864-08-16&amp;rft.volume=&amp;rft.issue=&amp;rft.spage=4&amp;rft.isbn=&amp;rft.btitle=&amp;rft.title=New+York+Times+%281857-1922%29&amp;rft.issn=03624331,ProQuest Historical Newspapers: The New York Times (1851-2009) with Index (1851-1993)
MOBILE.,"Our New-Orleans files received yesterday by the steamship Creole contain ample and most interesting particulars of the victory of the gallant FARRAGUT and his fleet in Mobile Bay. The accounts of eye-witnesses, as they appear in the New-Orleans Times, Era and Picayune, are given with admirable clearness.",91854125,Historical Newspapers,," Copyright New York Times Company Aug 15, 1864"," 78991557-1 , 1449484 , 113715", front_page," Aug 15, 1864",0362-4331, English, English, 1," New York, N.Y.","Aug 15, 1864",New York Times (1857-1922),1864,http://search.proquest.com/docview/91854125?accountid=13567, 1,http://openurl.lib.rochester.edu/find?ctx_ver=Z39.88-2004&amp;ctx_enc=info:ofi/enc:UTF-8&amp;rfr_id=info:sid/ProQ%3Ahnpnewyorktimeswindex&amp;rft_val_fmt=info:ofi/fmt:kev:mtx:journal&amp;rft.genre=unknown&amp;rft.jtitle=New+York+Times+%281857-1922%29&amp;rft.atitle=MOBILE.%3A+FARRAGUT%27S+VICTORY+FULL+PARTICULARS+FROM+EYE-WITNESSES.+PASSING+THE+FORTS.+THE+CAPTURE+OF+THE+CONFEDERATE+GUNBOATS.+THE+SURRENDER+OF+FORT+GAINES.+FARRAGUT+ON+THE+MAIN-TOP.+AN+OLD+SEA-DOG+DIRECTING+THE+FIGHT.+THE+OPENING+OF+THE+BALL.+ANOTHER+ACCOUNT.+AN+OFFICER%27S+STATEMENT.+FARRAGUT%27S+OWN+ACCOUNT+OF+THE+FIGHT.+FARRAGUT+AND+GRANGER+BEFORE+MOBILE.+LATE+REBEL+NEWS.+PRIZE+CASES.+LARGE+FIRE+AT+TROY%2C+N.Y.&amp;rft.au=&amp;rft.aulast=&amp;rft.aufirst=&amp;rft.date=1864-08-15&amp;rft.volume=&amp;rft.issue=&amp;rft.spage=1&amp;rft.isbn=&amp;rft.btitle=&amp;rft.title=New+York+Times+%281857-1922%29&amp;rft.issn=03624331,ProQuest Historical Newspapers: The New York Times (1851-2009) with Index (1851-1993)
FROM WASHINGTON.,"Where is LEE'S army? is a question which is much asked of late here, but it finds no intelligent reply. It is accepted that large reductions have been made from the force lately at Petersburgh but precisely where the detachments have gone it is much more difficult to tell.",91857038,Historical Newspapers,," Copyright New York Times Company Aug 15, 1864"," 78991658-1 , 1449484 , 113715", article," Aug 15, 1864",0362-4331, English, English, 4," New York, N.Y.","Aug 15, 1864",New York Times (1857-1922),1864,http://search.proquest.com/docview/91857038?accountid=13567, 4,http://openurl.lib.rochester.edu/find?ctx_ver=Z39.88-2004&amp;ctx_enc=info:ofi/enc:UTF-8&amp;rfr_id=info:sid/ProQ%3Ahnpnewyorktimeswindex&amp;rft_val_fmt=info:ofi/fmt:kev:mtx:journal&amp;rft.genre=article&amp;rft.jtitle=New+York+Times+%281857-1922%29&amp;rft.atitle=FROM+WASHINGTON.%3A+A+NEW+MILITARY+PROGRAMME---THE+ASPECT+OF+AFFAIRS.+WHERE+IS+LEE%27S+ARMY+%3F+THE+SITUATION+AT+MOBILE+OUR+PROSPECTS.+REBEL+REINFORCEMENTS+TO+EWELL.+A+COLLISION+WITH+GENERAL+SHERIDAN+ANTICIPATED.&amp;rft.au=&amp;rft.aulast=&amp;rft.aufirst=&amp;rft.date=1864-08-15&amp;rft.volume=&amp;rft.issue=&amp;rft.spage=4&amp;rft.isbn=&amp;rft.btitle=&amp;rft.title=New+York+Times+%281857-1922%29&amp;rft.issn=03624331,ProQuest Historical Newspapers: The New York Times (1851-2009) with Index (1851-1993)
SOUTHERN NEWS.,"The enemy have been unusually active during the past sixteen hours. About four o'clock yesterday afternoon a heavy assault was made upon the works held by our skirmishers upon the extreme left. After some stubborn fighting they succeeded in gaining possession of the position there, but subsequently were driven from it, and our lines were reestablished.",91866945,Historical Newspapers,," Copyright New York Times Company Aug 15, 1864"," 78991745-1 , 1449484 , 113715", article," Aug 15, 1864",0362-4331, English, English, 8," New York, N.Y.","Aug 15, 1864",New York Times (1857-1922),1864,http://search.proquest.com/docview/91866945?accountid=13567, 8,http://openurl.lib.rochester.edu/find?ctx_ver=Z39.88-2004&amp;ctx_enc=info:ofi/enc:UTF-8&amp;rfr_id=info:sid/ProQ%3Ahnpnewyorktimeswindex&amp;rft_val_fmt=info:ofi/fmt:kev:mtx:journal&amp;rft.genre=article&amp;rft.jtitle=New+York+Times+%281857-1922%29&amp;rft.atitle=SOUTHERN+NEWS.%3A+FROM+GEORGIA.+FROM+MOBILE.+FROM+PETERSBURGH.+KNOXVILLE+ITEMS.&amp;rft.au=&amp;rft.aulast=&amp;rft.aufirst=&amp;rft.date=1864-08-15&amp;rft.volume=&amp;rft.issue=&amp;rft.spage=8&amp;rft.isbn=&amp;rft.btitle=&amp;rft.title=New+York+Times+%281857-1922%29&amp;rft.issn=03624331,ProQuest Historical Newspapers: The New York Times (1851-2009) with Index (1851-1993)
WAR OFFICE DISPATCH.,"Te Maj.-Gen. Dix, New York: No further intelligence has been received from Mobile, except from deserters, who report the capture of the city, but nothing official.",91886385,Historical Newspapers,," Copyright New York Times Company Aug 12, 1864"," 78729289-1 , 1446366 , 113715", front_page," Aug 12, 1864",0362-4331, English, English, 1," New York, N.Y.","Aug 12, 1864",New York Times (1857-1922),1864,http://search.proquest.com/docview/91886385?accountid=13567, 1,http://openurl.lib.rochester.edu/find?ctx_ver=Z39.88-2004&amp;ctx_enc=info:ofi/enc:UTF-8&amp;rfr_id=info:sid/ProQ%3Ahnpnewyorktimeswindex&amp;rft_val_fmt=info:ofi/fmt:kev:mtx:journal&amp;rft.genre=unknown&amp;rft.jtitle=New+York+Times+%281857-1922%29&amp;rft.atitle=WAR+OFFICE+DISPATCH.%3A+THE+CAPTURE+OF+MOBILE+REPORTED+BY+DESERTERS.+GEN.+SHERMAN+KNOCKING+ATLANTA.+ALL+THE+GEORGIA+MILITIA+NOW+IN+THE+FIELD.+THE+GREAT+EXPLOSION+AT+CITY+POINT.+ALL+QUIET+IN+THE+ARMY+OF+THE+POTOMAC.+OFFICIAL+DISPATCHES.&amp;rft.au=&amp;rft.aulast=&amp;rft.aufirst=&amp;rft.date=1864-08-12&amp;rft.volume=&amp;rft.issue=&amp;rft.spage=1&amp;rft.isbn=&amp;rft.btitle=&amp;rft.title=New+York+Times+%281857-1922%29&amp;rft.issn=03624331,ProQuest Historical Newspapers: The New York Times (1851-2009) with Index (1851-1993)
The Situation at Mobile.,"FARRAGUT advances at Mobile. The rebellion has received another and severe blow from him. We are informed by an official gazette this morning that Fort Powell has been blown up, that Fort Gaines has surrendered, with its garrison, and that the Stars and Stripes are now flying victorious from where the Stars and Bars were but yesterday exhibited.",91893731,Historical Newspapers,," Copyright New York Times Company Aug 12, 1864"," 78729417 , 1446366 , 113715", article," Aug 12, 1864",0362-4331, English, English, 5," New York, N.Y.","Aug 12, 1864",New York Times (1857-1922),1864,http://search.proquest.com/docview/91893731?accountid=13567, 5,http://openurl.lib.rochester.edu/find?ctx_ver=Z39.88-2004&amp;ctx_enc=info:ofi/enc:UTF-8&amp;rfr_id=info:sid/ProQ%3Ahnpnewyorktimeswindex&amp;rft_val_fmt=info:ofi/fmt:kev:mtx:journal&amp;rft.genre=article&amp;rft.jtitle=New+York+Times+%281857-1922%29&amp;rft.atitle=The+Situation+at+Mobile.%3A+WHAT+FARRAGUT+HAS+ACCOMPLISHED.&amp;rft.au=&amp;rft.aulast=&amp;rft.aufirst=&amp;rft.date=1864-08-12&amp;rft.volume=&amp;rft.issue=&amp;rft.spage=5&amp;rft.isbn=&amp;rft.btitle=&amp;rft.title=New+York+Times+%281857-1922%29&amp;rft.issn=03624331,ProQuest Historical Newspapers: The New York Times (1851-2009) with Index (1851-1993)
FROM MOBILE.,"Maj.-Gen. Dix, New-York: The following report of the success of our operations at Mobile, extracted from the Richmond Enquirer of this morning, has just been received by this Department from Maj.-Gen. BUTLER:",91855056,Historical Newspapers,," Copyright New York Times Company Aug 11, 1864"," 78991464-1 , 1449482 , 113715", front_page," Aug 11, 1864",0362-4331, English, English, 1," New York, N.Y.","Aug 11, 1864",New York Times (1857-1922),1864,http://search.proquest.com/docview/91855056?accountid=13567, 1,http://openurl.lib.rochester.edu/find?ctx_ver=Z39.88-2004&amp;ctx_enc=info:ofi/enc:UTF-8&amp;rfr_id=info:sid/ProQ%3Ahnpnewyorktimeswindex&amp;rft_val_fmt=info:ofi/fmt:kev:mtx:journal&amp;rft.genre=unknown&amp;rft.jtitle=New+York+Times+%281857-1922%29&amp;rft.atitle=FROM+MOBILE.%3A+CONTINUED+SUCCESS+OF+ADMIRAL+FARRAGUT.+SURRENDER+OF+FORT+GAINES--DEMOLITION+OF+FORT+POWELL.+DESTRUCTION+OF+THE+REBEL+FLEET.+INDIGNATION+OF+THE+REBELS+AT+THE+SURRENDER+OF+THE+FORT.+THE+CAPTURED+FORTS.+LOSS+OF+A+PROPELLER.+PROPELLER+LOST+BY+FIRE.+THE+EUROPA+OUTWARD+BOUND.+MAINE+POLITICS.+DEATH+OF+AN+AMERICAN+CONSUL.+BOSTON+WEEKLY+BANK+STATEMENT.&amp;rft.au=&amp;rft.aulast=&amp;rft.aufirst=&amp;rft.date=1864-08-11&amp;rft.volume=&amp;rft.issue=&amp;rft.spage=1&amp;rft.isbn=&amp;rft.btitle=&amp;rft.title=New+York+Times+%281857-1922%29&amp;rft.issn=03624331,ProQuest Historical Newspapers: The New York Times (1851-2009) with Index (1851-1993)
Article 2 -- No Title,,91844062,Historical Newspapers,," Copyright New York Times Company Aug 11, 1864"," 78991508 , 1449482 , 113715", article," Aug 11, 1864",0362-4331, English, English, 4," New York, N.Y.","Aug 11, 1864",New York Times (1857-1922),1864,http://search.proquest.com/docview/91844062?accountid=13567, 4,http://openurl.lib.rochester.edu/find?ctx_ver=Z39.88-2004&amp;ctx_enc=info:ofi/enc:UTF-8&amp;rfr_id=info:sid/ProQ%3Ahnpnewyorktimeswindex&amp;rft_val_fmt=info:ofi/fmt:kev:mtx:journal&amp;rft.genre=article&amp;rft.jtitle=New+York+Times+%281857-1922%29&amp;rft.atitle=Article+2+--+No+Title&amp;rft.au=&amp;rft.aulast=&amp;rft.aufirst=&amp;rft.date=1864-08-11&amp;rft.volume=&amp;rft.issue=&amp;rft.spage=4&amp;rft.isbn=&amp;rft.btitle=&amp;rft.title=New+York+Times+%281857-1922%29&amp;rft.issn=03624331,ProQuest Historical Newspapers: The New York Times (1851-2009) with Index (1851-1993)
From Washington.,,91844826,Historical Newspapers,," Copyright New York Times Company Aug 10, 1864"," 78729175 , 1446365 , 113715", front_page," Aug 10, 1864",0362-4331, English, English, 1," New York, N.Y.","Aug 10, 1864",New York Times (1857-1922),1864,http://search.proquest.com/docview/91844826?accountid=13567, 1,http://openurl.lib.rochester.edu/find?ctx_ver=Z39.88-2004&amp;ctx_enc=info:ofi/enc:UTF-8&amp;rfr_id=info:sid/ProQ%3Ahnpnewyorktimeswindex&amp;rft_val_fmt=info:ofi/fmt:kev:mtx:journal&amp;rft.genre=unknown&amp;rft.jtitle=New+York+Times+%281857-1922%29&amp;rft.atitle=From+Washington.&amp;rft.au=&amp;rft.aulast=&amp;rft.aufirst=&amp;rft.date=1864-08-10&amp;rft.volume=&amp;rft.issue=&amp;rft.spage=1&amp;rft.isbn=&amp;rft.btitle=&amp;rft.title=New+York+Times+%281857-1922%29&amp;rft.issn=03624331,ProQuest Historical Newspapers: The New York Times (1851-2009) with Index (1851-1993)
NEWS FROM WASHINGTON.,"The official report of Admiral FARRAGUT as well as the press accounts of his success in Mobile Bay, is looked for here with the utmost anxiety. The statement positively made by Gen. D.H. MAURE, that the monitor Tecumseh was sunk by Fort Morgan, is discredited at the Navy Department, but this on no other ground than because the official mind does not believe the guns of Fort Morgan capable of sinking a monitor. But even those who indulge this faith must grant that the Tecumseh, which drew more water than any other vessel in the fleet, might have grounded; in which condition her destruction would be a very easy matter.",91845599,Historical Newspapers,," Copyright New York Times Company Aug 10, 1864"," 78729215-1 , 1446365 , 113715", article," Aug 10, 1864",0362-4331, English, English, 4," New York, N.Y.","Aug 10, 1864",New York Times (1857-1922),1864,http://search.proquest.com/docview/91845599?accountid=13567, 4,http://openurl.lib.rochester.edu/find?ctx_ver=Z39.88-2004&amp;ctx_enc=info:ofi/enc:UTF-8&amp;rfr_id=info:sid/ProQ%3Ahnpnewyorktimeswindex&amp;rft_val_fmt=info:ofi/fmt:kev:mtx:journal&amp;rft.genre=article&amp;rft.jtitle=New+York+Times+%281857-1922%29&amp;rft.atitle=NEWS+FROM+WASHINGTON.%3A+ANXIOUS+TO+HEAR+FROM+FARRAGUT.+CAPTURE+OF+A+REBEL+TRAIN.+ARRIVAL+OF+REBEL+PRISONERS.+SUBSCRIPTIONS+TO+THE+NEW+LOAN.&amp;rft.au=&amp;rft.aulast=&amp;rft.aufirst=&amp;rft.date=1864-08-10&amp;rft.volume=&amp;rft.issue=&amp;rft.spage=4&amp;rft.isbn=&amp;rft.btitle=&amp;rft.title=New+York+Times+%281857-1922%29&amp;rft.issn=03624331,ProQuest Historical Newspapers: The New York Times (1851-2009) with Index (1851-1993)
MOBILE AND ITS DEFENCES.,"The war, whose activity has in its great feats seen limited to a comparatively few points, now, after months of preparation and expectation, has swept another and most important city into its grasp, and advances upon Mobile. This is the last real stronghold possessed by the rebels on all the long coast of the bay, and when captured will be as severe a blow to them, in their present estate, as was the capture of New-Orleans in their earlier condition. The city has been tried twice before, once by Admiral PORTER""S mortar flotilla shortly after the capture of NewOrleans, and again more recently by Admiral FARRAGUT, assailing Grant's Pass in order to divert attention from other undertakings.",91865458,Historical Newspapers,," Copyright New York Times Company Aug 10, 1864"," 78729241-1 , 1446365 , 113715", article," Aug 10, 1864",0362-4331, English, English, 8," New York, N.Y.","Aug 10, 1864",New York Times (1857-1922),1864,http://search.proquest.com/docview/91865458?accountid=13567, 8,http://openurl.lib.rochester.edu/find?ctx_ver=Z39.88-2004&amp;ctx_enc=info:ofi/enc:UTF-8&amp;rfr_id=info:sid/ProQ%3Ahnpnewyorktimeswindex&amp;rft_val_fmt=info:ofi/fmt:kev:mtx:journal&amp;rft.genre=article&amp;rft.jtitle=New+York+Times+%281857-1922%29&amp;rft.atitle=MOBILE+AND+ITS+DEFENCES.%3A+THE+OBSTACLES+ADMIRAL+FARRAGUT+HAS+OVERCOME.&amp;rft.au=&amp;rft.aulast=&amp;rft.aufirst=&amp;rft.date=1864-08-10&amp;rft.volume=&amp;rft.issue=&amp;rft.spage=8&amp;rft.isbn=&amp;rft.btitle=&amp;rft.title=New+York+Times+%281857-1922%29&amp;rft.issn=03624331,ProQuest Historical Newspapers: The New York Times (1851-2009) with Index (1851-1993)
Farragut's Attack on Mobile.,,91885875,Historical Newspapers,," Copyright New York Times Company Aug 9, 1864"," 79956808-1 , 1456201 , 113715", front_page," Aug 9, 1864",0362-4331, English, English, 1," New York, N.Y.","Aug 9, 1864",New York Times (1857-1922),1864,http://search.proquest.com/docview/91885875?accountid=13567, 1,http://openurl.lib.rochester.edu/find?ctx_ver=Z39.88-2004&amp;ctx_enc=info:ofi/enc:UTF-8&amp;rfr_id=info:sid/ProQ%3Ahnpnewyorktimeswindex&amp;rft_val_fmt=info:ofi/fmt:kev:mtx:journal&amp;rft.genre=unknown&amp;rft.jtitle=New+York+Times+%281857-1922%29&amp;rft.atitle=Farragut%27s+Attack+on+Mobile.%3A+A+GREAT+NAVAL+BATTLE+THE+REBEL+REPORT+OF+IT.+Our+Fleet+Passed+Fort+Morgan+and+Close+to+Mobile.+Dreadful+Havoc+Among+the+Rebel+Gunboats.+The+Iron-Clad+Ram+Tennessee+Surrendered.+The+Selma+Captured%2C+the+Gaines+Beached.+the+Morgan+Trying+to+Escape.+The+Rebel+Admiral+Buchanan+Maimed+and+Captured.+Only+One+Union+Monitor+Reported+Lost.Official+Dispatch+from+SecretaryStanton.&amp;rft.au=&amp;rft.aulast=&amp;rft.aufirst=&amp;rft.date=1864-08-09&amp;rft.volume=&amp;rft.issue=&amp;rft.spage=1&amp;rft.isbn=&amp;rft.btitle=&amp;rft.title=New+York+Times+%281857-1922%29&amp;rft.issn=03624331,ProQuest Historical Newspapers: The New York Times (1851-2009) with Index (1851-1993)
