"Title","Abstract","StoreId","ArticleType","Authors","copyright","digitalObjectIdentifier","documentType","entryDate","issn","language","languageOfSummary","pages","placeOfPublication","pubdate","pubtitle","year","DocumentURL","startPage","FindACopy","Database"
"DEPARTMENT OF THE GULF.",,91807915,"Historical Newspapers",," Copyright New York Times Company Jul 23, 1863"," 80283702-1 , 1458985 , 113715"," front_page"," Jul 23, 1863","0362-4331"," English"," English",1," New York, N.Y.","Jul 23, 1863","New York Times (1857-1922)",1863,"http://search.proquest.com/docview/91807915?accountid=13567",1,"http://openurl.lib.rochester.edu/find?ctx_ver=Z39.88-2004&amp;ctx_enc=info:ofi/enc:UTF-8&amp;rfr_id=info:sid/ProQ%3Ahnpnewyorktimeswindex&amp;rft_val_fmt=info:ofi/fmt:kev:mtx:journal&amp;rft.genre=unknown&amp;rft.jtitle=New+York+Times+%281857-1922%29&amp;rft.atitle=DEPARTMENT+OF+THE+GULF.%3A+THE+SURRENDER+OF+PORT+HUDSON+TO+GEN.+BANKS.+FULL+PARTICULARS+FROM+OUR+SPECIAL+CORRESPONDENT.+A+FULL+LIST+OF+THE+TROPHIES.+SCENES+WITHIN+THE+FORT---HOW+THE+REBELS+BEHAVED.+TROOPS+MOVING+DOWN+THE+RIVER.+A+SHARP+FIGHT+NEAR+DONALDSONVILLE.+A+FRENCH+PLOT+IN+NEW-ORLEANS.+THE+SURRENDER.+SCENE+WITHIN+THE+FORT.+HOW+THE+REBELS+FELT.+GEN.+GARDNER+DEPARTMENT+OF+THE+GULF.+THE+FLEET.+REBEL+NOTIONS+OF+INVINCIBILITY.+NEGRO+PRISONERS.+PERTINACITY+OF+THE+REBELS.+SHARP+ENCOUNTER.+REINFORCEMENTS+NEEDED.+ALL+QUIET+ON+THE+RIVER.+DIADOLICAL+PLOT.&amp;rft.au=&amp;rft.aulast=&amp;rft.aufirst=&amp;rft.date=1863-07-23&amp;rft.volume=&amp;rft.issue=&amp;rft.spage=1&amp;rft.isbn=&amp;rft.btitle=&amp;rft.title=New+York+Times+%281857-1922%29&amp;rft.issn=03624331","ProQuest Historical Newspapers: The New York Times (1851-2009) with Index (1851-1993)"
"THE SURRENDER OF PORT HUDSON","The following correspondence has been received at the headquarters of the army:",91799127,"Historical Newspapers",," Copyright New York Times Company Jul 22, 1863"," 81670863-1 , 1467562 , 113715"," front_page"," Jul 22, 1863","0362-4331"," English"," English",1," New York, N.Y.","Jul 22, 1863","New York Times (1857-1922)",1863,"http://search.proquest.com/docview/91799127?accountid=13567",1,"http://openurl.lib.rochester.edu/find?ctx_ver=Z39.88-2004&amp;ctx_enc=info:ofi/enc:UTF-8&amp;rfr_id=info:sid/ProQ%3Ahnpnewyorktimeswindex&amp;rft_val_fmt=info:ofi/fmt:kev:mtx:journal&amp;rft.genre=unknown&amp;rft.jtitle=New+York+Times+%281857-1922%29&amp;rft.atitle=THE+SURRENDER+OF+PORT+HUDSON%3A+THE+OFFICIAL+CORRESPONDENCE.+GEN.+GARDNER+DETERMINES+TO+SURRENDER+UPON+HEARING+OF+THE+FALL+OF+VICKSBURGH.+FIVE+THOUSAND+PRISONERS+AND+FIFTY+PIECES+OF+ARTILLERY+CAPTURED.+THE+ARTICLES+OF+SURRENDER.+ARTICLES+OF+CAPITULATION.&amp;rft.au=&amp;rft.aulast=&amp;rft.aufirst=&amp;rft.date=1863-07-22&amp;rft.volume=&amp;rft.issue=&amp;rft.spage=1&amp;rft.isbn=&amp;rft.btitle=&amp;rft.title=New+York+Times+%281857-1922%29&amp;rft.issn=03624331","ProQuest Historical Newspapers: The New York Times (1851-2009) with Index (1851-1993)"
"The Fourth of July at Port Hudson--A Nevel and Aventurous Celebration--Loyalty and Treason Face to Face--Bad Weather--The Storming Party--Another Deserter--A Countermine.","The Fourth of July came and went without seeing us in possession of Port Hudson. In the morning I was aroused by loud and continuous cannonading quite near us, which sounded like an attack, but it soon turned out to be only a national salute in honor of the day. Soon the other batteries took up the hoarse music along the whole length of our line,...",91767816,"Historical Newspapers",," Copyright New York Times Company Jul 19, 1863"," 80283352 , 1458981 , 113715"," front_page"," Jul 19, 1863","0362-4331"," English"," English",1," New York, N.Y.","Jul 19, 1863","New York Times (1857-1922)",1863,"http://search.proquest.com/docview/91767816?accountid=13567",1,"http://openurl.lib.rochester.edu/find?ctx_ver=Z39.88-2004&amp;ctx_enc=info:ofi/enc:UTF-8&amp;rfr_id=info:sid/ProQ%3Ahnpnewyorktimeswindex&amp;rft_val_fmt=info:ofi/fmt:kev:mtx:journal&amp;rft.genre=unknown&amp;rft.jtitle=New+York+Times+%281857-1922%29&amp;rft.atitle=The+Fourth+of+July+at+Port+Hudson--A+Nevel+and+Aventurous+Celebration--Loyalty+and+Treason+Face+to+Face--Bad+Weather--The+Storming+Party--Another+Deserter--A+Countermine.%3A+GEN.+AUGUR%27S+HEADQUARTERS.+CELEBRATION+OF+THE+FOURTH.+BAD+WEATHER.+THE+STORMING+PARTY+ANOTHER+DESERTER+A+COUNDERMINE.&amp;rft.au=&amp;rft.aulast=&amp;rft.aufirst=&amp;rft.date=1863-07-19&amp;rft.volume=&amp;rft.issue=&amp;rft.spage=1&amp;rft.isbn=&amp;rft.btitle=&amp;rft.title=New+York+Times+%281857-1922%29&amp;rft.issn=03624331","ProQuest Historical Newspapers: The New York Times (1851-2009) with Index (1851-1993)"
"THE FALL OF PORT HUDSON.","The Locust Point, from New-Orleans on July 11, arrived at this port yesterday morning.",91791593,"Historical Newspapers",," Copyright New York Times Company Jul 19, 1863"," 80283350-1 , 1458981 , 113715"," front_page"," Jul 19, 1863","0362-4331"," English"," English",1," New York, N.Y.","Jul 19, 1863","New York Times (1857-1922)",1863,"http://search.proquest.com/docview/91791593?accountid=13567",1,"http://openurl.lib.rochester.edu/find?ctx_ver=Z39.88-2004&amp;ctx_enc=info:ofi/enc:UTF-8&amp;rfr_id=info:sid/ProQ%3Ahnpnewyorktimeswindex&amp;rft_val_fmt=info:ofi/fmt:kev:mtx:journal&amp;rft.genre=unknown&amp;rft.jtitle=New+York+Times+%281857-1922%29&amp;rft.atitle=THE+FALL+OF+PORT+HUDSON.%3A+NEWS+VIA+NEW-ORLEANS%2C+BY+THE+STEAMER+LOCUST+POINT.+PARTICULARS+OF+THE+SURRENDER.+FIVE+THOUSAND+PRISONERS%2C+FIFTY+PIECES+OF+ARTILLERY%2C+NUMEROUS+SMALL+ARMS%2C+%26C.+THE+GARRISON+IN+A+RAVENOUS+CONDITION.+THE+LAST+MULE+EATEN.+DETAILS+OF+THE+SIEGE+TO+THE+DATE+OF+THE+SURRENDER.&amp;rft.au=&amp;rft.aulast=&amp;rft.aufirst=&amp;rft.date=1863-07-19&amp;rft.volume=&amp;rft.issue=&amp;rft.spage=1&amp;rft.isbn=&amp;rft.btitle=&amp;rft.title=New+York+Times+%281857-1922%29&amp;rft.issn=03624331","ProQuest Historical Newspapers: The New York Times (1851-2009) with Index (1851-1993)"
"THE SIEGE OF PORT HUDSON.",,91777842,"Historical Newspapers",," Copyright New York Times Company Jul 19, 1863"," 80283362 , 1458981 , 113715"," article"," Jul 19, 1863","0362-4331"," English"," English",2," New York, N.Y.","Jul 19, 1863","New York Times (1857-1922)",1863,"http://search.proquest.com/docview/91777842?accountid=13567",2,"http://openurl.lib.rochester.edu/find?ctx_ver=Z39.88-2004&amp;ctx_enc=info:ofi/enc:UTF-8&amp;rfr_id=info:sid/ProQ%3Ahnpnewyorktimeswindex&amp;rft_val_fmt=info:ofi/fmt:kev:mtx:journal&amp;rft.genre=article&amp;rft.jtitle=New+York+Times+%281857-1922%29&amp;rft.atitle=THE+SIEGE+OF+PORT+HUDSON.%3A+STORMING+PARTY+BEFORE+PORT+HUDSEN%2C+JUNE+21%2C+1863.+VOLUNTEERS+FROM+LEFT+WING+UNDER+MAJ.GEN.+C.C.+AUGUR+GEN.+DWICHT%27S+DIVISION.ONE+HUNDRED+AND+SIXTY-FIFTH+NEW-YORK%2C+%28DURYEE%27S+ZOUAVES.%29+ONE+HUNDRED+AND+SEVENTY-SEVENTH+NEW-YORK+VOLUNTEERS%2C+%28NINE+MONTHS.%29+SIXTH+MAINE+VOLUNTEERS.+ONE+HUNDRED+AND+TWENTY-EIGHTH+NEW-YORK+VOLUNTEERS.+FOURTEENTH+MAINE+VOLUNTEERS.+TWENTY-FOUTH+MAINE.+ONE+HUNDRED+AND+SEVENTY-FIFTH+NEW-YORK+VOLUNTEERS.&amp;rft.au=&amp;rft.aulast=&amp;rft.aufirst=&amp;rft.date=1863-07-19&amp;rft.volume=&amp;rft.issue=&amp;rft.spage=2&amp;rft.isbn=&amp;rft.btitle=&amp;rft.title=New+York+Times+%281857-1922%29&amp;rft.issn=03624331","ProQuest Historical Newspapers: The New York Times (1851-2009) with Index (1851-1993)"
"GENS. BANKS AND GRANT.","dispatch from Gen. BANKS, announcing the fall of Port Hudson, was sent to Gen. GRANT, and by him communicated to the Government, has led many to suppose that the former is acting as a subordinate to the latter. Such is not the fact.",91768158,"Historical Newspapers",," Copyright New York Times Company Jul 19, 1863"," 80283370 , 1458981 , 113715"," article"," Jul 19, 1863","0362-4331"," English"," English",3," New York, N.Y.","Jul 19, 1863","New York Times (1857-1922)",1863,"http://search.proquest.com/docview/91768158?accountid=13567",3,"http://openurl.lib.rochester.edu/find?ctx_ver=Z39.88-2004&amp;ctx_enc=info:ofi/enc:UTF-8&amp;rfr_id=info:sid/ProQ%3Ahnpnewyorktimeswindex&amp;rft_val_fmt=info:ofi/fmt:kev:mtx:journal&amp;rft.genre=article&amp;rft.jtitle=New+York+Times+%281857-1922%29&amp;rft.atitle=GENS.+BANKS+AND+GRANT.&amp;rft.au=&amp;rft.aulast=&amp;rft.aufirst=&amp;rft.date=1863-07-19&amp;rft.volume=&amp;rft.issue=&amp;rft.spage=3&amp;rft.isbn=&amp;rft.btitle=&amp;rft.title=New+York+Times+%281857-1922%29&amp;rft.issn=03624331","ProQuest Historical Newspapers: The New York Times (1851-2009) with Index (1851-1993)"
"A Serenade to Mrs. Gen. Grant.","Last evening Mrs. Gen. GRANT, who is stopping at the Planters' House, preparatory to a visit to her husband at Vicksburgh, whither she goes this evening, was the recipient of a serenade improvised by a few of the admirers of the hero of fifteen well fought battles a General who has yet to taste of the adversities of defeat.",91723070,"Historical Newspapers",," Copyright New York Times Company Jul 19, 1863"," 80283419 , 1458981 , 113715"," article"," Jul 19, 1863","0362-4331"," English"," English",7," New York, N.Y.","Jul 19, 1863","New York Times (1857-1922)",1863,"http://search.proquest.com/docview/91723070?accountid=13567",7,"http://openurl.lib.rochester.edu/find?ctx_ver=Z39.88-2004&amp;ctx_enc=info:ofi/enc:UTF-8&amp;rfr_id=info:sid/ProQ%3Ahnpnewyorktimeswindex&amp;rft_val_fmt=info:ofi/fmt:kev:mtx:journal&amp;rft.genre=article&amp;rft.jtitle=New+York+Times+%281857-1922%29&amp;rft.atitle=A+Serenade+to+Mrs.+Gen.+Grant.%3A+SPEECH+BY+GEN.+STRONG.&amp;rft.au=&amp;rft.aulast=&amp;rft.aufirst=&amp;rft.date=1863-07-19&amp;rft.volume=&amp;rft.issue=&amp;rft.spage=7&amp;rft.isbn=&amp;rft.btitle=&amp;rft.title=New+York+Times+%281857-1922%29&amp;rft.issn=03624331","ProQuest Historical Newspapers: The New York Times (1851-2009) with Index (1851-1993)"
"FROM THE REBEL STATES.",,91769993,"Historical Newspapers",," Copyright New York Times Company Jul 18, 1863"," 80283243-1 , 1458980 , 113715"," front_page"," Jul 18, 1863","0362-4331"," English"," English",1," New York, N.Y.","Jul 18, 1863","New York Times (1857-1922)",1863,"http://search.proquest.com/docview/91769993?accountid=13567",1,"http://openurl.lib.rochester.edu/find?ctx_ver=Z39.88-2004&amp;ctx_enc=info:ofi/enc:UTF-8&amp;rfr_id=info:sid/ProQ%3Ahnpnewyorktimeswindex&amp;rft_val_fmt=info:ofi/fmt:kev:mtx:journal&amp;rft.genre=unknown&amp;rft.jtitle=New+York+Times+%281857-1922%29&amp;rft.atitle=FROM+THE+REBEL+STATES.%3A+THE+REBELS+BEGINNING+TO+COMPREHEND+THE+SITUATION.+%22THE+MOST+SERIOUS+REVERSES+OF+THE+WAR.%22+AN+EXPLANATION+OF+ALEX.+H.+STEPHENS%27+MISSION.+JEFF.+DAVIS%27+LETTER+OF+INSTRUCTIONS+MR.+STEPHENS%27+REPORT.+ACCOUNTS+OF+THE+BATTLE+AT+GETTYSBURGH+GEN.+LEE+CAPTURES+SO+MANY+PRISONERS+THAT+HE+IS+FORCED+TO+RETREAT.+HIS+DISPATCHES+HELD+BACK+BY+JEFF.+DAVIS.+MOURNING+OVER+THE+FALL+OF+VICHSBURG+GEN.+SHERMAN+ATTACKING+JOE+JOHNSTON+AT+JACKSON.+HUMPHREY+MARSHALL+RETIRED+FROM+THE+FIELD+JEFF.+DAVIS+IN+IMPROVED+HEALTH+GEN.+HILL+PROMOTED.+THE+MISSION+OF+VICE-PRESIDENT+STEPHENS.JEFF.+DAVIS%27+LETTER+OF+INSTRUCTIONS+MR.+STEPHENS%27+REPORT.+THE+BATTLE+OF+GETTYSBURGH.+REPORTS+FROM+WOUNDED+ARRIVED+AT+RICHMOND.+ANOTHER+ACCOUNT.+CASUALTIES.+REPORTS+FROM+WINCHESTER.+A+LETTER+FROM+GEN.+LEE.+THE+FALL+OF+VICKSBURGH%2C+GEN.+JOHNSTON%27S+DISPATCH.+HOW+THE+NEWS+WAS+RECEIVED.+THE+FIGHITING+BEHIND+VICKSBURGH+ON+THE+JAMES+RIVER.+GEN.+NEAL+DOW.+JEFF.+DAVIS.+HUMPHREY+MARSHALL+AT+THE+BAR.+LIEUT.+GEN.+HILL.&amp;rft.au=&amp;rft.aulast=&amp;rft.aufirst=&amp;rft.date=1863-07-18&amp;rft.volume=&amp;rft.issue=&amp;rft.spage=1&amp;rft.isbn=&amp;rft.btitle=&amp;rft.title=New+York+Times+%281857-1922%29&amp;rft.issn=03624331","ProQuest Historical Newspapers: The New York Times (1851-2009) with Index (1851-1993)"
"THE FALL OF PORT HUDSON.","The gunboat Arizona has just arrived from Port Hudson with dispatches to Gen. GRANT, announcing the capitulation of that place on the 8th inst.",91759615,"Historical Newspapers",," Copyright New York Times Company Jul 18, 1863"," 80283286 , 1458980 , 113715"," article"," Jul 18, 1863","0362-4331"," English"," English",5," New York, N.Y.","Jul 18, 1863","New York Times (1857-1922)",1863,"http://search.proquest.com/docview/91759615?accountid=13567",5,"http://openurl.lib.rochester.edu/find?ctx_ver=Z39.88-2004&amp;ctx_enc=info:ofi/enc:UTF-8&amp;rfr_id=info:sid/ProQ%3Ahnpnewyorktimeswindex&amp;rft_val_fmt=info:ofi/fmt:kev:mtx:journal&amp;rft.genre=article&amp;rft.jtitle=New+York+Times+%281857-1922%29&amp;rft.atitle=THE+FALL+OF+PORT+HUDSON.%3A+INTERESTING+PARTICULARS+OF+THE+SURRENDER.&amp;rft.au=&amp;rft.aulast=&amp;rft.aufirst=&amp;rft.date=1863-07-18&amp;rft.volume=&amp;rft.issue=&amp;rft.spage=5&amp;rft.isbn=&amp;rft.btitle=&amp;rft.title=New+York+Times+%281857-1922%29&amp;rft.issn=03624331","ProQuest Historical Newspapers: The New York Times (1851-2009) with Index (1851-1993)"
"Gen. Banks.","We are gratified at finding in the PortHudson news as communicated to a Cincinnati paper, that Gen. BANKS completed the reduction of that stronghold and received its capitulation, without the aid of reinforcements from Gen. GRANT.",91767716,"Historical Newspapers",," Copyright New York Times Company Jul 17, 1863"," 90522922 , 1524327 , 113715"," article"," Jul 17, 1863","0362-4331"," English"," English",4," New York, N.Y.","Jul 17, 1863","New York Times (1857-1922)",1863,"http://search.proquest.com/docview/91767716?accountid=13567",4,"http://openurl.lib.rochester.edu/find?ctx_ver=Z39.88-2004&amp;ctx_enc=info:ofi/enc:UTF-8&amp;rfr_id=info:sid/ProQ%3Ahnpnewyorktimeswindex&amp;rft_val_fmt=info:ofi/fmt:kev:mtx:journal&amp;rft.genre=article&amp;rft.jtitle=New+York+Times+%281857-1922%29&amp;rft.atitle=Gen.+Banks.&amp;rft.au=&amp;rft.aulast=&amp;rft.aufirst=&amp;rft.date=1863-07-17&amp;rft.volume=&amp;rft.issue=&amp;rft.spage=4&amp;rft.isbn=&amp;rft.btitle=&amp;rft.title=New+York+Times+%281857-1922%29&amp;rft.issn=03624331","ProQuest Historical Newspapers: The New York Times (1851-2009) with Index (1851-1993)"
"THE FALL OF PORT HUDSON",,91753450,"Historical Newspapers",," Copyright New York Times Company Jul 17, 1863"," 90522934 , 1524327 , 113715"," article"," Jul 17, 1863","0362-4331"," English"," English",5," New York, N.Y.","Jul 17, 1863","New York Times (1857-1922)",1863,"http://search.proquest.com/docview/91753450?accountid=13567",5,"http://openurl.lib.rochester.edu/find?ctx_ver=Z39.88-2004&amp;ctx_enc=info:ofi/enc:UTF-8&amp;rfr_id=info:sid/ProQ%3Ahnpnewyorktimeswindex&amp;rft_val_fmt=info:ofi/fmt:kev:mtx:journal&amp;rft.genre=article&amp;rft.jtitle=New+York+Times+%281857-1922%29&amp;rft.atitle=THE+FALL+OF+PORT+HUDSON%3A+A+BEARER+OF+DISPATCHES+FROM+GENERAL+BANKS+AT+CAIRO.+SEVEN+THOUSAND+PRISONERS%2C+70+PIECES+OF+ARTILLERY+AND+10%2C000+STAND+OF+SMALL+ARMS+CAPTURED.+GENERAL+SHERMAN+STILL+PURSUING+JOHNSTON.&amp;rft.au=&amp;rft.aulast=&amp;rft.aufirst=&amp;rft.date=1863-07-17&amp;rft.volume=&amp;rft.issue=&amp;rft.spage=5&amp;rft.isbn=&amp;rft.btitle=&amp;rft.title=New+York+Times+%281857-1922%29&amp;rft.issn=03624331","ProQuest Historical Newspapers: The New York Times (1851-2009) with Index (1851-1993)"
"PORT HUDSON.",,91763052,"Historical Newspapers",," Copyright New York Times Company Jul 16, 1863"," 80283186 , 1458979 , 113715"," article"," Jul 16, 1863","0362-4331"," English"," English",5," New York, N.Y.","Jul 16, 1863","New York Times (1857-1922)",1863,"http://search.proquest.com/docview/91763052?accountid=13567",5,"http://openurl.lib.rochester.edu/find?ctx_ver=Z39.88-2004&amp;ctx_enc=info:ofi/enc:UTF-8&amp;rfr_id=info:sid/ProQ%3Ahnpnewyorktimeswindex&amp;rft_val_fmt=info:ofi/fmt:kev:mtx:journal&amp;rft.genre=article&amp;rft.jtitle=New+York+Times+%281857-1922%29&amp;rft.atitle=PORT+HUDSON.%3A+THE+STRONGHOLD+UNCONDITIONALLY+SURRENDERED+ON+THE+8TH.DISPATCH+FROM+GEN.+BANKS.&amp;rft.au=&amp;rft.aulast=&amp;rft.aufirst=&amp;rft.date=1863-07-16&amp;rft.volume=&amp;rft.issue=&amp;rft.spage=5&amp;rft.isbn=&amp;rft.btitle=&amp;rft.title=New+York+Times+%281857-1922%29&amp;rft.issn=03624331","ProQuest Historical Newspapers: The New York Times (1851-2009) with Index (1851-1993)"
"IMPORTANT FROM VICKSBURGH.","The Commercial has Vicksburgh advices to the 8th instant.",91774038,"Historical Newspapers",," Copyright New York Times Company Jul 15, 1863"," 90522486-1 , 1524322 , 113715"," article"," Jul 15, 1863","0362-4331"," English"," English",5," New York, N.Y.","Jul 15, 1863","New York Times (1857-1922)",1863,"http://search.proquest.com/docview/91774038?accountid=13567",5,"http://openurl.lib.rochester.edu/find?ctx_ver=Z39.88-2004&amp;ctx_enc=info:ofi/enc:UTF-8&amp;rfr_id=info:sid/ProQ%3Ahnpnewyorktimeswindex&amp;rft_val_fmt=info:ofi/fmt:kev:mtx:journal&amp;rft.genre=article&amp;rft.jtitle=New+York+Times+%281857-1922%29&amp;rft.atitle=IMPORTANT+FROM+VICKSBURGH.%3A+GEN.+GRANT+PAROLES+31%2C227+PRISONERS.+SHERMAN+DEFEATS+JOHNSTON+AND+CAPTURES+2%2C000+PRISONERS.GEN.+BLAIR+SAID+TO+OCCUPY+JACKSON.&amp;rft.au=&amp;rft.aulast=&amp;rft.aufirst=&amp;rft.date=1863-07-15&amp;rft.volume=&amp;rft.issue=&amp;rft.spage=5&amp;rft.isbn=&amp;rft.btitle=&amp;rft.title=New+York+Times+%281857-1922%29&amp;rft.issn=03624331","ProQuest Historical Newspapers: The New York Times (1851-2009) with Index (1851-1993)"
"FROM PORT HUDSON.","Our Port Hudson correspondent sends us a specimen of the Port Hudson Herald, of June 28, which, it seems, is still issued by its enterprising publishers. Its circulation, as a general thing, is limited to the inside of the fortifications.",91776370,"Historical Newspapers",," Copyright New York Times Company Jul 12, 1863"," 88154091-1 , 1512544 , 113715"," article"," Jul 12, 1863","0362-4331"," English"," English",2," New York, N.Y.","Jul 12, 1863","New York Times (1857-1922)",1863,"http://search.proquest.com/docview/91776370?accountid=13567",2,"http://openurl.lib.rochester.edu/find?ctx_ver=Z39.88-2004&amp;ctx_enc=info:ofi/enc:UTF-8&amp;rfr_id=info:sid/ProQ%3Ahnpnewyorktimeswindex&amp;rft_val_fmt=info:ofi/fmt:kev:mtx:journal&amp;rft.genre=article&amp;rft.jtitle=New+York+Times+%281857-1922%29&amp;rft.atitle=FROM+PORT+HUDSON.%3A+LIFE+INSIDE+THE+FORTIFICATIONS+INTERSTING+EXTRACTS+FROM+THE+PORT+HUDSON+HERALD.+CORRESPONDENCE+BETWEEN+GENS.+BANKS+AND+GARDNER.+VIEWS+OF+THE+SITUATION+FOR+REBEL+CONSUMPTION.+A+SURRENDER+DEMANDED.+GARDNER.+A+CONGRATULATORY+ORDER+FROM+GEN.+GARDNER.+A+REVIEW+OF+THE+SITUATION+PORT+HUDSON.+BANKS%27+LOSSES.+PORT+HUDSON+CANNOT+BE+TAKEN.%22+OUR+CAVALRY+OUTSIDE.+AFFAIRS+ACROSS+THE+RIVER.&amp;rft.au=&amp;rft.aulast=&amp;rft.aufirst=&amp;rft.date=1863-07-12&amp;rft.volume=&amp;rft.issue=&amp;rft.spage=2&amp;rft.isbn=&amp;rft.btitle=&amp;rft.title=New+York+Times+%281857-1922%29&amp;rft.issn=03624331","ProQuest Historical Newspapers: The New York Times (1851-2009) with Index (1851-1993)"
"FROM THE SOUTH.","The Richmond Dispatch, of Wednesday, July 8, contains a leader on the battle of Gettysburgh. It says:",91762465,"Historical Newspapers",," Copyright New York Times Company Jul 11, 1863"," 90521192-1 , 1524309 , 113715"," front_page"," Jul 11, 1863","0362-4331"," English"," English",1," New York, N.Y.","Jul 11, 1863","New York Times (1857-1922)",1863,"http://search.proquest.com/docview/91762465?accountid=13567",1,"http://openurl.lib.rochester.edu/find?ctx_ver=Z39.88-2004&amp;ctx_enc=info:ofi/enc:UTF-8&amp;rfr_id=info:sid/ProQ%3Ahnpnewyorktimeswindex&amp;rft_val_fmt=info:ofi/fmt:kev:mtx:journal&amp;rft.genre=unknown&amp;rft.jtitle=New+York+Times+%281857-1922%29&amp;rft.atitle=FROM+THE+SOUTH.%3A+REBEL+REPORTS+OF+THE+BATTLE+AT+GETTYSBURGH.+A+DISPATCH+WORTHY+OF+BARON+MUNCHAUSEN.+THE+NATIONAL+ARMY+ONE+HUNDRED+AND+SEVENTY-FIVE+THOUSAND+STRONG.+AN+OVERWHELMING+REBEL+VICTORY--40%2C000+PRISONERS+CAPTURED.+GEN.+GRANT+%22FEELING+THE+PRESSURE+OF+JOHNSTON%27S+IRON+HAND.%22+MOVEMENTS+ON+THE+PENINSULA+THE+BATTLE+OF+GETTYSBURGH.+FROM+NORTH+CAROLINA.+REPORTS+FROM+NATCHEZ.+THE+RAIDS+IN+ALABAMA.+OUR+FORCES+ON+THE+PENINSULA.+FRESHET+IN+THE+JAMES.+RICHMOND+SHOWING+HER+TEETH.+MORALS+IN+RICHMOND.+GEN.+HOOKER.+THE+REBELS+AND+ENGLAND.+THE+REBEL+HOPES+IN+THE+LATE+CAMPAIGN.&amp;rft.au=&amp;rft.aulast=&amp;rft.aufirst=&amp;rft.date=1863-07-11&amp;rft.volume=&amp;rft.issue=&amp;rft.spage=1&amp;rft.isbn=&amp;rft.btitle=&amp;rft.title=New+York+Times+%281857-1922%29&amp;rft.issn=03624331","ProQuest Historical Newspapers: The New York Times (1851-2009) with Index (1851-1993)"
"DEPARTMENT OF THE GULF.","The United States mail steamer George Washington, from New-Orleans on the 4th inst., five days and seventeen hours from the Southwest Pass, arrived at this port yesterday. She brings our Port Hudson correspondence to the 2d inst., and our NewOrleans correspondence to the date of sailing.",91735232,"Historical Newspapers",," Copyright New York Times Company Jul 11, 1863"," 90521196 , 1524309 , 113715"," front_page"," Jul 11, 1863","0362-4331"," English"," English",1," New York, N.Y.","Jul 11, 1863","New York Times (1857-1922)",1863,"http://search.proquest.com/docview/91735232?accountid=13567",1,"http://openurl.lib.rochester.edu/find?ctx_ver=Z39.88-2004&amp;ctx_enc=info:ofi/enc:UTF-8&amp;rfr_id=info:sid/ProQ%3Ahnpnewyorktimeswindex&amp;rft_val_fmt=info:ofi/fmt:kev:mtx:journal&amp;rft.genre=unknown&amp;rft.jtitle=New+York+Times+%281857-1922%29&amp;rft.atitle=DEPARTMENT+OF+THE+GULF.%3A+ARRIVAL+OF+THE+GEORGE+WASHINGTON.+ADVICES+FROM+PORT+HUDSON+TO+THE+2D+INST.+THE+THIRD+ASSAULT+NOT+YET+MADE%2C+BUT+EXPECTED+IMMEDIATELY.+REVIEW+OF+THE+STORMING+PARTY+BY+GEN.+BANKS.+DEMONSTRATIONS+OF+REBEL+CAVALRY+IN+OUR+REAR.+CAPTURE+OF+GEN.+NEAL+DOW+AND+STAFF+DONALDSONVILLE+EVACUATED+BY+OUR+FORCES.+APPREHENSIONS+OF+A+REAR+ATTACK+ON+NEWORLEANS.&amp;rft.au=&amp;rft.aulast=&amp;rft.aufirst=&amp;rft.date=1863-07-11&amp;rft.volume=&amp;rft.issue=&amp;rft.spage=1&amp;rft.isbn=&amp;rft.btitle=&amp;rft.title=New+York+Times+%281857-1922%29&amp;rft.issn=03624331","ProQuest Historical Newspapers: The New York Times (1851-2009) with Index (1851-1993)"
"DEPARTMENT OF THE GULF.","I had hoped to be able, before this, to send you the glorious intelligence of our flag waving over Port Hudson, but although nothing whatever has occurred since my last to diminish the confidence we then felt in the ultimate result--on the contrary, much to strengthen it--I am sorry to say we are still outside of, instead of within the ramparts.",91772928,"Historical Newspapers"," From Our Special Correspondent. GEN. AUGUR'S HEADQUARTERS,
From Our Special Correspondent. GEN. AUGUR'S HEADQUARTERS,"," Copyright New York Times Company Jul 8, 1863"," 90520037-1 , 1524295 , 113715"," article"," Jul 8, 1863","0362-4331"," English"," English",2," New York, N.Y.","Jul 8, 1863","New York Times (1857-1922)",1863,"http://search.proquest.com/docview/91772928?accountid=13567",2,"http://openurl.lib.rochester.edu/find?ctx_ver=Z39.88-2004&amp;ctx_enc=info:ofi/enc:UTF-8&amp;rfr_id=info:sid/ProQ%3Ahnpnewyorktimeswindex&amp;rft_val_fmt=info:ofi/fmt:kev:mtx:journal&amp;rft.genre=article&amp;rft.jtitle=New+York+Times+%281857-1922%29&amp;rft.atitle=DEPARTMENT+OF+THE+GULF.%3A+PROGRESS+OF+THE+SIEGE+OF+PORT+HUDSON.+THE+THIRD+ASSAULT+NOT+YET+MADE.+THE+STORMING+PARTY+ALL+READY.+DESTRUCTION+OF+A+REBEL+FORT+BY+A+NEW+BATTERY+ON+THE+LEFT.+NUMEROUS+DESERTIONS+FROM+THE+REBEL+GARRISON.+A+REBEL+ATTACK+ON+DONALDSONVILLE.+A+FORCE+OF+2%2C000+REPULSED+BY+200+OF+OUR+MEN.+THE+GREAT+NEW+BATTERY.+ATTACK+ON+THE+CITADEL.+REBEL+ENCROACHMENTS.+REBEL+BARBARITY.+MORE+DESERTERS.+THE+STORMING+PARTY.+GINEER.+MORE+DESERTERS+YET.+DARING+FEET.+BLACK+AND+WHITE.+ATTACK+ON+DONALDSONVILLE.&amp;rft.au=From+Our+Special+Correspondent.+GEN.+AUGUR%27S+HEADQUARTERS%2C&amp;rft.aulast=From+Our+Special+Correspondent.+GEN.+AUGUR%27S+HEADQUARTERS&amp;rft.aufirst=&amp;rft.date=1863-07-08&amp;rft.volume=&amp;rft.issue=&amp;rft.spage=2&amp;rft.isbn=&amp;rft.btitle=&amp;rft.title=New+York+Times+%281857-1922%29&amp;rft.issn=03624331","ProQuest Historical Newspapers: The New York Times (1851-2009) with Index (1851-1993)"
"The Surrender of Vicksburgh.","The State of Mississippi passed its ordinance of secession on the 9th day of January, 1861.",91772083,"Historical Newspapers",," Copyright New York Times Company Jul 8, 1863"," 90520065-1 , 1524295 , 113715"," article"," Jul 8, 1863","0362-4331"," English"," English",4," New York, N.Y.","Jul 8, 1863","New York Times (1857-1922)",1863,"http://search.proquest.com/docview/91772083?accountid=13567",4,"http://openurl.lib.rochester.edu/find?ctx_ver=Z39.88-2004&amp;ctx_enc=info:ofi/enc:UTF-8&amp;rfr_id=info:sid/ProQ%3Ahnpnewyorktimeswindex&amp;rft_val_fmt=info:ofi/fmt:kev:mtx:journal&amp;rft.genre=article&amp;rft.jtitle=New+York+Times+%281857-1922%29&amp;rft.atitle=The+Surrender+of+Vicksburgh.&amp;rft.au=&amp;rft.aulast=&amp;rft.aufirst=&amp;rft.date=1863-07-08&amp;rft.volume=&amp;rft.issue=&amp;rft.spage=4&amp;rft.isbn=&amp;rft.btitle=&amp;rft.title=New+York+Times+%281857-1922%29&amp;rft.issn=03624331","ProQuest Historical Newspapers: The New York Times (1851-2009) with Index (1851-1993)"
"THE NEWS IN WASHINGTON.","The Cabinet was in regular session to-day Admiral PORTER'S Vicksburgh dispatch was received by Secretary WELLES, and read to the President. The news immediately spread throughout the city, creating intense and joyous excitement. Flags were displayed from all the Departments, and crowds assembled with cheers. Secretary STANTON issued an order for a salute of one hundred guns.",91766330,"Historical Newspapers",," Copyright New York Times Company Jul 8, 1863"," 90520154-1 , 1524295 , 113715"," article"," Jul 8, 1863","0362-4331"," English"," English",8," New York, N.Y.","Jul 8, 1863","New York Times (1857-1922)",1863,"http://search.proquest.com/docview/91766330?accountid=13567",8,"http://openurl.lib.rochester.edu/find?ctx_ver=Z39.88-2004&amp;ctx_enc=info:ofi/enc:UTF-8&amp;rfr_id=info:sid/ProQ%3Ahnpnewyorktimeswindex&amp;rft_val_fmt=info:ofi/fmt:kev:mtx:journal&amp;rft.genre=article&amp;rft.jtitle=New+York+Times+%281857-1922%29&amp;rft.atitle=THE+NEWS+IN+WASHINGTON.%3A+GREAT+JUBILATION--SPEECHES+BY+THE+PRESIDENT%2C+SECRETARY+STANTON%2C+GEN.+HALLECK+AND+OTHERS.&amp;rft.au=&amp;rft.aulast=&amp;rft.aufirst=&amp;rft.date=1863-07-08&amp;rft.volume=&amp;rft.issue=&amp;rft.spage=8&amp;rft.isbn=&amp;rft.btitle=&amp;rft.title=New+York+Times+%281857-1922%29&amp;rft.issn=03624331","ProQuest Historical Newspapers: The New York Times (1851-2009) with Index (1851-1993)"
"SIEGE OF PORT HUDSON.","My Dear Friend: Our progress before this place is slow but sure, I hope; we are now in our fourth week of the siege, and are advanced to within two hundred yards of the earthwork. We skirmish, however, up quite within speaking distance, and once, while my company was deployed as skirmishers, I seized the occasion of a flag of truce coming in to get up to the last ravine in front of the lines, and get a view of as much as possible of the works.",91765435,"Historical Newspapers",," Copyright New York Times Company Jul 7, 1863"," 90519797 , 1524292 , 113715"," front_page"," Jul 7, 1863","0362-4331"," English"," English",1," New York, N.Y.","Jul 7, 1863","New York Times (1857-1922)",1863,"http://search.proquest.com/docview/91765435?accountid=13567",1,"http://openurl.lib.rochester.edu/find?ctx_ver=Z39.88-2004&amp;ctx_enc=info:ofi/enc:UTF-8&amp;rfr_id=info:sid/ProQ%3Ahnpnewyorktimeswindex&amp;rft_val_fmt=info:ofi/fmt:kev:mtx:journal&amp;rft.genre=unknown&amp;rft.jtitle=New+York+Times+%281857-1922%29&amp;rft.atitle=SIEGE+OF+PORT+HUDSON.%3A+INTERESTING+PRIVATE+LETTER+FROM+A+CAPTAIN+OF+THE+ONE+HUNDRED+AND+SEVENTY-FOURTH+NEWYORK.&amp;rft.au=&amp;rft.aulast=&amp;rft.aufirst=&amp;rft.date=1863-07-07&amp;rft.volume=&amp;rft.issue=&amp;rft.spage=1&amp;rft.isbn=&amp;rft.btitle=&amp;rft.title=New+York+Times+%281857-1922%29&amp;rft.issn=03624331","ProQuest Historical Newspapers: The New York Times (1851-2009) with Index (1851-1993)"
"LATE FROM NEW-ORLEANS.",,91772578,"Historical Newspapers",," Copyright New York Times Company Jul 7, 1863"," 90519796 , 1524292 , 113715"," front_page"," Jul 7, 1863","0362-4331"," English"," English",1," New York, N.Y.","Jul 7, 1863","New York Times (1857-1922)",1863,"http://search.proquest.com/docview/91772578?accountid=13567",1,"http://openurl.lib.rochester.edu/find?ctx_ver=Z39.88-2004&amp;ctx_enc=info:ofi/enc:UTF-8&amp;rfr_id=info:sid/ProQ%3Ahnpnewyorktimeswindex&amp;rft_val_fmt=info:ofi/fmt:kev:mtx:journal&amp;rft.genre=unknown&amp;rft.jtitle=New+York+Times+%281857-1922%29&amp;rft.atitle=LATE+FROM+NEW-ORLEANS.%3A+THE+BOMBARDMENT+OF+PORT+HUDSON+STILL+GOING+ON.+GEN.+BANKS%27+COMMUNICATIONS+UNTOUCHED.&amp;rft.au=&amp;rft.aulast=&amp;rft.aufirst=&amp;rft.date=1863-07-07&amp;rft.volume=&amp;rft.issue=&amp;rft.spage=1&amp;rft.isbn=&amp;rft.btitle=&amp;rft.title=New+York+Times+%281857-1922%29&amp;rft.issn=03624331","ProQuest Historical Newspapers: The New York Times (1851-2009) with Index (1851-1993)"
"OUR PORT HUDSON CORRESPONDENCE.","I herewith send you a list of nearly 900 of the heroic men who have volunteered to lead the ""forlorn hope"" in the grand forthcoming assault upon Port Hudson; the remainder I had not been able to obtain up to the moment of closing the mail, but will send you by the very first opportunity.",91775528,"Historical Newspapers",," Copyright New York Times Company Jul 4, 1863"," 90519110 , 1524284 , 113715"," article"," Jul 4, 1863","0362-4331"," English"," English",8," New York, N.Y.","Jul 4, 1863","New York Times (1857-1922)",1863,"http://search.proquest.com/docview/91775528?accountid=13567",8,"http://openurl.lib.rochester.edu/find?ctx_ver=Z39.88-2004&amp;ctx_enc=info:ofi/enc:UTF-8&amp;rfr_id=info:sid/ProQ%3Ahnpnewyorktimeswindex&amp;rft_val_fmt=info:ofi/fmt:kev:mtx:journal&amp;rft.genre=article&amp;rft.jtitle=New+York+Times+%281857-1922%29&amp;rft.atitle=OUR+PORT+HUDSON+CORRESPONDENCE.&amp;rft.au=&amp;rft.aulast=&amp;rft.aufirst=&amp;rft.date=1863-07-04&amp;rft.volume=&amp;rft.issue=&amp;rft.spage=8&amp;rft.isbn=&amp;rft.btitle=&amp;rft.title=New+York+Times+%281857-1922%29&amp;rft.issn=03624331","ProQuest Historical Newspapers: The New York Times (1851-2009) with Index (1851-1993)"
"FROM THE RED RIVER.","They forces of KIRBY SMITH, as near as I can learn, have followed the retrograde steps of Gen. BANKS from Alexandria, and are concentrating--not in very large numbers--near the head of the Atchafalaya. Their object is two-fold. First to stop our transports from using this, to us, important avenue of communication with our base of supplies, and out hospitals at Breshaer City and New-Orleans. Our only, or chief, port along this bayou, is about midway of the river, on the right bank, at Butte de la Rose.",91772338,"Historical Newspapers"," From Our Own Correspondent.
From Our Own Correspondent."," Copyright New York Times Company Jul 3, 1863"," 90518660-1 , 1524278 , 113715"," article"," Jul 3, 1863","0362-4331"," English"," English",2," New York, N.Y.","Jul 3, 1863","New York Times (1857-1922)",1863,"http://search.proquest.com/docview/91772338?accountid=13567",2,"http://openurl.lib.rochester.edu/find?ctx_ver=Z39.88-2004&amp;ctx_enc=info:ofi/enc:UTF-8&amp;rfr_id=info:sid/ProQ%3Ahnpnewyorktimeswindex&amp;rft_val_fmt=info:ofi/fmt:kev:mtx:journal&amp;rft.genre=article&amp;rft.jtitle=New+York+Times+%281857-1922%29&amp;rft.atitle=FROM+THE+RED+RIVER.%3A+KIRBY+SMITH+NEAR+THE+HEAD+OF+THE+ATCHAFALAYA--THE+OBJECT+OF+HIS+MOVEMENTS--OPERATIONS+OF+THE+GUERRILLAS--DESTRUCTION+OF+SIMMSPORT--IMPORTANT+DOCUMENTS+CAPTURED--REVELATIONS+FROM+THE+PRISON+HOUSE%2C+%26C.+A+LETTER+FROM+MR.+LINCOLN.&amp;rft.au=From+Our+Own+Correspondent.&amp;rft.aulast=From+Our+Own+Correspondent.&amp;rft.aufirst=&amp;rft.date=1863-07-03&amp;rft.volume=&amp;rft.issue=&amp;rft.spage=2&amp;rft.isbn=&amp;rft.btitle=&amp;rft.title=New+York+Times+%281857-1922%29&amp;rft.issn=03624331","ProQuest Historical Newspapers: The New York Times (1851-2009) with Index (1851-1993)"
"THE SIEGE OF VICKSBURGH","Up to yesterday skirmishing has been going on along the whole line of our rear front, or rather that portion of it from Snyder's Bluff to the Big Black Railroad crossing. There being every indication of a fight immineat, the rear front was put in order to resist an assault.",91770221,"Historical Newspapers"," From Our Own Correspondent.
From Our Own Correspondent."," Copyright New York Times Company Jul 3, 1863"," 90518722 , 1524278 , 113715"," article"," Jul 3, 1863","0362-4331"," English"," English",8," New York, N.Y.","Jul 3, 1863","New York Times (1857-1922)",1863,"http://search.proquest.com/docview/91770221?accountid=13567",8,"http://openurl.lib.rochester.edu/find?ctx_ver=Z39.88-2004&amp;ctx_enc=info:ofi/enc:UTF-8&amp;rfr_id=info:sid/ProQ%3Ahnpnewyorktimeswindex&amp;rft_val_fmt=info:ofi/fmt:kev:mtx:journal&amp;rft.genre=article&amp;rft.jtitle=New+York+Times+%281857-1922%29&amp;rft.atitle=THE+SIEGE+OF+VICKSBURGH%3A+DEMONSTRATIONS+OF+JOE+JOHNSTON+IN+THE+REAR.+IN+ATTACK+ON+GEN.+OSTERHANS+AT+THE+BIG+BLACK.+THE+ENEMY+REPULSED+WITH+GREAT+SLAUGHTER.+PROGRESS+OF+OUR+APPROACHES+TO+THE+CITY.+NEWS+RECEIVED+IN+ST.+LOUIS.+TELEGRAMS+TO+THE+WESTERN+PRESS.&amp;rft.au=From+Our+Own+Correspondent.&amp;rft.aulast=From+Our+Own+Correspondent.&amp;rft.aufirst=&amp;rft.date=1863-07-03&amp;rft.volume=&amp;rft.issue=&amp;rft.spage=8&amp;rft.isbn=&amp;rft.btitle=&amp;rft.title=New+York+Times+%281857-1922%29&amp;rft.issn=03624331","ProQuest Historical Newspapers: The New York Times (1851-2009) with Index (1851-1993)"
"From New-Orleans.","Since my last the army at Port Hudson has not been take, and in my next I hope to record the fall of this persistent rebel stronghold. Last Wednesday the rebel commander, Gen. GARDNER, sent out a flag of truce, asking Gen. BANKS to come and bring off his dead, if he had men enough. Gen. BANKS sent, of course, and brought out one hundred and seventeen. These were nearly all we had killed or mortally wounded. The enemy had a private place under their works from whick they issued and brought...",91773705,"Historical Newspapers"," Correspondence of the Boston Journal.
Correspondence of the Boston Journal."," Copyright New York Times Company Jul 3, 1863"," 90518724 , 1524278 , 113715"," article"," Jul 3, 1863","0362-4331"," English"," English",8," New York, N.Y.","Jul 3, 1863","New York Times (1857-1922)",1863,"http://search.proquest.com/docview/91773705?accountid=13567",8,"http://openurl.lib.rochester.edu/find?ctx_ver=Z39.88-2004&amp;ctx_enc=info:ofi/enc:UTF-8&amp;rfr_id=info:sid/ProQ%3Ahnpnewyorktimeswindex&amp;rft_val_fmt=info:ofi/fmt:kev:mtx:journal&amp;rft.genre=article&amp;rft.jtitle=New+York+Times+%281857-1922%29&amp;rft.atitle=From+New-Orleans.%3A+AFFAIRS+AT+PORT+HUDSON--THE+BATTLE+AT+LAFOURCHE.&amp;rft.au=Correspondence+of+the+Boston+Journal.&amp;rft.aulast=Correspondence+of+the+Boston+Journal.&amp;rft.aufirst=&amp;rft.date=1863-07-03&amp;rft.volume=&amp;rft.issue=&amp;rft.spage=8&amp;rft.isbn=&amp;rft.btitle=&amp;rft.title=New+York+Times+%281857-1922%29&amp;rft.issn=03624331","ProQuest Historical Newspapers: The New York Times (1851-2009) with Index (1851-1993)"
"IMPORTANT FROM VICKSBURGH.","Port Hudson has not been taken, Gen. GRANT was deceived by a false report to that effect, gives out before the best landed.",91768966,"Historical Newspapers",," Copyright New York Times Company Jul 1, 1863"," 90518188 , 1524272 , 113715"," article"," Jul 1, 1863","0362-4331"," English"," English",4," New York, N.Y.","Jul 1, 1863","New York Times (1857-1922)",1863,"http://search.proquest.com/docview/91768966?accountid=13567",4,"http://openurl.lib.rochester.edu/find?ctx_ver=Z39.88-2004&amp;ctx_enc=info:ofi/enc:UTF-8&amp;rfr_id=info:sid/ProQ%3Ahnpnewyorktimeswindex&amp;rft_val_fmt=info:ofi/fmt:kev:mtx:journal&amp;rft.genre=article&amp;rft.jtitle=New+York+Times+%281857-1922%29&amp;rft.atitle=IMPORTANT+FROM+VICKSBURGH.%3A+A+REBEL+PART+ON+THE+LEFT+BLOWN+UP+AND+CAPTURED.&amp;rft.au=&amp;rft.aulast=&amp;rft.aufirst=&amp;rft.date=1863-07-01&amp;rft.volume=&amp;rft.issue=&amp;rft.spage=4&amp;rft.isbn=&amp;rft.btitle=&amp;rft.title=New+York+Times+%281857-1922%29&amp;rft.issn=03624331","ProQuest Historical Newspapers: The New York Times (1851-2009) with Index (1851-1993)"
"THE SECOND ASSAULT ON PORT HUDSON.",,91775067,"Historical Newspapers",," Copyright New York Times Company Jun 29, 1863"," 78705628 , 1446125 , 113715"," article"," Jun 29, 1863","0362-4331"," English"," English",2," New York, N.Y.","Jun 29, 1863","New York Times (1857-1922)",1863,"http://search.proquest.com/docview/91775067?accountid=13567",2,"http://openurl.lib.rochester.edu/find?ctx_ver=Z39.88-2004&amp;ctx_enc=info:ofi/enc:UTF-8&amp;rfr_id=info:sid/ProQ%3Ahnpnewyorktimeswindex&amp;rft_val_fmt=info:ofi/fmt:kev:mtx:journal&amp;rft.genre=article&amp;rft.jtitle=New+York+Times+%281857-1922%29&amp;rft.atitle=THE+SECOND+ASSAULT+ON+PORT+HUDSON.%3A+LIST+OF+CASUALTIES.+LIST+OF+KILLED%2C+WOUNDED+AND+MISSING+OF+THE+THIRD+BRIGADE%2C+THIRD+DIVISION%2C+IN+ACTION+BEFORE+PORT+HUDSON%2C+LA.%2C+JUNE+14%2C+1863.+KILLED.&amp;rft.au=&amp;rft.aulast=&amp;rft.aufirst=&amp;rft.date=1863-06-29&amp;rft.volume=&amp;rft.issue=&amp;rft.spage=2&amp;rft.isbn=&amp;rft.btitle=&amp;rft.title=New+York+Times+%281857-1922%29&amp;rft.issn=03624331","ProQuest Historical Newspapers: The New York Times (1851-2009) with Index (1851-1993)"
"OUR-PORT HUDSON CORRESPONDENCE","Here we are still, among these grand old magaolia forests, with the almost incessant roar of artillery and musketry in our ears; the desultory firing, kept up night and day, being enough to keep the beleaguered rebels, one would imagine, perpetually without rest.",91789820,"Historical Newspapers",," Copyright New York Times Company Jun 29, 1863"," 78705699-1 , 1446125 , 113715"," article"," Jun 29, 1863","0362-4331"," English"," English",8," New York, N.Y.","Jun 29, 1863","New York Times (1857-1922)",1863,"http://search.proquest.com/docview/91789820?accountid=13567",8,"http://openurl.lib.rochester.edu/find?ctx_ver=Z39.88-2004&amp;ctx_enc=info:ofi/enc:UTF-8&amp;rfr_id=info:sid/ProQ%3Ahnpnewyorktimeswindex&amp;rft_val_fmt=info:ofi/fmt:kev:mtx:journal&amp;rft.genre=article&amp;rft.jtitle=New+York+Times+%281857-1922%29&amp;rft.atitle=OUR-PORT+HUDSON+CORRESPONDENCE%3A+PROGRESS+OF+THE+SIEGE+OF+PORT+HUDSON--EVENTS+SINCE+THE+27TH+MAY--ACTION+OF+JUNE+14--+GALLANT+BEHAVIOR+OF+OUR+RIGHT+WING--HOSPITAL+INCIDENTS--IMPORTANT+GENERAL+ORDER+--NEWSPAPER+VERACITY--REBEL+DESERTERS--THE+FUTURE.&amp;rft.au=&amp;rft.aulast=&amp;rft.aufirst=&amp;rft.date=1863-06-29&amp;rft.volume=&amp;rft.issue=&amp;rft.spage=8&amp;rft.isbn=&amp;rft.btitle=&amp;rft.title=New+York+Times+%281857-1922%29&amp;rft.issn=03624331","ProQuest Historical Newspapers: The New York Times (1851-2009) with Index (1851-1993)"
"IMPORTANT FROM NEW-ORLEANS.","The steamship George Griswold, from NewOrleans on the 21st inst., arrived at this port yesterday. Her advices are two days later.",91776025,"Historical Newspapers",," Copyright New York Times Company Jun 29, 1863"," 78705691 , 1446125 , 113715"," article"," Jun 29, 1863","0362-4331"," English"," English",8," New York, N.Y.","Jun 29, 1863","New York Times (1857-1922)",1863,"http://search.proquest.com/docview/91776025?accountid=13567",8,"http://openurl.lib.rochester.edu/find?ctx_ver=Z39.88-2004&amp;ctx_enc=info:ofi/enc:UTF-8&amp;rfr_id=info:sid/ProQ%3Ahnpnewyorktimeswindex&amp;rft_val_fmt=info:ofi/fmt:kev:mtx:journal&amp;rft.genre=article&amp;rft.jtitle=New+York+Times+%281857-1922%29&amp;rft.atitle=IMPORTANT+FROM+NEW-ORLEANS.%3A+ARRIVAL+OF+THE+GEORGE+GRISWOLD+THE+LOUISIANA+STATE+BANK+TO+CONTINUE+BUSINESS.+FOUR+STEAMERS+BURNT+BY+REBEL+CAVALRY+AT+PLAQUEMINE.+DETAILS+OF+THE+SECOND+ASSAULT+ON+PORT+HUDSON.+PREPARATIONS+FOR+A+THIRD+ASSAULT.+VOLUNTEERS+FOR+THE+FORLORN+HOPE.+GEN.+SHERMAN+RECOVERING&amp;rft.au=&amp;rft.aulast=&amp;rft.aufirst=&amp;rft.date=1863-06-29&amp;rft.volume=&amp;rft.issue=&amp;rft.spage=8&amp;rft.isbn=&amp;rft.btitle=&amp;rft.title=New+York+Times+%281857-1922%29&amp;rft.issn=03624331","ProQuest Historical Newspapers: The New York Times (1851-2009) with Index (1851-1993)"
"FROM NEW-ORLEANS.","The steamer Creole, from New-Orleans on the 19th instant, arrived here yesterday afternoon.",91796102,"Historical Newspapers",," Copyright New York Times Company Jun 27, 1863"," 78705391 , 1446123 , 113715"," front_page"," Jun 27, 1863","0362-4331"," English"," English",1," New York, N.Y.","Jun 27, 1863","New York Times (1857-1922)",1863,"http://search.proquest.com/docview/91796102?accountid=13567",1,"http://openurl.lib.rochester.edu/find?ctx_ver=Z39.88-2004&amp;ctx_enc=info:ofi/enc:UTF-8&amp;rfr_id=info:sid/ProQ%3Ahnpnewyorktimeswindex&amp;rft_val_fmt=info:ofi/fmt:kev:mtx:journal&amp;rft.genre=unknown&amp;rft.jtitle=New+York+Times+%281857-1922%29&amp;rft.atitle=FROM+NEW-ORLEANS.%3A+ARRIVAL+OF+THE+CREOLE.+NO+LATER+NEWS+FROM+PORT+HUDSON.+ANOTHER+VESSEL+FROM+NEW-YORK+DESTROYED+BY+THE+TUGBOAT+BOSTON.&amp;rft.au=&amp;rft.aulast=&amp;rft.aufirst=&amp;rft.date=1863-06-27&amp;rft.volume=&amp;rft.issue=&amp;rft.spage=1&amp;rft.isbn=&amp;rft.btitle=&amp;rft.title=New+York+Times+%281857-1922%29&amp;rft.issn=03624331","ProQuest Historical Newspapers: The New York Times (1851-2009) with Index (1851-1993)"
"OUR NEW-ORLEANS CORRESPONDENCE.","The Matanzas was to go direct, and leave at 6 o'clock last evening. At 5 o'clock the Quartermaster sent an order for her detention, to take on board fifty prisoners, and to land them at Key West.",91776828,"Historical Newspapers"," From the Era, June 17.
From the Era, June 17."," Copyright New York Times Company Jun 27, 1863"," 78705392 , 1446123 , 113715"," front_page"," Jun 27, 1863","0362-4331"," English"," English",1," New York, N.Y.","Jun 27, 1863","New York Times (1857-1922)",1863,"http://search.proquest.com/docview/91776828?accountid=13567",1,"http://openurl.lib.rochester.edu/find?ctx_ver=Z39.88-2004&amp;ctx_enc=info:ofi/enc:UTF-8&amp;rfr_id=info:sid/ProQ%3Ahnpnewyorktimeswindex&amp;rft_val_fmt=info:ofi/fmt:kev:mtx:journal&amp;rft.genre=unknown&amp;rft.jtitle=New+York+Times+%281857-1922%29&amp;rft.atitle=OUR+NEW-ORLEANS+CORRESPONDENCE.%3A+GUERRILLAS+ANNOYING+GEN.+BANKS--FOUR+STEAMERS+BURNED--THE+CITY+BANKS+IN+TROUBLE--AN+UNSUCCESSFUL+ASSAULT+ON+PORT+HUDSON--THE+WOUNDED+ARRIVING+AT+NEW+ORLEANS.+PORT+HUDSON.+DEPREDATIONS+IN+THE+GULF.&amp;rft.au=From+the+Era%2C+June+17.&amp;rft.aulast=From+the+Era&amp;rft.aufirst=June&amp;rft.date=1863-06-27&amp;rft.volume=&amp;rft.issue=&amp;rft.spage=1&amp;rft.isbn=&amp;rft.btitle=&amp;rft.title=New+York+Times+%281857-1922%29&amp;rft.issn=03624331","ProQuest Historical Newspapers: The New York Times (1851-2009) with Index (1851-1993)"
"THE SIEGE OF PORT HUDSON.","The Nineteenth army corps still lays in the rear of the formidable rebel works. The works are thoroughly invested, any other event than that of an eventual surrender is impossible.",91775641,"Historical Newspapers",," Copyright New York Times Company Jun 26, 1863"," 78705374 , 1446122 , 113715"," article"," Jun 26, 1863","0362-4331"," English"," English",8," New York, N.Y.","Jun 26, 1863","New York Times (1857-1922)",1863,"http://search.proquest.com/docview/91775641?accountid=13567",8,"http://openurl.lib.rochester.edu/find?ctx_ver=Z39.88-2004&amp;ctx_enc=info:ofi/enc:UTF-8&amp;rfr_id=info:sid/ProQ%3Ahnpnewyorktimeswindex&amp;rft_val_fmt=info:ofi/fmt:kev:mtx:journal&amp;rft.genre=article&amp;rft.jtitle=New+York+Times+%281857-1922%29&amp;rft.atitle=THE+SIEGE+OF+PORT+HUDSON.&amp;rft.au=&amp;rft.aulast=&amp;rft.aufirst=&amp;rft.date=1863-06-26&amp;rft.volume=&amp;rft.issue=&amp;rft.spage=8&amp;rft.isbn=&amp;rft.btitle=&amp;rft.title=New+York+Times+%281857-1922%29&amp;rft.issn=03624331","ProQuest Historical Newspapers: The New York Times (1851-2009) with Index (1851-1993)"
"IMPORTANT FROM PORT HUDSON.",,91675400,"Historical Newspapers",," Copyright New York Times Company Jun 25, 1863"," 90552242 , 1524476 , 113715"," front_page"," Jun 25, 1863","0362-4331"," English"," English",1," New York, N.Y.","Jun 25, 1863","New York Times (1857-1922)",1863,"http://search.proquest.com/docview/91675400?accountid=13567",1,"http://openurl.lib.rochester.edu/find?ctx_ver=Z39.88-2004&amp;ctx_enc=info:ofi/enc:UTF-8&amp;rfr_id=info:sid/ProQ%3Ahnpnewyorktimeswindex&amp;rft_val_fmt=info:ofi/fmt:kev:mtx:journal&amp;rft.genre=unknown&amp;rft.jtitle=New+York+Times+%281857-1922%29&amp;rft.atitle=IMPORTANT+FROM+PORT+HUDSON.%3A+GEN.+BANKS%27+REPORT+OF+OPERATIONS+TO+THE+14TH.+ANOTHER+ASSAULT+ON+THE+REBEL+WORKS.+NEW+AND+IMPORTANT+POSITIONS+GAINED.&amp;rft.au=&amp;rft.aulast=&amp;rft.aufirst=&amp;rft.date=1863-06-25&amp;rft.volume=&amp;rft.issue=&amp;rft.spage=1&amp;rft.isbn=&amp;rft.btitle=&amp;rft.title=New+York+Times+%281857-1922%29&amp;rft.issn=03624331","ProQuest Historical Newspapers: The New York Times (1851-2009) with Index (1851-1993)"
"FROM NEW-ORLEANS.","The steamship Locust Point, from New-Orleans on the 14th inst., arrived at this port last evening.",91778069,"Historical Newspapers",," Copyright New York Times Company Jun 23, 1863"," 78705063 , 1446120 , 113715"," front_page"," Jun 23, 1863","0362-4331"," English"," English",1," New York, N.Y.","Jun 23, 1863","New York Times (1857-1922)",1863,"http://search.proquest.com/docview/91778069?accountid=13567",1,"http://openurl.lib.rochester.edu/find?ctx_ver=Z39.88-2004&amp;ctx_enc=info:ofi/enc:UTF-8&amp;rfr_id=info:sid/ProQ%3Ahnpnewyorktimeswindex&amp;rft_val_fmt=info:ofi/fmt:kev:mtx:journal&amp;rft.genre=unknown&amp;rft.jtitle=New+York+Times+%281857-1922%29&amp;rft.atitle=FROM+NEW-ORLEANS.%3A+ARRIVAL+OF+THE+LOCUST+POINT.+PROGRESS+OF+THE+SIEGE+OF+PORT+HUDSON.+GENERAL+SHERMAN%27S+LEG+AMPUTATED.+A+STEAMING+CAPTURED+AND+A+BARK+BURNT+BY+THE+REBELS.&amp;rft.au=&amp;rft.aulast=&amp;rft.aufirst=&amp;rft.date=1863-06-23&amp;rft.volume=&amp;rft.issue=&amp;rft.spage=1&amp;rft.isbn=&amp;rft.btitle=&amp;rft.title=New+York+Times+%281857-1922%29&amp;rft.issn=03624331","ProQuest Historical Newspapers: The New York Times (1851-2009) with Index (1851-1993)"
"FROM THE REBEL STATES.","The Yankee propeller Boston arrived here this morning, having been captured by a party of sixteen men from this city, near Pass a POUTRE. On their way out they burned the barges Lennox and Texas, at the mouth of the Mississippi. Both of them had valuable cargoes for New-Orleans. The crew of the Boston, and a position of the crew of the barges are prisoners here.",91796165,"Historical Newspapers",," Copyright New York Times Company Jun 21, 1863"," 78704847-1 , 1446118 , 113715"," article"," Jun 21, 1863","0362-4331"," English"," English",2," New York, N.Y.","Jun 21, 1863","New York Times (1857-1922)",1863,"http://search.proquest.com/docview/91796165?accountid=13567",2,"http://openurl.lib.rochester.edu/find?ctx_ver=Z39.88-2004&amp;ctx_enc=info:ofi/enc:UTF-8&amp;rfr_id=info:sid/ProQ%3Ahnpnewyorktimeswindex&amp;rft_val_fmt=info:ofi/fmt:kev:mtx:journal&amp;rft.genre=article&amp;rft.jtitle=New+York+Times+%281857-1922%29&amp;rft.atitle=FROM+THE+REBEL+STATES.%3A+REPORTED+CAPTURE+OF+A+U.S.+PROPELLER+NEAR+PASS+A+L%27OUTRE.+VICKSBURGH+AND+PORT+HUDSON.+REBEL+MOVEMENTS+WEST+OF+THE+MISSISSIPPI.+AFFAIRS+IN+TENNESSEE.+INTERESTING+MISCELLANEOUS+NEWS.+CAPTURE+OF+A+%22YANKEE%22+PROPELLER.+REPORTS+FROM+VICKSBURGH.+GEN.+JOHNSTON+SENDS+BRECKINRIDGE%27S+CORPS+BACK+TO+TENNESSEE.+WEST+OF+THE+MISSISSIPPI.+REPORTS+FROM+PORT+HUDSON.+AFFAIRS+IN+TENNESSEE.+THE+REBEL+SPIES.+GEN.+G.T.+BEAUREGARD.+FROM+THE+PENINSULA.+CONSCRIPTION+OVERSEERS.+ACCIDENT+TO+A+STEAMER.+F.P.+BLAIR%2C+JR.+A+NEW+COTTON+LOAN.+ADMIRAL+BUCHANAN.+AN+INSIDE+VIEW+OF+REBELDOM.&amp;rft.au=&amp;rft.aulast=&amp;rft.aufirst=&amp;rft.date=1863-06-21&amp;rft.volume=&amp;rft.issue=&amp;rft.spage=2&amp;rft.isbn=&amp;rft.btitle=&amp;rft.title=New+York+Times+%281857-1922%29&amp;rft.issn=03624331","ProQuest Historical Newspapers: The New York Times (1851-2009) with Index (1851-1993)"
"REBEL PRANKS AND REBEL STRENGTH","News from Vicksburgh shows that Gen. JOHONSTON, in GRANT'S rear, is being reinforced from the rebel army of BRAGG in Tennessee. News from Murfreesboro shows that none of BRAGG'S troops have left him, but that his...",91732878,"Historical Newspapers",," Copyright New York Times Company Jun 18, 1863"," 90552178 , 1524475 , 113715"," article"," Jun 18, 1863","0362-4331"," English"," English",4," New York, N.Y.","Jun 18, 1863","New York Times (1857-1922)",1863,"http://search.proquest.com/docview/91732878?accountid=13567",4,"http://openurl.lib.rochester.edu/find?ctx_ver=Z39.88-2004&amp;ctx_enc=info:ofi/enc:UTF-8&amp;rfr_id=info:sid/ProQ%3Ahnpnewyorktimeswindex&amp;rft_val_fmt=info:ofi/fmt:kev:mtx:journal&amp;rft.genre=article&amp;rft.jtitle=New+York+Times+%281857-1922%29&amp;rft.atitle=REBEL+PRANKS+AND+REBEL+STRENGTH&amp;rft.au=&amp;rft.aulast=&amp;rft.aufirst=&amp;rft.date=1863-06-18&amp;rft.volume=&amp;rft.issue=&amp;rft.spage=4&amp;rft.isbn=&amp;rft.btitle=&amp;rft.title=New+York+Times+%281857-1922%29&amp;rft.issn=03624331","ProQuest Historical Newspapers: The New York Times (1851-2009) with Index (1851-1993)"
"FROM THE MOUTH OF RED RIVER.","Since the withdrawal of the army of Gen. BANKS from Alexandria and the retirement of the gunboats, important events have occurred. The entire land forces, after pursuing the retreating rebel army far on the road to Shreveport, gave up the chase and returned, as further pursuit would have separated different portions of the army so as to have interfered with the execution of important Plans in another quarter.",91812593,"Historical Newspapers"," From Our Own Correspondent.
From Our Own Correspondent."," Copyright New York Times Company Jun 14, 1863"," 78704242-1 , 1446111 , 113715"," front_page"," Jun 14, 1863","0362-4331"," English"," English",1," New York, N.Y.","Jun 14, 1863","New York Times (1857-1922)",1863,"http://search.proquest.com/docview/91812593?accountid=13567",1,"http://openurl.lib.rochester.edu/find?ctx_ver=Z39.88-2004&amp;ctx_enc=info:ofi/enc:UTF-8&amp;rfr_id=info:sid/ProQ%3Ahnpnewyorktimeswindex&amp;rft_val_fmt=info:ofi/fmt:kev:mtx:journal&amp;rft.genre=unknown&amp;rft.jtitle=New+York+Times+%281857-1922%29&amp;rft.atitle=FROM+THE+MOUTH+OF+RED+RIVER.%3A+GUNBOAT+AND+ARMY+MOVEMENTS+ON+THE+MISSISSIPPI.+GEN.+BANKS%27+INVESTMENT+OF+PORT+HUDSON.+IMPORTANT+SUBSEQUENT+EVENTS.+REPORTED+MOVEMENTS+OF+THE+REBELS+UNDER+KIRBY+SMITH.+NOTHING+TO+BE+FEARED+FROM+HIM.+THE+MOUTHS+OF+THE+RED+AND+BLACK+RIVERS+BLOCKADED.+LARGE+ARRIVALS+OF+CONTRABANDS+FROM+THE+RED+RIVER+COUNTRY.+NARRATIVES+OF+PLANTATION+EXPERIENCE.+ALEXANDRIA+REOCCUPIED+BY+THE+REBELS.+HORRORS+OF+THE+PRISON-HOUSE.&amp;rft.au=From+Our+Own+Correspondent.&amp;rft.aulast=From+Our+Own+Correspondent.&amp;rft.aufirst=&amp;rft.date=1863-06-14&amp;rft.volume=&amp;rft.issue=&amp;rft.spage=1&amp;rft.isbn=&amp;rft.btitle=&amp;rft.title=New+York+Times+%281857-1922%29&amp;rft.issn=03624331","ProQuest Historical Newspapers: The New York Times (1851-2009) with Index (1851-1993)"
"THE SIEGE OF PORT HUDSON.","The Mississippian of the 4th and 5th inst., gives the details of the alleged fight at Port Hudson. it says:",91836028,"Historical Newspapers",," Copyright New York Times Company Jun 14, 1863"," 78704243 , 1446111 , 113715"," front_page"," Jun 14, 1863","0362-4331"," English"," English",1," New York, N.Y.","Jun 14, 1863","New York Times (1857-1922)",1863,"http://search.proquest.com/docview/91836028?accountid=13567",1,"http://openurl.lib.rochester.edu/find?ctx_ver=Z39.88-2004&amp;ctx_enc=info:ofi/enc:UTF-8&amp;rfr_id=info:sid/ProQ%3Ahnpnewyorktimeswindex&amp;rft_val_fmt=info:ofi/fmt:kev:mtx:journal&amp;rft.genre=unknown&amp;rft.jtitle=New+York+Times+%281857-1922%29&amp;rft.atitle=THE+SIEGE+OF+PORT+HUDSON.%3A+A+REBEL+REPORT+OF+A+REVERSE+TO+GEN.+BANKS.&amp;rft.au=&amp;rft.aulast=&amp;rft.aufirst=&amp;rft.date=1863-06-14&amp;rft.volume=&amp;rft.issue=&amp;rft.spage=1&amp;rft.isbn=&amp;rft.btitle=&amp;rft.title=New+York+Times+%281857-1922%29&amp;rft.issn=03624331","ProQuest Historical Newspapers: The New York Times (1851-2009) with Index (1851-1993)"
"FROM NEW-ORLEANS.","The United States mail steamship George Washington, from New-Orleans, on Sunday, the 8th, arrived at this port last evening, having made the passage from city to city in 6 days and 7 hours.",91836408,"Historical Newspapers",," Copyright New York Times Company Jun 14, 1863"," 78704319 , 1446111 , 113715"," article"," Jun 14, 1863","0362-4331"," English"," English",8," New York, N.Y.","Jun 14, 1863","New York Times (1857-1922)",1863,"http://search.proquest.com/docview/91836408?accountid=13567",8,"http://openurl.lib.rochester.edu/find?ctx_ver=Z39.88-2004&amp;ctx_enc=info:ofi/enc:UTF-8&amp;rfr_id=info:sid/ProQ%3Ahnpnewyorktimeswindex&amp;rft_val_fmt=info:ofi/fmt:kev:mtx:journal&amp;rft.genre=article&amp;rft.jtitle=New+York+Times+%281857-1922%29&amp;rft.atitle=FROM+NEW-ORLEANS.%3A+ADVICES+ONE+DAY+LATER+BY+THE+GEORGE+WASHINGTON.+AN+ORDER+FROM+GEN.+BANKS+REGARDING+THE+NEW-YORK+STEAMERS.+ADDITIONAL+LIST+OF+CASUALTIES+AT+PORT+HUDSON.+ADDITIONAL+LIST+OF+CASUALITIES+AT+PORT+HUDSON.&amp;rft.au=&amp;rft.aulast=&amp;rft.aufirst=&amp;rft.date=1863-06-14&amp;rft.volume=&amp;rft.issue=&amp;rft.spage=8&amp;rft.isbn=&amp;rft.btitle=&amp;rft.title=New+York+Times+%281857-1922%29&amp;rft.issn=03624331","ProQuest Historical Newspapers: The New York Times (1851-2009) with Index (1851-1993)"
"IMPORTANT FROM LOUISIANA.",,91796467,"Historical Newspapers",," Copyright New York Times Company Jun 13, 1863"," 78704171-1 , 1446110 , 113715"," front_page"," Jun 13, 1863","0362-4331"," English"," English",1," New York, N.Y.","Jun 13, 1863","New York Times (1857-1922)",1863,"http://search.proquest.com/docview/91796467?accountid=13567",1,"http://openurl.lib.rochester.edu/find?ctx_ver=Z39.88-2004&amp;ctx_enc=info:ofi/enc:UTF-8&amp;rfr_id=info:sid/ProQ%3Ahnpnewyorktimeswindex&amp;rft_val_fmt=info:ofi/fmt:kev:mtx:journal&amp;rft.genre=unknown&amp;rft.jtitle=New+York+Times+%281857-1922%29&amp;rft.atitle=IMPORTANT+FROM+LOUISIANA.%3A+ARRIVAL+OF+THE+MISSISSIPPI+FROM+NEW-ORLEANS+OUR+PORT+HUDSON+CORRESPONDENCE+TO+JUNE+3.+THE+SIEGE+PROGRESSING+SATISFACTORILY.+THE+CAPTURE+OF+THE+PLACE+A+%22SURE+THING.%22+FULL+DETAILS+OF+THE+ATTACK+ON+THE+27TH+ULT.+GREAT+BRAVERY+OF+THE+FIRST+AND+THIRD+LOUISIANA+BLACK+REGIMENTS.+SIX+DISTINCT+CHARGES+MADE+BY+THEM+UPON+THE+ENEMY%27S+WORKS.+TROUBLE+WITH+GUERRILLAS+IN+THE+TECHE+COUNTRY.+GEN.+SHERMAN%27S+CONDITION.&amp;rft.au=&amp;rft.aulast=&amp;rft.aufirst=&amp;rft.date=1863-06-13&amp;rft.volume=&amp;rft.issue=&amp;rft.spage=1&amp;rft.isbn=&amp;rft.btitle=&amp;rft.title=New+York+Times+%281857-1922%29&amp;rft.issn=03624331","ProQuest Historical Newspapers: The New York Times (1851-2009) with Index (1851-1993)"
"State of Things at Port Hudson--Gen. Banks' Strategy--Gens. Weitzel and Grover--The Sanitary Commission, and Medical Care in the Department of the Gulf.","Since the letter I sent you, at a venture, the day before yesterday, nothing whatever has occurred that I should be at liberty to reveal, or that, indeed, can be considered of immediate consequence.",91786634,"Historical Newspapers",," Copyright New York Times Company Jun 13, 1863"," 78704173 , 1446110 , 113715"," front_page"," Jun 13, 1863","0362-4331"," English"," English",1," New York, N.Y.","Jun 13, 1863","New York Times (1857-1922)",1863,"http://search.proquest.com/docview/91786634?accountid=13567",1,"http://openurl.lib.rochester.edu/find?ctx_ver=Z39.88-2004&amp;ctx_enc=info:ofi/enc:UTF-8&amp;rfr_id=info:sid/ProQ%3Ahnpnewyorktimeswindex&amp;rft_val_fmt=info:ofi/fmt:kev:mtx:journal&amp;rft.genre=unknown&amp;rft.jtitle=New+York+Times+%281857-1922%29&amp;rft.atitle=State+of+Things+at+Port+Hudson--Gen.+Banks%27+Strategy--Gens.+Weitzel+and+Grover--The+Sanitary+Commission%2C+and+Medical+Care+in+the+Department+of+the+Gulf.&amp;rft.au=&amp;rft.aulast=&amp;rft.aufirst=&amp;rft.date=1863-06-13&amp;rft.volume=&amp;rft.issue=&amp;rft.spage=1&amp;rft.isbn=&amp;rft.btitle=&amp;rft.title=New+York+Times+%281857-1922%29&amp;rft.issn=03624331","ProQuest Historical Newspapers: The New York Times (1851-2009) with Index (1851-1993)"
"IMPORTANT FROM THE MISSISSIPPI","Two dispatches were received to night from Maj.-Gen. GRANT, addressed to different gentlemen in high official positions.",91767023,"Historical Newspapers",," Copyright New York Times Company Jun 12, 1863"," 78704090 , 1446109 , 113715"," front_page"," Jun 12, 1863","0362-4331"," English"," English",1," New York, N.Y.","Jun 12, 1863","New York Times (1857-1922)",1863,"http://search.proquest.com/docview/91767023?accountid=13567",1,"http://openurl.lib.rochester.edu/find?ctx_ver=Z39.88-2004&amp;ctx_enc=info:ofi/enc:UTF-8&amp;rfr_id=info:sid/ProQ%3Ahnpnewyorktimeswindex&amp;rft_val_fmt=info:ofi/fmt:kev:mtx:journal&amp;rft.genre=unknown&amp;rft.jtitle=New+York+Times+%281857-1922%29&amp;rft.atitle=IMPORTANT+FROM+THE+MISSISSIPPI%3A+OFFICIAL+DISPATCHES+FROM+GEN.+GRANT+TO+THE+8TH+INST.+THE+SIEGE+OF+VICKSBURGH+PROGRESSING+FAVORABLY.JOE+JOHNSTON+RECEIVING+REINFORCEMENTSFROM+BRAGG%27S+ARMY.A+REBEL+ATTACK+ON+MILLIKEN%27SBEND+AND+YOUNG%27S+POINT.+THE+REBELS+DECISIVELY+REPULSEDAT+BOTH+PLACES.NEGRO+TROOPS+AGAIN+IN+ACTIONA+FIGHT+AT+SATARIA%2C+ON+THE+YAZOO%2CTHE+REBELS+UNDER+WIRT+ADAMS+ROUTEDBY+GEN.+KIMBALL.FAVORABLE+ADVICES+FROM+PORT+HUDSON+TO+THE+4TH+INST.THE+LATEST+WASHINGTON+DISPATCHES.+THE+LATEST+CHICAGO+DISPATCHES.+THE+SITUATION+AT+VICKSBURGH.&amp;rft.au=&amp;rft.aulast=&amp;rft.aufirst=&amp;rft.date=1863-06-12&amp;rft.volume=&amp;rft.issue=&amp;rft.spage=1&amp;rft.isbn=&amp;rft.btitle=&amp;rft.title=New+York+Times+%281857-1922%29&amp;rft.issn=03624331","ProQuest Historical Newspapers: The New York Times (1851-2009) with Index (1851-1993)"
"AN OFFICIAL REPORT FROM GEN. BANKS.","Maj.-Gen. H.W. Hallock, General-in-Chief, Washington: GENERAL: Leaving Sommesport on the Atchafalaya, where my command was at the date of my last disptch, I landed at Bayou Sara at 2 o'clock on the morning of the 21st.",91728696,"Historical Newspapers",," Copyright New York Times Company Jun 11, 1863"," 78704083-1 , 1446108 , 113715"," article"," Jun 11, 1863","0362-4331"," English"," English",8," New York, N.Y.","Jun 11, 1863","New York Times (1857-1922)",1863,"http://search.proquest.com/docview/91728696?accountid=13567",8,"http://openurl.lib.rochester.edu/find?ctx_ver=Z39.88-2004&amp;ctx_enc=info:ofi/enc:UTF-8&amp;rfr_id=info:sid/ProQ%3Ahnpnewyorktimeswindex&amp;rft_val_fmt=info:ofi/fmt:kev:mtx:journal&amp;rft.genre=article&amp;rft.jtitle=New+York+Times+%281857-1922%29&amp;rft.atitle=AN+OFFICIAL+REPORT+FROM+GEN.+BANKS.%3A+OPERATIONS+TO+MAY+30+THE+VALOR+OF+THE+NEGRO+TROOPS+INDORSED.&amp;rft.au=&amp;rft.aulast=&amp;rft.aufirst=&amp;rft.date=1863-06-11&amp;rft.volume=&amp;rft.issue=&amp;rft.spage=8&amp;rft.isbn=&amp;rft.btitle=&amp;rft.title=New+York+Times+%281857-1922%29&amp;rft.issn=03624331","ProQuest Historical Newspapers: The New York Times (1851-2009) with Index (1851-1993)"
"THE SIEGE OF PORT HUDSON.","The following entertaining private letter from an officer in Gen. BANKS' army has been handed to us for publication: It contains a rough-and-ready view of affairs, from the time the command broke camp in Western Louisiana until the close of the late battle at Port Hudson.",91716359,"Historical Newspapers",," Copyright New York Times Company Jun 11, 1863"," 78704082-1 , 1446108 , 113715"," article"," Jun 11, 1863","0362-4331"," English"," English",8," New York, N.Y.","Jun 11, 1863","New York Times (1857-1922)",1863,"http://search.proquest.com/docview/91716359?accountid=13567",8,"http://openurl.lib.rochester.edu/find?ctx_ver=Z39.88-2004&amp;ctx_enc=info:ofi/enc:UTF-8&amp;rfr_id=info:sid/ProQ%3Ahnpnewyorktimeswindex&amp;rft_val_fmt=info:ofi/fmt:kev:mtx:journal&amp;rft.genre=article&amp;rft.jtitle=New+York+Times+%281857-1922%29&amp;rft.atitle=THE+SIEGE+OF+PORT+HUDSON.%3A+INTERESTING+LETTER+FROM+AN+OFFICER+IN+GEN.+BANKS%27+ARMY.+THE+MOVEMENT+UP+THE+ATCHAFALAYA+AND+DOWN+THE+RED+RIVER+TO+BAYOU+SARA.+PARTICULARS+OF+THE+ASSAULT+AND+REPULSE.&amp;rft.au=&amp;rft.aulast=&amp;rft.aufirst=&amp;rft.date=1863-06-11&amp;rft.volume=&amp;rft.issue=&amp;rft.spage=8&amp;rft.isbn=&amp;rft.btitle=&amp;rft.title=New+York+Times+%281857-1922%29&amp;rft.issn=03624331","ProQuest Historical Newspapers: The New York Times (1851-2009) with Index (1851-1993)"
"THE SIEGE OF PORT HUDSON.","Gen. BANKS, in an official report, dated before Port Hudson, May 30, gives an account of the attack on that place, similar to the reports already published. In speaking of the negro troops, he says:",91794328,"Historical Newspapers",," Copyright New York Times Company Jun 10, 1863"," 78703934 , 1446107 , 113715"," front_page"," Jun 10, 1863","0362-4331"," English"," English",1," New York, N.Y.","Jun 10, 1863","New York Times (1857-1922)",1863,"http://search.proquest.com/docview/91794328?accountid=13567",1,"http://openurl.lib.rochester.edu/find?ctx_ver=Z39.88-2004&amp;ctx_enc=info:ofi/enc:UTF-8&amp;rfr_id=info:sid/ProQ%3Ahnpnewyorktimeswindex&amp;rft_val_fmt=info:ofi/fmt:kev:mtx:journal&amp;rft.genre=unknown&amp;rft.jtitle=New+York+Times+%281857-1922%29&amp;rft.atitle=THE+SIEGE+OF+PORT+HUDSON.%3A+AN+OFFICIAL+REPORT+FROM+GENERAL+BANKS.+EFFECTIVENESS+OF+THE+NEGRO+TROOPS.+OUR+LOSSES+IN+KILLED%2C+WOUNDED+AND+MISSING+ABOUT+ONE+THOUSAND.&amp;rft.au=&amp;rft.aulast=&amp;rft.aufirst=&amp;rft.date=1863-06-10&amp;rft.volume=&amp;rft.issue=&amp;rft.spage=1&amp;rft.isbn=&amp;rft.btitle=&amp;rft.title=New+York+Times+%281857-1922%29&amp;rft.issn=03624331","ProQuest Historical Newspapers: The New York Times (1851-2009) with Index (1851-1993)"
"OUR PORT HUDSON CORRESPONDENCE.","I take a stray opportunity things that don't occur often at this distance and with such heavy work on hand to send you a few lines by a mail going to Baton Rouge.",91787107,"Historical Newspapers",," Copyright New York Times Company Jun 9, 1863"," 78703853 , 1446106 , 113715"," front_page"," Jun 9, 1863","0362-4331"," English"," English",1," New York, N.Y.","Jun 9, 1863","New York Times (1857-1922)",1863,"http://search.proquest.com/docview/91787107?accountid=13567",1,"http://openurl.lib.rochester.edu/find?ctx_ver=Z39.88-2004&amp;ctx_enc=info:ofi/enc:UTF-8&amp;rfr_id=info:sid/ProQ%3Ahnpnewyorktimeswindex&amp;rft_val_fmt=info:ofi/fmt:kev:mtx:journal&amp;rft.genre=unknown&amp;rft.jtitle=New+York+Times+%281857-1922%29&amp;rft.atitle=OUR+PORT+HUDSON+CORRESPONDENCE.%3A+BAYOU+SARA--SEIZURE+OF+A+REBEL+TELEGRAPH+OFFICE--VISIT+TO+GEN.+PAINE%27S+HEADQUARTERS--A+TRIP+OF+INSPECTION+WITH+GEN.+BANKS--GENS.+GROVER%2C+AUGUR+AND+SHERMAN--DEATH+OF+MAJ.+A.+HAFFKILLS+THE+STRUGGLE+BEGUN--GEN.+AUGUR%27S+HEADQUARTERS--THE+BRILLIANT+BATTLE+OF+PLAIN+STORE.&amp;rft.au=&amp;rft.aulast=&amp;rft.aufirst=&amp;rft.date=1863-06-09&amp;rft.volume=&amp;rft.issue=&amp;rft.spage=1&amp;rft.isbn=&amp;rft.btitle=&amp;rft.title=New+York+Times+%281857-1922%29&amp;rft.issn=03624331","ProQuest Historical Newspapers: The New York Times (1851-2009) with Index (1851-1993)"
"IMPORTANT FROM NEW-ORLEANS.","To the Editor of The Era: A severe battle was fought here yesterday by the forces under Maj-General BANKS and the rebel garrison in Port Hudson.",91803433,"Historical Newspapers",," Copyright New York Times Company Jun 9, 1863"," 78703852-1 , 1446106 , 113715"," front_page"," Jun 9, 1863","0362-4331"," English"," English",1," New York, N.Y.","Jun 9, 1863","New York Times (1857-1922)",1863,"http://search.proquest.com/docview/91803433?accountid=13567",1,"http://openurl.lib.rochester.edu/find?ctx_ver=Z39.88-2004&amp;ctx_enc=info:ofi/enc:UTF-8&amp;rfr_id=info:sid/ProQ%3Ahnpnewyorktimeswindex&amp;rft_val_fmt=info:ofi/fmt:kev:mtx:journal&amp;rft.genre=unknown&amp;rft.jtitle=New+York+Times+%281857-1922%29&amp;rft.atitle=IMPORTANT+FROM+NEW-ORLEANS.%3A+ARRIVAL+OF+THE+CONTINENTAL.+NO+FURTHER+ASSAULTS+MADE+AT+PORT+HUDSON.+THE+REBEL+GARRISON+TO+BE+STARVED+OUT.+THE+BOMBARDMENT+STEADILY+PROGRESSING.+A+PROPOSITION+FROM+THE+REBEL+COMMANDER+TO+SURRENDER+ON+CONDITIONS.+GENERAL+BANKS+WANTS+AN+UNCONDITIONAL+SURRENDER.+THE+REPORTS+OF+LOSSES+IN+THE+BATTLES+OF+THE+27TH+MUCH+EXAGGERATED.&amp;rft.au=&amp;rft.aulast=&amp;rft.aufirst=&amp;rft.date=1863-06-09&amp;rft.volume=&amp;rft.issue=&amp;rft.spage=1&amp;rft.isbn=&amp;rft.btitle=&amp;rft.title=New+York+Times+%281857-1922%29&amp;rft.issn=03624331","ProQuest Historical Newspapers: The New York Times (1851-2009) with Index (1851-1993)"
"THE SIEGE OF VICKSBURG.","A special dispatch from Walnut Hills, (near Vicksburgh,) dated June 2, says:",91783950,"Historical Newspapers",," Copyright New York Times Company Jun 9, 1863"," 78703857 , 1446106 , 113715"," front_page"," Jun 9, 1863","0362-4331"," English"," English",1," New York, N.Y.","Jun 9, 1863","New York Times (1857-1922)",1863,"http://search.proquest.com/docview/91783950?accountid=13567",1,"http://openurl.lib.rochester.edu/find?ctx_ver=Z39.88-2004&amp;ctx_enc=info:ofi/enc:UTF-8&amp;rfr_id=info:sid/ProQ%3Ahnpnewyorktimeswindex&amp;rft_val_fmt=info:ofi/fmt:kev:mtx:journal&amp;rft.genre=unknown&amp;rft.jtitle=New+York+Times+%281857-1922%29&amp;rft.atitle=THE+SIEGE+OF+VICKSBURG.%3A+RETURN+OF+GEN.+BLAIR%27S+EXPEDITION+FROM+UP+THE+YAZOO.+A+GREAT+EXTENT+OF+COUNTRY+GONE+OVER.+BRIDGES%2C+GRIST+MILLS+AND+COTTON+GINS+DESTROYED.+A+LARGE+NUMBER+OF+CONTRABANDS+BROUGHT+AWAY.+NO+REBELS+DISCOVERED+IN+FORCE.+JOE+JOHNSTON+REPORTED+AT+THE+BLACK+RIVER+BRIDGE.+HIS+FORCE+ESTIMATED+AT+EIGHTEEN+THOUSAND+MEN.+THE+LATEST+CHICAGO+DISPATCHES.+THE+LATEST+CINCINNATI+DISPATCHES.+LATEST+FROM+CAIRO+AND+BELOW.&amp;rft.au=&amp;rft.aulast=&amp;rft.aufirst=&amp;rft.date=1863-06-09&amp;rft.volume=&amp;rft.issue=&amp;rft.spage=1&amp;rft.isbn=&amp;rft.btitle=&amp;rft.title=New+York+Times+%281857-1922%29&amp;rft.issn=03624331","ProQuest Historical Newspapers: The New York Times (1851-2009) with Index (1851-1993)"
"OUR NEW-ORLEANS CORRESPONDENCE.",,91794857,"Historical Newspapers",," Copyright New York Times Company Jun 9, 1863"," 78703854 , 1446106 , 113715"," front_page"," Jun 9, 1863","0362-4331"," English"," English",1," New York, N.Y.","Jun 9, 1863","New York Times (1857-1922)",1863,"http://search.proquest.com/docview/91794857?accountid=13567",1,"http://openurl.lib.rochester.edu/find?ctx_ver=Z39.88-2004&amp;ctx_enc=info:ofi/enc:UTF-8&amp;rfr_id=info:sid/ProQ%3Ahnpnewyorktimeswindex&amp;rft_val_fmt=info:ofi/fmt:kev:mtx:journal&amp;rft.genre=unknown&amp;rft.jtitle=New+York+Times+%281857-1922%29&amp;rft.atitle=OUR+NEW-ORLEANS+CORRESPONDENCE.%3A+NO+ENGAGEMENT+AT+PORT+HUDSON+SINCE+THE+27TH+THE+REBELS+TO+BE+STARVED+OUT+A+PROPOSITION+TO+SURRENDER+ON+CONDITIONS+INSTANCES+OF+BRAVERY+IN+THE+LATE+FIGHT%2C+%26C.+AN+IMMENSE+TRAIN+OF+NEGROES.&amp;rft.au=&amp;rft.aulast=&amp;rft.aufirst=&amp;rft.date=1863-06-09&amp;rft.volume=&amp;rft.issue=&amp;rft.spage=1&amp;rft.isbn=&amp;rft.btitle=&amp;rft.title=New+York+Times+%281857-1922%29&amp;rft.issn=03624331","ProQuest Historical Newspapers: The New York Times (1851-2009) with Index (1851-1993)"
"VERY LATE REBEL NEWS.",,91764925,"Historical Newspapers",," Copyright New York Times Company Jun 7, 1863"," 79956180 , 1456194 , 113715"," front_page"," Jun 7, 1863","0362-4331"," English"," English",1," New York, N.Y.","Jun 7, 1863","New York Times (1857-1922)",1863,"http://search.proquest.com/docview/91764925?accountid=13567",1,"http://openurl.lib.rochester.edu/find?ctx_ver=Z39.88-2004&amp;ctx_enc=info:ofi/enc:UTF-8&amp;rfr_id=info:sid/ProQ%3Ahnpnewyorktimeswindex&amp;rft_val_fmt=info:ofi/fmt:kev:mtx:journal&amp;rft.genre=unknown&amp;rft.jtitle=New+York+Times+%281857-1922%29&amp;rft.atitle=VERY+LATE+REBEL+NEWS.%3A+REPORTS+FROM+VICKSBURGH+AND+PORT+HUDSON.+HEAVY+FIRING+HEARD+AT+VICKSBURGH+ON+THE+4TH.+KIRBY+SMITH+SAID+TO+HAVE+REINFORCED+THE+PORT+HUDSON+GARRISON.+THE+TOWN+OF+BLUFFTON%2C+S.C.%2C+BURNT+BY+OUR+FORCES.+IMPORTANT+FROM+SOUTH+CAROLINA.+REPORTS+FROM+MOBILE.+REBEL+VIEWS+OF+THE+SITUATION+FERNANDO+WOOD+ON+HIS+RETURN+FROM+WASHINGTON.+SAILING+OF+THE+GREAT+EASTERN%2C&amp;rft.au=&amp;rft.aulast=&amp;rft.aufirst=&amp;rft.date=1863-06-07&amp;rft.volume=&amp;rft.issue=&amp;rft.spage=1&amp;rft.isbn=&amp;rft.btitle=&amp;rft.title=New+York+Times+%281857-1922%29&amp;rft.issn=03624331","ProQuest Historical Newspapers: The New York Times (1851-2009) with Index (1851-1993)"
"THE SIEGE OF PORT HUDSON.","Letters received by the Morning Star, from New-Orleans, give important particulars of the battle at Port Hudson on May 27, which we briefly announced in our morning edition of yesterday. Our line of investment was as follows: The extreme right was commanded by Gen. WEITZEL, with his own and the division of Gen. EMORY; the right centre by Gen. GROVER; the left centre by Gen. AUGUR, and the extreme left by Gen. T.W. SHERMAN the artillery brigade being under command of Gen. ARNOLD.",91775005,"Historical Newspapers",," Copyright New York Times Company Jun 7, 1863"," 79956166 , 1456194 , 113715"," front_page"," Jun 7, 1863","0362-4331"," English"," English",1," New York, N.Y.","Jun 7, 1863","New York Times (1857-1922)",1863,"http://search.proquest.com/docview/91775005?accountid=13567",1,"http://openurl.lib.rochester.edu/find?ctx_ver=Z39.88-2004&amp;ctx_enc=info:ofi/enc:UTF-8&amp;rfr_id=info:sid/ProQ%3Ahnpnewyorktimeswindex&amp;rft_val_fmt=info:ofi/fmt:kev:mtx:journal&amp;rft.genre=unknown&amp;rft.jtitle=New+York+Times+%281857-1922%29&amp;rft.atitle=THE+SIEGE+OF+PORT+HUDSON.%3A+DESPERATE+FIGHTING+ON+MAY+27.+GEN.+WEITZEL+CARRIES+A+BATTERY+AT+THE+POINT+OF+THE+BAYONET.+A+PORTION+OF+THE+REBEL+DEFENCES+IN+OUR+POSSESSION.+THE+LEFT+OF+OUR+LINE+REPULSED.+THE+FIGHTING+STILL+IN+PROGRESS+AT+LAST+ACCOUNTS.+PROMINENT+OFFICERS+KILLED+AND+WOUNDED.&amp;rft.au=&amp;rft.aulast=&amp;rft.aufirst=&amp;rft.date=1863-06-07&amp;rft.volume=&amp;rft.issue=&amp;rft.spage=1&amp;rft.isbn=&amp;rft.btitle=&amp;rft.title=New+York+Times+%281857-1922%29&amp;rft.issn=03624331","ProQuest Historical Newspapers: The New York Times (1851-2009) with Index (1851-1993)"
"NEWS FROM WASHINGTON.","Telegrams were received to-night from Richmond papers of to-day. Those who have read them say the rebels are exulting in what they allege to be great losses on the part of GRANT'S army. The papers, for several days past, have been continually increasing the number, evidently depending upon fancy rather than facts.",91780070,"Historical Newspapers",," Copyright New York Times Company Jun 7, 1863"," 79956173 , 1456194 , 113715"," front_page"," Jun 7, 1863","0362-4331"," English"," English",1," New York, N.Y.","Jun 7, 1863","New York Times (1857-1922)",1863,"http://search.proquest.com/docview/91780070?accountid=13567",1,"http://openurl.lib.rochester.edu/find?ctx_ver=Z39.88-2004&amp;ctx_enc=info:ofi/enc:UTF-8&amp;rfr_id=info:sid/ProQ%3Ahnpnewyorktimeswindex&amp;rft_val_fmt=info:ofi/fmt:kev:mtx:journal&amp;rft.genre=unknown&amp;rft.jtitle=New+York+Times+%281857-1922%29&amp;rft.atitle=NEWS+FROM+WASHINGTON.%3A+THE+NEWS+IN+THE+RICHMOND+PAPERS.&amp;rft.au=&amp;rft.aulast=&amp;rft.aufirst=&amp;rft.date=1863-06-07&amp;rft.volume=&amp;rft.issue=&amp;rft.spage=1&amp;rft.isbn=&amp;rft.btitle=&amp;rft.title=New+York+Times+%281857-1922%29&amp;rft.issn=03624331","ProQuest Historical Newspapers: The New York Times (1851-2009) with Index (1851-1993)"
"COL. COWLES.",,91774904,"Historical Newspapers",," Copyright New York Times Company Jun 7, 1863"," 79956168 , 1456194 , 113715"," front_page"," Jun 7, 1863","0362-4331"," English"," English",1," New York, N.Y.","Jun 7, 1863","New York Times (1857-1922)",1863,"http://search.proquest.com/docview/91774904?accountid=13567",1,"http://openurl.lib.rochester.edu/find?ctx_ver=Z39.88-2004&amp;ctx_enc=info:ofi/enc:UTF-8&amp;rfr_id=info:sid/ProQ%3Ahnpnewyorktimeswindex&amp;rft_val_fmt=info:ofi/fmt:kev:mtx:journal&amp;rft.genre=unknown&amp;rft.jtitle=New+York+Times+%281857-1922%29&amp;rft.atitle=COL.+COWLES.%3A+LIEUT.+COL.+SMITH.+PORT+HUDSON.&amp;rft.au=&amp;rft.aulast=&amp;rft.aufirst=&amp;rft.date=1863-06-07&amp;rft.volume=&amp;rft.issue=&amp;rft.spage=1&amp;rft.isbn=&amp;rft.btitle=&amp;rft.title=New+York+Times+%281857-1922%29&amp;rft.issn=03624331","ProQuest Historical Newspapers: The New York Times (1851-2009) with Index (1851-1993)"
"OPERATION IN THE SOUTHWEST.",,91827257,"Historical Newspapers",," Copyright New York Times Company Jun 7, 1863"," 79956185-1 , 1456194 , 113715"," article"," Jun 7, 1863","0362-4331"," English"," English",2," New York, N.Y.","Jun 7, 1863","New York Times (1857-1922)",1863,"http://search.proquest.com/docview/91827257?accountid=13567",2,"http://openurl.lib.rochester.edu/find?ctx_ver=Z39.88-2004&amp;ctx_enc=info:ofi/enc:UTF-8&amp;rfr_id=info:sid/ProQ%3Ahnpnewyorktimeswindex&amp;rft_val_fmt=info:ofi/fmt:kev:mtx:journal&amp;rft.genre=article&amp;rft.jtitle=New+York+Times+%281857-1922%29&amp;rft.atitle=OPERATION+IN+THE+SOUTHWEST.%3A+DEPARTMENT+OF+THE+GULF.&amp;rft.au=&amp;rft.aulast=&amp;rft.aufirst=&amp;rft.date=1863-06-07&amp;rft.volume=&amp;rft.issue=&amp;rft.spage=2&amp;rft.isbn=&amp;rft.btitle=&amp;rft.title=New+York+Times+%281857-1922%29&amp;rft.issn=03624331","ProQuest Historical Newspapers: The New York Times (1851-2009) with Index (1851-1993)"
"THE AMITE VALLEY EXPEDITION.","I have just returned from the valley of the Amite, and as I leave on the morrow to witness the attack of our forces upon Port Hudson, I must take time from sleep to give your readers an account of what I have witnessed during the past two weeks.",91779825,"Historical Newspapers",," Copyright New York Times Company Jun 7, 1863"," 79956187-1 , 1456194 , 113715"," article"," Jun 7, 1863","0362-4331"," English"," English",2," New York, N.Y.","Jun 7, 1863","New York Times (1857-1922)",1863,"http://search.proquest.com/docview/91779825?accountid=13567",2,"http://openurl.lib.rochester.edu/find?ctx_ver=Z39.88-2004&amp;ctx_enc=info:ofi/enc:UTF-8&amp;rfr_id=info:sid/ProQ%3Ahnpnewyorktimeswindex&amp;rft_val_fmt=info:ofi/fmt:kev:mtx:journal&amp;rft.genre=article&amp;rft.jtitle=New+York+Times+%281857-1922%29&amp;rft.atitle=THE+AMITE+VALLEY+EXPEDITION.%3A+CLEANING+OUT+GUERRILLAS+CUTTING+OFF+SUPPLIES+FOR+PORT+HUDSON+SEIZURE+OF+REBELSTORES+INTERESTING+DETAILS+OF+A+WEEK%27S+OPERATIONS+IN+SECESSIA.&amp;rft.au=&amp;rft.aulast=&amp;rft.aufirst=&amp;rft.date=1863-06-07&amp;rft.volume=&amp;rft.issue=&amp;rft.spage=2&amp;rft.isbn=&amp;rft.btitle=&amp;rft.title=New+York+Times+%281857-1922%29&amp;rft.issn=03624331","ProQuest Historical Newspapers: The New York Times (1851-2009) with Index (1851-1993)"
"IMPORTANT FROM NEW-ORLEANS.","The steamer Morning Star. A.D. PERKINS, Commander, left New-Orleans at 8 A.M. on the 29th ult., and arrived off Havana at 6 P.M. on the 31st inst. Left Havana June 1, at 3 P.M., and arrived at this Port at an early hour this morning, haying encountered heavy weather off Hatteras.",91795268,"Historical Newspapers",," Copyright New York Times Company Jun 6, 1863"," 78703706 , 1446104 , 113715"," front_page"," Jun 6, 1863","0362-4331"," English"," English",1," New York, N.Y.","Jun 6, 1863","New York Times (1857-1922)",1863,"http://search.proquest.com/docview/91795268?accountid=13567",1,"http://openurl.lib.rochester.edu/find?ctx_ver=Z39.88-2004&amp;ctx_enc=info:ofi/enc:UTF-8&amp;rfr_id=info:sid/ProQ%3Ahnpnewyorktimeswindex&amp;rft_val_fmt=info:ofi/fmt:kev:mtx:journal&amp;rft.genre=unknown&amp;rft.jtitle=New+York+Times+%281857-1922%29&amp;rft.atitle=IMPORTANT+FROM+NEW-ORLEANS.%3A+A+DAY+LATER+BY+THE+MORNING+STAR.+SEVERE+FIGHTING+AT+PORT+HUDSON.+A+PORTION+OF+THE+WORKS+IN+OUR+POSSESSION+GEN.+SHERMAN+SEVERELY+WOUNDED.+DISTINGUISHED+BRAVERY+OF+A+LOUISIANA+COLORED+REGIMENT+RETURNING+REGIMENTS.+THE+THIRTY-SEVENTH+AND+THIRTY-EIGHTH+NEWYORK+VOLUNTEERS.+ARRIVALS+IN+THE+CITY.+PROGRESS+OF+THE+ENROLLMENT.&amp;rft.au=&amp;rft.aulast=&amp;rft.aufirst=&amp;rft.date=1863-06-06&amp;rft.volume=&amp;rft.issue=&amp;rft.spage=1&amp;rft.isbn=&amp;rft.btitle=&amp;rft.title=New+York+Times+%281857-1922%29&amp;rft.issn=03624331","ProQuest Historical Newspapers: The New York Times (1851-2009) with Index (1851-1993)"
"BANKS' ADVANCE UPON PORT HUDSON.","We left New-Orleans on the Morning of Tuesday, 19th, for Brashear City, and being joined by Gen. BANKS and Staff at the latter place, the same evening, on board the St. Maurice, Capt. BROWN, started early the next morning (the 20th), for Simmesport, where we have just arrived.",91770439,"Historical Newspapers",," Copyright New York Times Company Jun 4, 1863"," 90118706 , 1523104 , 113715"," front_page"," Jun 4, 1863","0362-4331"," English"," English",1," New York, N.Y.","Jun 4, 1863","New York Times (1857-1922)",1863,"http://search.proquest.com/docview/91770439?accountid=13567",1,"http://openurl.lib.rochester.edu/find?ctx_ver=Z39.88-2004&amp;ctx_enc=info:ofi/enc:UTF-8&amp;rfr_id=info:sid/ProQ%3Ahnpnewyorktimeswindex&amp;rft_val_fmt=info:ofi/fmt:kev:mtx:journal&amp;rft.genre=unknown&amp;rft.jtitle=New+York+Times+%281857-1922%29&amp;rft.atitle=BANKS%27+ADVANCE+UPON+PORT+HUDSON.%3A+ARRIVAL+AT+SIMMESPORT%2C+ON+THE+ATCHAFALAYA--+CONDITION+OF+BRASHEAR+CITY--GEN.+BANKS+DOWN+ON+SPECULATORS--BAYOU+NAVIGATION+--HAUL+OF+CONTRABANDS--BREAKDOWN+OF+SLAVERY--GRAND+MOVEMENT+AHEAD.&amp;rft.au=&amp;rft.aulast=&amp;rft.aufirst=&amp;rft.date=1863-06-04&amp;rft.volume=&amp;rft.issue=&amp;rft.spage=1&amp;rft.isbn=&amp;rft.btitle=&amp;rft.title=New+York+Times+%281857-1922%29&amp;rft.issn=03624331","ProQuest Historical Newspapers: The New York Times (1851-2009) with Index (1851-1993)"
"FROM NEW-ORLEANS.","The steamship Columbia, Capt. BARTON, from New-Orleans, May 28, and steamship George Cromwell, Capt. POST, May 27, arrived yesterday morning.",91780404,"Historical Newspapers",," Copyright New York Times Company Jun 4, 1863"," 90118700 , 1523104 , 113715"," front_page"," Jun 4, 1863","0362-4331"," English"," English",1," New York, N.Y.","Jun 4, 1863","New York Times (1857-1922)",1863,"http://search.proquest.com/docview/91780404?accountid=13567",1,"http://openurl.lib.rochester.edu/find?ctx_ver=Z39.88-2004&amp;ctx_enc=info:ofi/enc:UTF-8&amp;rfr_id=info:sid/ProQ%3Ahnpnewyorktimeswindex&amp;rft_val_fmt=info:ofi/fmt:kev:mtx:journal&amp;rft.genre=unknown&amp;rft.jtitle=New+York+Times+%281857-1922%29&amp;rft.atitle=FROM+NEW-ORLEANS.%3A+ARRIVAL+OF+THE+COLUMBIA+AND+GEO.+CROMWELL.+LATER+NEWS+FROM+PORT+HUDSON.+JUNCTION+OF+GENS.+BANKS%27+AND+AUGUR%27S+FORCES.+THE+STRONGHOLD+INVESTED+THE+MORTAR+FLEET+AT+WORK.+REBEL+SUPPLIES+CUT+OFF.&amp;rft.au=&amp;rft.aulast=&amp;rft.aufirst=&amp;rft.date=1863-06-04&amp;rft.volume=&amp;rft.issue=&amp;rft.spage=1&amp;rft.isbn=&amp;rft.btitle=&amp;rft.title=New+York+Times+%281857-1922%29&amp;rft.issn=03624331","ProQuest Historical Newspapers: The New York Times (1851-2009) with Index (1851-1993)"
"Arrival at Bayou Sara--Glorious News from Grant and Dudley--An Important Augury --Port Hudson Doomed and the Mississippi Opened--Guerrillas at Work.","I have just arrived here from Simmesport, and find everything in the highest state of glee and excitement. Events crowd so thickly upon each other that it is really difficult to keep the ""run"" of them.",91757244,"Historical Newspapers",," Copyright New York Times Company Jun 4, 1863"," 90118709 , 1523104 , 113715"," article"," Jun 4, 1863","0362-4331"," English"," English",2," New York, N.Y.","Jun 4, 1863","New York Times (1857-1922)",1863,"http://search.proquest.com/docview/91757244?accountid=13567",2,"http://openurl.lib.rochester.edu/find?ctx_ver=Z39.88-2004&amp;ctx_enc=info:ofi/enc:UTF-8&amp;rfr_id=info:sid/ProQ%3Ahnpnewyorktimeswindex&amp;rft_val_fmt=info:ofi/fmt:kev:mtx:journal&amp;rft.genre=article&amp;rft.jtitle=New+York+Times+%281857-1922%29&amp;rft.atitle=Arrival+at+Bayou+Sara--Glorious+News+from+Grant+and+Dudley--An+Important+Augury+--Port+Hudson+Doomed+and+the+Mississippi+Opened--Guerrillas+at+Work.%3A+LIST+OF+KILLED+AND+WOUNDED+A+CARD+FROM+GEN.+ULLMAN.&amp;rft.au=&amp;rft.aulast=&amp;rft.aufirst=&amp;rft.date=1863-06-04&amp;rft.volume=&amp;rft.issue=&amp;rft.spage=2&amp;rft.isbn=&amp;rft.btitle=&amp;rft.title=New+York+Times+%281857-1922%29&amp;rft.issn=03624331","ProQuest Historical Newspapers: The New York Times (1851-2009) with Index (1851-1993)"
"REBEL REPORTS FROM THE MISSISSIPPI.","""The telegraphic news of yesterday announced that BANKS had crossed his army at Bayou Sara. This is about ten miles above Port Hudson. His object is to get behind the post and carry it by a land attack. This movement is designed to finish the work started by GRANT, and clear the Mississippi. A few days will tell the story. The next news will probably be of an assault upon Port Hudson.""",91743089,"Historical Newspapers",," Copyright New York Times Company Jun 3, 1863"," 78703631 , 1446103 , 113715"," front_page"," Jun 3, 1863","0362-4331"," English"," English",1," New York, N.Y.","Jun 3, 1863","New York Times (1857-1922)",1863,"http://search.proquest.com/docview/91743089?accountid=13567",1,"http://openurl.lib.rochester.edu/find?ctx_ver=Z39.88-2004&amp;ctx_enc=info:ofi/enc:UTF-8&amp;rfr_id=info:sid/ProQ%3Ahnpnewyorktimeswindex&amp;rft_val_fmt=info:ofi/fmt:kev:mtx:journal&amp;rft.genre=unknown&amp;rft.jtitle=New+York+Times+%281857-1922%29&amp;rft.atitle=REBEL+REPORTS+FROM+THE+MISSISSIPPI.%3A+GEN.+BANKS+PREPARING+FOR+AN+ATTACK+UPON+PORT+HUDSON+DESPAIRING+OF+VICKSBURGH.&amp;rft.au=&amp;rft.aulast=&amp;rft.aufirst=&amp;rft.date=1863-06-03&amp;rft.volume=&amp;rft.issue=&amp;rft.spage=1&amp;rft.isbn=&amp;rft.btitle=&amp;rft.title=New+York+Times+%281857-1922%29&amp;rft.issn=03624331","ProQuest Historical Newspapers: The New York Times (1851-2009) with Index (1851-1993)"
"FROM NEW-ORLEANS.","The steamship Creole, COUCH, from New-Orleans May 24, via Havana 28th, with merchandise and passengers to LUDLAM, HEINEKEN &amp; Co., arrived yesterday. She experienced in the Gulf a heavy southeast gale of sixty hours' duration, and has had heavy southeast winds, with squalls of rain, since leaving Havana.",91763621,"Historical Newspapers",," Copyright New York Times Company Jun 3, 1863"," 78703624-1 , 1446103 , 113715"," front_page"," Jun 3, 1863","0362-4331"," English"," English",1," New York, N.Y.","Jun 3, 1863","New York Times (1857-1922)",1863,"http://search.proquest.com/docview/91763621?accountid=13567",1,"http://openurl.lib.rochester.edu/find?ctx_ver=Z39.88-2004&amp;ctx_enc=info:ofi/enc:UTF-8&amp;rfr_id=info:sid/ProQ%3Ahnpnewyorktimeswindex&amp;rft_val_fmt=info:ofi/fmt:kev:mtx:journal&amp;rft.genre=unknown&amp;rft.jtitle=New+York+Times+%281857-1922%29&amp;rft.atitle=FROM+NEW-ORLEANS.%3A+ADVICES+TO+MAY+24TH+BY+THE+CREOLE.+COMMENCEMENT+OF+THE+SIEGE+OF+PORT+HUDSON.+PRELIMINARY+FIGHTING.+THE+REBELS+DEFEATED+BY+GEN.+AUGUR+AND+DRIVEN+WITHIN+THEIR+INTRENCHMENTS.+A+SUCCESSFUL+EXPEDITION+FROM+PASS+MANCHAC.+COL.+GRIERSON+AT+WORK+AGAIN.+EXTENSIVE+DESTRUCTION+OF+BRIDGES%2C+STATIONS%2C+%26C.%2C+ON+THE+JACKSON+RAILROAD.&amp;rft.au=&amp;rft.aulast=&amp;rft.aufirst=&amp;rft.date=1863-06-03&amp;rft.volume=&amp;rft.issue=&amp;rft.spage=1&amp;rft.isbn=&amp;rft.btitle=&amp;rft.title=New+York+Times+%281857-1922%29&amp;rft.issn=03624331","ProQuest Historical Newspapers: The New York Times (1851-2009) with Index (1851-1993)"
"THE SIEGE OF PORT HUDSON.","A letter to the Era, dated at Baton Rouge, May 14, details a reconnoissance in the rear of Port Hudson, made by Gen. DUPLEY. On the morning of May 12, the column started in the following order.",91774376,"Historical Newspapers",," Copyright New York Times Company Jun 3, 1863"," 78703625 , 1446103 , 113715"," front_page"," Jun 3, 1863","0362-4331"," English"," English",1," New York, N.Y.","Jun 3, 1863","New York Times (1857-1922)",1863,"http://search.proquest.com/docview/91774376?accountid=13567",1,"http://openurl.lib.rochester.edu/find?ctx_ver=Z39.88-2004&amp;ctx_enc=info:ofi/enc:UTF-8&amp;rfr_id=info:sid/ProQ%3Ahnpnewyorktimeswindex&amp;rft_val_fmt=info:ofi/fmt:kev:mtx:journal&amp;rft.genre=unknown&amp;rft.jtitle=New+York+Times+%281857-1922%29&amp;rft.atitle=THE+SIEGE+OF+PORT+HUDSON.%3A+AN+IMPORTANT+RECONNOISSANCE+COL.+GRIERSON+AGAIN+AT+WORK.+ARREST+OF+THE+REBEL+GOVERNOR+OF+LOUISIANA.&amp;rft.au=&amp;rft.aulast=&amp;rft.aufirst=&amp;rft.date=1863-06-03&amp;rft.volume=&amp;rft.issue=&amp;rft.spage=1&amp;rft.isbn=&amp;rft.btitle=&amp;rft.title=New+York+Times+%281857-1922%29&amp;rft.issn=03624331","ProQuest Historical Newspapers: The New York Times (1851-2009) with Index (1851-1993)"
"DETAILED NEWSPAPER ACCOUNTS.",,91778968,"Historical Newspapers",," Copyright New York Times Company May 31, 1863"," 90552053-1 , 1524474 , 113715"," front_page"," May 31, 1863","0362-4331"," English"," English",1," New York, N.Y.","May 31, 1863","New York Times (1857-1922)",1863,"http://search.proquest.com/docview/91778968?accountid=13567",1,"http://openurl.lib.rochester.edu/find?ctx_ver=Z39.88-2004&amp;ctx_enc=info:ofi/enc:UTF-8&amp;rfr_id=info:sid/ProQ%3Ahnpnewyorktimeswindex&amp;rft_val_fmt=info:ofi/fmt:kev:mtx:journal&amp;rft.genre=unknown&amp;rft.jtitle=New+York+Times+%281857-1922%29&amp;rft.atitle=DETAILED+NEWSPAPER+ACCOUNTS.%3A+THE+BATTLE+AT+EDWARD%27S+STATION.+THE+BATTLE+OF+THE+BIG+BLACK.+THE+SITUATION+AT+VICKSBURGH.+THE+INVESTMENT+OF%2C+AND+SUBSEQUENT+EVENTS+AT+VICKSBURGH.+REPORTS+FROM+CAIRO.&amp;rft.au=&amp;rft.aulast=&amp;rft.aufirst=&amp;rft.date=1863-05-31&amp;rft.volume=&amp;rft.issue=&amp;rft.spage=1&amp;rft.isbn=&amp;rft.btitle=&amp;rft.title=New+York+Times+%281857-1922%29&amp;rft.issn=03624331","ProQuest Historical Newspapers: The New York Times (1851-2009) with Index (1851-1993)"
"OFFICIAL DISPATCH FROM ADMIRAL PORTER.",,91779427,"Historical Newspapers",," Copyright New York Times Company May 26, 1863"," 78703000 , 1446097 , 113715"," front_page"," May 26, 1863","0362-4331"," English"," English",1," New York, N.Y.","May 26, 1863","New York Times (1857-1922)",1863,"http://search.proquest.com/docview/91779427?accountid=13567",1,"http://openurl.lib.rochester.edu/find?ctx_ver=Z39.88-2004&amp;ctx_enc=info:ofi/enc:UTF-8&amp;rfr_id=info:sid/ProQ%3Ahnpnewyorktimeswindex&amp;rft_val_fmt=info:ofi/fmt:kev:mtx:journal&amp;rft.genre=unknown&amp;rft.jtitle=New+York+Times+%281857-1922%29&amp;rft.atitle=OFFICIAL+DISPATCH+FROM+ADMIRAL+PORTER.&amp;rft.au=&amp;rft.aulast=&amp;rft.aufirst=&amp;rft.date=1863-05-26&amp;rft.volume=&amp;rft.issue=&amp;rft.spage=1&amp;rft.isbn=&amp;rft.btitle=&amp;rft.title=New+York+Times+%281857-1922%29&amp;rft.issn=03624331","ProQuest Historical Newspapers: The New York Times (1851-2009) with Index (1851-1993)"
"LATE FROM THE RED RIVER.","Gen. BANKS still holds his headquarters here; the troops moving toward the enemy up river, and affairs looking well. The people who have remained have enjoyed perfect protection, and express their surprise at the treatment they have received.",91718835,"Historical Newspapers",," Copyright New York Times Company May 26, 1863"," 78703009 , 1446097 , 113715"," front_page"," May 26, 1863","0362-4331"," English"," English",1," New York, N.Y.","May 26, 1863","New York Times (1857-1922)",1863,"http://search.proquest.com/docview/91718835?accountid=13567",1,"http://openurl.lib.rochester.edu/find?ctx_ver=Z39.88-2004&amp;ctx_enc=info:ofi/enc:UTF-8&amp;rfr_id=info:sid/ProQ%3Ahnpnewyorktimeswindex&amp;rft_val_fmt=info:ofi/fmt:kev:mtx:journal&amp;rft.genre=unknown&amp;rft.jtitle=New+York+Times+%281857-1922%29&amp;rft.atitle=LATE+FROM+THE+RED+RIVER.%3A+GEN.+BANKS%27+HEADQUARTERS+AT+ALAXANDRIA+HIS+TROOPS+MOVING+UP+THE+RIVER+AFTER+THE+ENEMY+IMPORTANT+RUMORS.&amp;rft.au=&amp;rft.aulast=&amp;rft.aufirst=&amp;rft.date=1863-05-26&amp;rft.volume=&amp;rft.issue=&amp;rft.spage=1&amp;rft.isbn=&amp;rft.btitle=&amp;rft.title=New+York+Times+%281857-1922%29&amp;rft.issn=03624331","ProQuest Historical Newspapers: The New York Times (1851-2009) with Index (1851-1993)"
"Operations of the Fleets under Porter and Farragut.",,91768630,"Historical Newspapers",," Copyright New York Times Company May 25, 1863"," 78702900 , 1446096 , 113715"," front_page"," May 25, 1863","0362-4331"," English"," English",1," New York, N.Y.","May 25, 1863","New York Times (1857-1922)",1863,"http://search.proquest.com/docview/91768630?accountid=13567",1,"http://openurl.lib.rochester.edu/find?ctx_ver=Z39.88-2004&amp;ctx_enc=info:ofi/enc:UTF-8&amp;rfr_id=info:sid/ProQ%3Ahnpnewyorktimeswindex&amp;rft_val_fmt=info:ofi/fmt:kev:mtx:journal&amp;rft.genre=unknown&amp;rft.jtitle=New+York+Times+%281857-1922%29&amp;rft.atitle=Operations+of+the+Fleets+under+Porter+and+Farragut.&amp;rft.au=&amp;rft.aulast=&amp;rft.aufirst=&amp;rft.date=1863-05-25&amp;rft.volume=&amp;rft.issue=&amp;rft.spage=1&amp;rft.isbn=&amp;rft.btitle=&amp;rft.title=New+York+Times+%281857-1922%29&amp;rft.issn=03624331","ProQuest Historical Newspapers: The New York Times (1851-2009) with Index (1851-1993)"
