Title,Abstract,StoreId,ArticleType,copyright,digitalObjectIdentifier,documentType,entryDate,issn,language,languageOfSummary,pages,placeOfPublication,pubdate,pubtitle,year,DocumentURL,startPage,FindACopy,Database
FROM MISSOURI.,,91861394,Historical Newspapers," Copyright New York Times Company Nov 5, 1864"," 78733541-1 , 1446409 , 113715", article," Nov 5, 1864",0362-4331, English, English, 2," New York, N.Y.","Nov 5, 1864",New York Times (1857-1922),1864,http://search.proquest.com/docview/91861394?accountid=13567, 2,http://openurl.lib.rochester.edu/find?ctx_ver=Z39.88-2004&amp;ctx_enc=info:ofi/enc:UTF-8&amp;rfr_id=info:sid/ProQ%3Ahnpnewyorktimeswindex&amp;rft_val_fmt=info:ofi/fmt:kev:mtx:journal&amp;rft.genre=article&amp;rft.jtitle=New+York+Times+%281857-1922%29&amp;rft.atitle=FROM+MISSOURI.%3A+FURTHER+PARTICULARS+OF+THE+DEFEAT+AND+RETREAT+OF+PRICE+ARREST+OF+GEN.+BROWN.+YACHTING.&amp;rft.au=&amp;rft.aulast=&amp;rft.aufirst=&amp;rft.date=1864-11-05&amp;rft.volume=&amp;rft.issue=&amp;rft.spage=2&amp;rft.isbn=&amp;rft.btitle=&amp;rft.title=New+York+Times+%281857-1922%29&amp;rft.issn=03624331,ProQuest Historical Newspapers: The New York Times (1851-2009) with Index (1851-1993)
THE WAR IN MISSOURI.,,91851606,Historical Newspapers," Copyright New York Times Company Oct 30, 1864"," 78733227 , 1446405 , 113715", article," Oct 30, 1864",0362-4331, English, English, 8," New York, N.Y.","Oct 30, 1864",New York Times (1857-1922),1864,http://search.proquest.com/docview/91851606?accountid=13567, 8,http://openurl.lib.rochester.edu/find?ctx_ver=Z39.88-2004&amp;ctx_enc=info:ofi/enc:UTF-8&amp;rfr_id=info:sid/ProQ%3Ahnpnewyorktimeswindex&amp;rft_val_fmt=info:ofi/fmt:kev:mtx:journal&amp;rft.genre=article&amp;rft.jtitle=New+York+Times+%281857-1922%29&amp;rft.atitle=THE+WAR+IN+MISSOURI.%3A+THE+RETREAT+OF+GEN.+PRICE+GEN.+PLEASONTON+INJURED+BY+FALLING+FROM+HIS+HORSE.+THE+PARSULT+OF+PRICE+INADEQUACY+OF+OUR+FORCES+PLEASANTON%27S+JUNCTION+WITH+CUR+TIS-PRICE+ESCAPING+THROUGH+KANSASMEETING+OF+MISSOURI+MILITIA+ASTOUNDING+CONFESSION+OF+AN+INFORMER.&amp;rft.au=&amp;rft.aulast=&amp;rft.aufirst=&amp;rft.date=1864-10-30&amp;rft.volume=&amp;rft.issue=&amp;rft.spage=8&amp;rft.isbn=&amp;rft.btitle=&amp;rft.title=New+York+Times+%281857-1922%29&amp;rft.issn=03624331,ProQuest Historical Newspapers: The New York Times (1851-2009) with Index (1851-1993)
FROM MISSOURI.,,91846363,Historical Newspapers," Copyright New York Times Company Oct 29, 1864"," 82014641 , 1470621 , 113715", front_page," Oct 29, 1864",0362-4331, English, English, 1," New York, N.Y.","Oct 29, 1864",New York Times (1857-1922),1864,http://search.proquest.com/docview/91846363?accountid=13567, 1,http://openurl.lib.rochester.edu/find?ctx_ver=Z39.88-2004&amp;ctx_enc=info:ofi/enc:UTF-8&amp;rfr_id=info:sid/ProQ%3Ahnpnewyorktimeswindex&amp;rft_val_fmt=info:ofi/fmt:kev:mtx:journal&amp;rft.genre=unknown&amp;rft.jtitle=New+York+Times+%281857-1922%29&amp;rft.atitle=FROM+MISSOURI.%3A+GEN.+PLEASONTON%27S+PURSUIT+OF+PRICE.+PRICE+HAS+BUT+ONE+GUN+LEFT+AND+NO+AMMUNITION.+THE+REBELS+FLYING+IN+ALL+DIRECTIONS.+FROM+GEN.+SHERMAN%27S+ARMY.+THE+FUNERAL+OF+GEN.+LOWELL.+THE+WEST+VIRGINIA+ELECTION.+THE+VERMONT+RAID.+MARYLAND+DEMOCRATIC+STATE+NOMINATIONS.&amp;rft.au=&amp;rft.aulast=&amp;rft.aufirst=&amp;rft.date=1864-10-29&amp;rft.volume=&amp;rft.issue=&amp;rft.spage=1&amp;rft.isbn=&amp;rft.btitle=&amp;rft.title=New+York+Times+%281857-1922%29&amp;rft.issn=03624331,ProQuest Historical Newspapers: The New York Times (1851-2009) with Index (1851-1993)
THE WAR IN MISSOURI,"The Democrat's dispatch from Leavenworth says: PRICE has been driven below Fort Scott, close ly pursued by our cavalry. We have captured a large number of prisoners, including Gens. MARMADUEE and CABELL, and several pieces of artillery.",91874797,Historical Newspapers," Copyright New York Times Company Oct 28, 1864"," 78733105 , 1446404 , 113715", front_page," Oct 28, 1864",0362-4331, English, English, 1," New York, N.Y.","Oct 28, 1864",New York Times (1857-1922),1864,http://search.proquest.com/docview/91874797?accountid=13567, 1,http://openurl.lib.rochester.edu/find?ctx_ver=Z39.88-2004&amp;ctx_enc=info:ofi/enc:UTF-8&amp;rfr_id=info:sid/ProQ%3Ahnpnewyorktimeswindex&amp;rft_val_fmt=info:ofi/fmt:kev:mtx:journal&amp;rft.genre=unknown&amp;rft.jtitle=New+York+Times+%281857-1922%29&amp;rft.atitle=THE+WAR+IN+MISSOURI%3A+PRICE%27S+ARMY+HARD+PUSHED+THE+REBELS+AGAIN+DEFEATED+NEAR+FORT+SCOTT.+GENS.+MARMADUKE+AND+CABELL+TAKEN+PRISONERS.+1%2C500+REBELS+AND+12+PIECES+OF+ARTILLERY+CAPTURED.+GUORRILLA+OPERATIONS+IN+MISSOURI.&amp;rft.au=&amp;rft.aulast=&amp;rft.aufirst=&amp;rft.date=1864-10-28&amp;rft.volume=&amp;rft.issue=&amp;rft.spage=1&amp;rft.isbn=&amp;rft.btitle=&amp;rft.title=New+York+Times+%281857-1922%29&amp;rft.issn=03624331,ProQuest Historical Newspapers: The New York Times (1851-2009) with Index (1851-1993)
THE WAR IN MISSOURI.,"The dead bodies of Major WILSON, Third Missouri Militia, and six of his men, captured by the rebels at Pilot Knob, and given up to a guerrilla band for execution for the alleged killing of some rebels in Arkansas last Summer, were found in Frankiln County yesterday. WILSON'S body had several holes in it. A rebel Major and six privates now in Alton Prison as hostages for WILSON and his men, will doubtless be shot in retaliation.",91856042,Historical Newspapers," Copyright New York Times Company Oct 26, 1864"," 78732901-1 , 1446402 , 113715", front_page," Oct 26, 1864",0362-4331, English, English, 1," New York, N.Y.","Oct 26, 1864",New York Times (1857-1922),1864,http://search.proquest.com/docview/91856042?accountid=13567, 1,http://openurl.lib.rochester.edu/find?ctx_ver=Z39.88-2004&amp;ctx_enc=info:ofi/enc:UTF-8&amp;rfr_id=info:sid/ProQ%3Ahnpnewyorktimeswindex&amp;rft_val_fmt=info:ofi/fmt:kev:mtx:journal&amp;rft.genre=unknown&amp;rft.jtitle=New+York+Times+%281857-1922%29&amp;rft.atitle=THE+WAR+IN+MISSOURI.%3A+MORE+MURDERS+NO+CONFIRMATION+OF+THE+ROUT+OF+PRICE%27S+ARMY.&amp;rft.au=&amp;rft.aulast=&amp;rft.aufirst=&amp;rft.date=1864-10-26&amp;rft.volume=&amp;rft.issue=&amp;rft.spage=1&amp;rft.isbn=&amp;rft.btitle=&amp;rft.title=New+York+Times+%281857-1922%29&amp;rft.issn=03624331,ProQuest Historical Newspapers: The New York Times (1851-2009) with Index (1851-1993)
From Arkansas and Missouri.,"Late advices from Little Rock, Ark., state that Gen. MAGRUDER has left Camden and is rapidly marching toward the Red River.",91815395,Historical Newspapers," Copyright New York Times Company Oct 26, 1864"," 78732903 , 1446402 , 113715", front_page," Oct 26, 1864",0362-4331, English, English, 1," New York, N.Y.","Oct 26, 1864",New York Times (1857-1922),1864,http://search.proquest.com/docview/91815395?accountid=13567, 1,http://openurl.lib.rochester.edu/find?ctx_ver=Z39.88-2004&amp;ctx_enc=info:ofi/enc:UTF-8&amp;rfr_id=info:sid/ProQ%3Ahnpnewyorktimeswindex&amp;rft_val_fmt=info:ofi/fmt:kev:mtx:journal&amp;rft.genre=unknown&amp;rft.jtitle=New+York+Times+%281857-1922%29&amp;rft.atitle=From+Arkansas+and+Missouri.&amp;rft.au=&amp;rft.aulast=&amp;rft.aufirst=&amp;rft.date=1864-10-26&amp;rft.volume=&amp;rft.issue=&amp;rft.spage=1&amp;rft.isbn=&amp;rft.btitle=&amp;rft.title=New+York+Times+%281857-1922%29&amp;rft.issn=03624331,ProQuest Historical Newspapers: The New York Times (1851-2009) with Index (1851-1993)
