Title,Abstract,StoreId,ArticleType,Authors,copyright,digitalObjectIdentifier,documentType,entryDate,issn,language,languageOfSummary,pages,placeOfPublication,pubdate,pubtitle,year,DocumentURL,startPage,FindACopy,Database
THE GREAT BATTLE OF BAKER'S CREEK.,"Special dispatches from the army of Gen. GRANT contain full accounts of the battles in Mississippi, representing them as a series of bloody and desperate engagements, in which our soldiers immortalized themselves.",91730735,Historical Newspapers,," Copyright New York Times Company May 26, 1863"," 78703001-1 , 1446097 , 113715", front_page," May 26, 1863",0362-4331, English, English, 1," New York, N.Y.","May 26, 1863",New York Times (1857-1922),1863,http://search.proquest.com/docview/91730735?accountid=13567, 1,http://openurl.lib.rochester.edu/find?ctx_ver=Z39.88-2004&amp;ctx_enc=info:ofi/enc:UTF-8&amp;rfr_id=info:sid/ProQ%3Ahnpnewyorktimeswindex&amp;rft_val_fmt=info:ofi/fmt:kev:mtx:journal&amp;rft.genre=unknown&amp;rft.jtitle=New+York+Times+%281857-1922%29&amp;rft.atitle=THE+GREAT+BATTLE+OF+BAKER%27S+CREEK.&amp;rft.au=&amp;rft.aulast=&amp;rft.aufirst=&amp;rft.date=1863-05-26&amp;rft.volume=&amp;rft.issue=&amp;rft.spage=1&amp;rft.isbn=&amp;rft.btitle=&amp;rft.title=New+York+Times+%281857-1922%29&amp;rft.issn=03624331,ProQuest Historical Newspapers: The New York Times (1851-2009) with Index (1851-1993)
VICKSBURG.,,91772552,Historical Newspapers,," Copyright New York Times Company May 25, 1863"," 78702895 , 1446096 , 113715", front_page," May 25, 1863",0362-4331, English, English, 1," New York, N.Y.","May 25, 1863",New York Times (1857-1922),1863,http://search.proquest.com/docview/91772552?accountid=13567, 1,http://openurl.lib.rochester.edu/find?ctx_ver=Z39.88-2004&amp;ctx_enc=info:ofi/enc:UTF-8&amp;rfr_id=info:sid/ProQ%3Ahnpnewyorktimeswindex&amp;rft_val_fmt=info:ofi/fmt:kev:mtx:journal&amp;rft.genre=unknown&amp;rft.jtitle=New+York+Times+%281857-1922%29&amp;rft.atitle=VICKSBURG.%3A+AN+OFFICIAL+ANNOUNCEMENT+TO+THE+PRESIDENT+THAT+VICKSBURGH+HAS+FALLEN.THE+STARS+AND+STRIPES+FLOATING+OVERTHE+REBEL+STRONGHOLD.THE+VICTORY+COMPLETE.PROBABLE+CAPTURE+OF+THE+ENTIRE+REBEL+ARMY+UNDER+PEMBERTON.OFFICIAL+DETAILS+OF+GEN.+GRANT%27S+PROGRESS+AFTER+LEAVING+JACKSON.TWO+GREAT+BATTLES+FOUGHT+ON+SATURDAY+AND+SUNDAY%2C+16TH+AND+L7TH.+FIFTY-SEVEN+PIECES+OF+ARTILLERYCAPTURED.HEAVY+LOSSES+OF+THE+ENEMY+IN+KILLED%2C+WOUNDED+ANDPRISONERS.THE+CROSSING+OF+THE+BIG+BLACK.+CAPTURE+OF+HAINES%27+BLUFF+AND+INVESTMENT+OF+THE+CITY.+CO-OPERATION+BY+ADMIRAL+PORTER%27SGUNBOATS.THE+REBELS+KEPT+BUSY%2C+DAY+AND+NIGHT.&amp;rft.au=&amp;rft.aulast=&amp;rft.aufirst=&amp;rft.date=1863-05-25&amp;rft.volume=&amp;rft.issue=&amp;rft.spage=1&amp;rft.isbn=&amp;rft.btitle=&amp;rft.title=New+York+Times+%281857-1922%29&amp;rft.issn=03624331,ProQuest Historical Newspapers: The New York Times (1851-2009) with Index (1851-1993)
HIGHLY IMPORTANT OFFICIAL DETAILS.,The following dispatch has just been received at the War Department:,91779768,Historical Newspapers,," Copyright New York Times Company May 25, 1863"," 78702896 , 1446096 , 113715", front_page," May 25, 1863",0362-4331, English, English, 1," New York, N.Y.","May 25, 1863",New York Times (1857-1922),1863,http://search.proquest.com/docview/91779768?accountid=13567, 1,http://openurl.lib.rochester.edu/find?ctx_ver=Z39.88-2004&amp;ctx_enc=info:ofi/enc:UTF-8&amp;rfr_id=info:sid/ProQ%3Ahnpnewyorktimeswindex&amp;rft_val_fmt=info:ofi/fmt:kev:mtx:journal&amp;rft.genre=unknown&amp;rft.jtitle=New+York+Times+%281857-1922%29&amp;rft.atitle=HIGHLY+IMPORTANT+OFFICIAL+DETAILS.&amp;rft.au=&amp;rft.aulast=&amp;rft.aufirst=&amp;rft.date=1863-05-25&amp;rft.volume=&amp;rft.issue=&amp;rft.spage=1&amp;rft.isbn=&amp;rft.btitle=&amp;rft.title=New+York+Times+%281857-1922%29&amp;rft.issn=03624331,ProQuest Historical Newspapers: The New York Times (1851-2009) with Index (1851-1993)
Probable Capture of Vicksburgh with Pemberton's Entire Army.,"The National Republican announces, by permission of the President, the following dispach. It was received by the latter at half-past twelve:",91778581,Historical Newspapers," From Our Own Correspondent.
From Our Own Correspondent."," Copyright New York Times Company May 24, 1863"," 78702800-1 , 1446095 , 113715", front_page," May 24, 1863",0362-4331, English, English, 1," New York, N.Y.","May 24, 1863",New York Times (1857-1922),1863,http://search.proquest.com/docview/91778581?accountid=13567, 1,http://openurl.lib.rochester.edu/find?ctx_ver=Z39.88-2004&amp;ctx_enc=info:ofi/enc:UTF-8&amp;rfr_id=info:sid/ProQ%3Ahnpnewyorktimeswindex&amp;rft_val_fmt=info:ofi/fmt:kev:mtx:journal&amp;rft.genre=unknown&amp;rft.jtitle=New+York+Times+%281857-1922%29&amp;rft.atitle=Probable+Capture+of+Vicksburgh+with+Pemberton%27s+Entire+Army.%3A+IMMENSE+SUCCESS+OF+GEN.+GRANT+A+Great+Battle+Raging+on+Wednesday+Last.Capture+of+Haines%27+Bluff+andthe+Outer+Works+of+Vicksburgh.Fifty-Seven+Pieces+of+Artillery+Taken.A+LARGE+NUMBER+OF+PRISONERSJackson+and+the+Black+River+Bridgein+Our+Possession.Joe.+Johnston+Striving+to+Effect+a+Junction+with+Pemberton.ONLY+6%2C000+MEN+WITH+HIM.Pemberton%27s+Acknowledgment+of+Defeat+on+Saturday.+HIGHLY+IMPORTANT+OFFICIAL+DETAILS.+PREVIOUS+DISPATCH+FROM+GEN.+HURLBUT+NEWS+BY+WAY+OF+FREDERICKS+BURGH.+NEWS+BY+WAY+OF+CINCINNATI.+NEWS+BY+WAY+OF+CAIRO.+PREVIOUS+MOVEMENTS+OF+GRANT%27S+FORCES.+The+Preparatory+Movements+Foraging+and+Reconnoitering+Distinguished+Visitors+Cooked+Rations+A+Visit+to+Jeff.+Davis%27+Plantation.&amp;rft.au=From+Our+Own+Correspondent.&amp;rft.aulast=From+Our+Own+Correspondent.&amp;rft.aufirst=&amp;rft.date=1863-05-24&amp;rft.volume=&amp;rft.issue=&amp;rft.spage=1&amp;rft.isbn=&amp;rft.btitle=&amp;rft.title=New+York+Times+%281857-1922%29&amp;rft.issn=03624331,ProQuest Historical Newspapers: The New York Times (1851-2009) with Index (1851-1993)
HIGHLY IMPORTANT.,,91753867,Historical Newspapers,," Copyright New York Times Company May 17, 1863"," 78702306 , 1446090 , 113715", front_page," May 17, 1863",0362-4331, English, English, 1," New York, N.Y.","May 17, 1863",New York Times (1857-1922),1863,http://search.proquest.com/docview/91753867?accountid=13567, 1,http://openurl.lib.rochester.edu/find?ctx_ver=Z39.88-2004&amp;ctx_enc=info:ofi/enc:UTF-8&amp;rfr_id=info:sid/ProQ%3Ahnpnewyorktimeswindex&amp;rft_val_fmt=info:ofi/fmt:kev:mtx:journal&amp;rft.genre=unknown&amp;rft.jtitle=New+York+Times+%281857-1922%29&amp;rft.atitle=HIGHLY+IMPORTANT.%3A+NEWS+FROM+GEN.+GRANT.+REBEL+REPORTS+OF+FIGHTING+NEAR+JACKSON%2C+MISSISSIPPI.+THE+ENEMY+DRIVEN+OUT+OF+RAYMOND%2C+ON+THURSDAY.+GEN.+GRANT+RECEIVING+REINFORCEMENTS+RAPIDLY.+HEAVY+FIGHTING+ON+FRIDAY+TOWARD+JACKSON.&amp;rft.au=&amp;rft.aulast=&amp;rft.aufirst=&amp;rft.date=1863-05-17&amp;rft.volume=&amp;rft.issue=&amp;rft.spage=1&amp;rft.isbn=&amp;rft.btitle=&amp;rft.title=New+York+Times+%281857-1922%29&amp;rft.issn=03624331,ProQuest Historical Newspapers: The New York Times (1851-2009) with Index (1851-1993)
