"Title","Abstract","StoreId","ArticleType","copyright","digitalObjectIdentifier","documentType","entryDate","issn","language","languageOfSummary","pages","placeOfPublication","pubdate","pubtitle","year","DocumentURL","startPage","FindACopy","Database"
"Further Facts Concerning Sherman's Recent Movement--The Battle at Bentonville-- Schofield Joins Sherman--Supplies Arriving at Morehead City--Rebel Prisoners Sent to Newbern--Reinforcements for Sherman.","On Sunday last the Twentieth Corps of Gen. SHERMAN's army met the enemy at Bentonville, instead of Mount Olive, as at first reported, twenty-six miles southwest of Goldsboro, where our advance was checked until the arrival of the Fourteenth Corps, which held the enemy at bay, when the Seventeenth Corps arrived and flanked the enemy, who left in confusion for Raleigh, SHERMAN'S forces entering Smithfield, which is half way between Raleigh and Goldsboro.",91916141,"Historical Newspapers"," Copyright New York Times Company Mar 29, 1865"," 78743315 , 1446513 , 113715"," article"," Mar 29, 1865","0362-4331"," English"," English",8," New York, N.Y.","Mar 29, 1865","New York Times (1857-1922)",1865,"http://search.proquest.com/docview/91916141?accountid=13567",8,"http://openurl.lib.rochester.edu/find?ctx_ver=Z39.88-2004&amp;ctx_enc=info:ofi/enc:UTF-8&amp;rfr_id=info:sid/ProQ%3Ahnpnewyorktimeswindex&amp;rft_val_fmt=info:ofi/fmt:kev:mtx:journal&amp;rft.genre=article&amp;rft.jtitle=New+York+Times+%281857-1922%29&amp;rft.atitle=Further+Facts+Concerning+Sherman%27s+Recent+Movement--The+Battle+at+Bentonville--+Schofield+Joins+Sherman--Supplies+Arriving+at+Morehead+City--Rebel+Prisoners+Sent+to+Newbern--Reinforcements+for+Sherman.%3A+LATER.&amp;rft.au=&amp;rft.aulast=&amp;rft.aufirst=&amp;rft.date=1865-03-29&amp;rft.volume=&amp;rft.issue=&amp;rft.spage=8&amp;rft.isbn=&amp;rft.btitle=&amp;rft.title=New+York+Times+%281857-1922%29&amp;rft.issn=03624331","ProQuest Historical Newspapers: The New York Times (1851-2009) with Index (1851-1993)"
"SHERMAN'S ARMY.","I forward a more detailed account of the two battles fought by SHERMAN'S troops in their progress to a junction with SCHOFIELD and TERRY. The first fight is called the battle of Moore's Cross Roads. Gen. SHERMAN, after leaving Fayetteville, decided to form a junction near Goldsboro.",91964925,"Historical Newspapers"," Copyright New York Times Company Mar 29, 1865"," 78743287-1 , 1446513 , 113715"," article"," Mar 29, 1865","0362-4331"," English"," English",8," New York, N.Y.","Mar 29, 1865","New York Times (1857-1922)",1865,"http://search.proquest.com/docview/91964925?accountid=13567",8,"http://openurl.lib.rochester.edu/find?ctx_ver=Z39.88-2004&amp;ctx_enc=info:ofi/enc:UTF-8&amp;rfr_id=info:sid/ProQ%3Ahnpnewyorktimeswindex&amp;rft_val_fmt=info:ofi/fmt:kev:mtx:journal&amp;rft.genre=article&amp;rft.jtitle=New+York+Times+%281857-1922%29&amp;rft.atitle=SHERMAN%27S+ARMY.%3A+THE+BATTLES+WITH+JOHNSTON%27S+FORCES.+INTERESTING+PARTICULARS+OF+THE+REBEL+DEFEAT&amp;rft.au=&amp;rft.aulast=&amp;rft.aufirst=&amp;rft.date=1865-03-29&amp;rft.volume=&amp;rft.issue=&amp;rft.spage=8&amp;rft.isbn=&amp;rft.btitle=&amp;rft.title=New+York+Times+%281857-1922%29&amp;rft.issn=03624331","ProQuest Historical Newspapers: The New York Times (1851-2009) with Index (1851-1993)"
"The Junction of Sherman's and Schofield's Forces Confirmed.",,91974843,"Historical Newspapers"," Copyright New York Times Company Mar 28, 1865"," 78742909-1 , 1446512 , 113715"," front_page"," Mar 28, 1865","0362-4331"," English"," English",1," New York, N.Y.","Mar 28, 1865","New York Times (1857-1922)",1865,"http://search.proquest.com/docview/91974843?accountid=13567",1,"http://openurl.lib.rochester.edu/find?ctx_ver=Z39.88-2004&amp;ctx_enc=info:ofi/enc:UTF-8&amp;rfr_id=info:sid/ProQ%3Ahnpnewyorktimeswindex&amp;rft_val_fmt=info:ofi/fmt:kev:mtx:journal&amp;rft.genre=unknown&amp;rft.jtitle=New+York+Times+%281857-1922%29&amp;rft.atitle=The+Junction+of+Sherman%27s+and+Schofield%27s+Forces+Confirmed.&amp;rft.au=&amp;rft.aulast=&amp;rft.aufirst=&amp;rft.date=1865-03-28&amp;rft.volume=&amp;rft.issue=&amp;rft.spage=1&amp;rft.isbn=&amp;rft.btitle=&amp;rft.title=New+York+Times+%281857-1922%29&amp;rft.issn=03624331","ProQuest Historical Newspapers: The New York Times (1851-2009) with Index (1851-1993)"
"UNOFFICIAL DETAILS.",,92027587,"Historical Newspapers"," Copyright New York Times Company Mar 28, 1865"," 78742910 , 1446512 , 113715"," front_page"," Mar 28, 1865","0362-4331"," English"," English",1," New York, N.Y.","Mar 28, 1865","New York Times (1857-1922)",1865,"http://search.proquest.com/docview/92027587?accountid=13567",1,"http://openurl.lib.rochester.edu/find?ctx_ver=Z39.88-2004&amp;ctx_enc=info:ofi/enc:UTF-8&amp;rfr_id=info:sid/ProQ%3Ahnpnewyorktimeswindex&amp;rft_val_fmt=info:ofi/fmt:kev:mtx:journal&amp;rft.genre=unknown&amp;rft.jtitle=New+York+Times+%281857-1922%29&amp;rft.atitle=UNOFFICIAL+DETAILS.&amp;rft.au=&amp;rft.aulast=&amp;rft.aufirst=&amp;rft.date=1865-03-28&amp;rft.volume=&amp;rft.issue=&amp;rft.spage=1&amp;rft.isbn=&amp;rft.btitle=&amp;rft.title=New+York+Times+%281857-1922%29&amp;rft.issn=03624331","ProQuest Historical Newspapers: The New York Times (1851-2009) with Index (1851-1993)"
"GEN. SHERMAN'S ARMY.","The following official report of Gen. SHERMAN'S operations since he left Fayetteville have been received this morning.",91915917,"Historical Newspapers"," Copyright New York Times Company Mar 28, 1865"," 78742907 , 1446512 , 113715"," front_page"," Mar 28, 1865","0362-4331"," English"," English",1," New York, N.Y.","Mar 28, 1865","New York Times (1857-1922)",1865,"http://search.proquest.com/docview/91915917?accountid=13567",1,"http://openurl.lib.rochester.edu/find?ctx_ver=Z39.88-2004&amp;ctx_enc=info:ofi/enc:UTF-8&amp;rfr_id=info:sid/ProQ%3Ahnpnewyorktimeswindex&amp;rft_val_fmt=info:ofi/fmt:kev:mtx:journal&amp;rft.genre=unknown&amp;rft.jtitle=New+York+Times+%281857-1922%29&amp;rft.atitle=GEN.+SHERMAN%27S+ARMY.%3A+OFFICIAL+REPORT+OF+HIS+OPERATIONS.+SEVERE+FIGHTING+WITH+THE+REBELS.+SHERMAN%27S+LOSS+NOT+OVER+2%2C500+SINCE+LEAVING+SAVANNAH.+TWO+THOUSAIND+REBELS+CAPTURED.+SHERMAN%27S+ARMY+AT+GOLDSBORO+MARCH+22.&amp;rft.au=&amp;rft.aulast=&amp;rft.aufirst=&amp;rft.date=1865-03-28&amp;rft.volume=&amp;rft.issue=&amp;rft.spage=1&amp;rft.isbn=&amp;rft.btitle=&amp;rft.title=New+York+Times+%281857-1922%29&amp;rft.issn=03624331","ProQuest Historical Newspapers: The New York Times (1851-2009) with Index (1851-1993)"
"IMPORTANT FROM GRANT.","Maj.-Gen. Dis: This morninig at 4:30 o'clock, the enemy, by a strong and sudden assault captured Fort Steadman, but after a vigorous contest the fort was recaptured with 1,600 prisoners, two flags, and all the guns uninjured.",91894191,"Historical Newspapers"," Copyright New York Times Company Mar 26, 1865"," 78742695-1 , 1446509 , 113715"," front_page"," Mar 26, 1865","0362-4331"," English"," English",1," New York, N.Y.","Mar 26, 1865","New York Times (1857-1922)",1865,"http://search.proquest.com/docview/91894191?accountid=13567",1,"http://openurl.lib.rochester.edu/find?ctx_ver=Z39.88-2004&amp;ctx_enc=info:ofi/enc:UTF-8&amp;rfr_id=info:sid/ProQ%3Ahnpnewyorktimeswindex&amp;rft_val_fmt=info:ofi/fmt:kev:mtx:journal&amp;rft.genre=unknown&amp;rft.jtitle=New+York+Times+%281857-1922%29&amp;rft.atitle=IMPORTANT+FROM+GRANT.%3A+A+BOLD+ATTACK+UPON+HIS+LINES.+TEMPORARY+SUCCESS+OF+THE+REBELS.+THEY+CAPTURE+FORT+STEADMAN.+GALLANT+BEHAVIOR+OF+THE+UNION+TROOPS.+THEY+RECAPTURE+THE+FORT+AND+TAKE+2%2C700+PRISONERS.+HEAVY+LOSS+IN+KILLED+AND+WOUNDED+AMONG+THE+REBELS.ATTACK+ON+FORT+HASKELL+REPULSED.+THE+DAYS+OPERATIONS+GREATLY+INOUR+FAVOR.SCHOFIELD%27S+OCCUPATION+OF+GOLDSBORO.SHERMAN%27S+PLANS+BEING+STRICTLY+CARRIED+OUT.%5BOFFICIAL.%5D&amp;rft.au=&amp;rft.aulast=&amp;rft.aufirst=&amp;rft.date=1865-03-26&amp;rft.volume=&amp;rft.issue=&amp;rft.spage=1&amp;rft.isbn=&amp;rft.btitle=&amp;rft.title=New+York+Times+%281857-1922%29&amp;rft.issn=03624331","ProQuest Historical Newspapers: The New York Times (1851-2009) with Index (1851-1993)"
"NEWS FROM WASHINGTON.",,91894256,"Historical Newspapers"," Copyright New York Times Company Mar 26, 1865"," 78742728-1 , 1446509 , 113715"," article"," Mar 26, 1865","0362-4331"," English"," English",4," New York, N.Y.","Mar 26, 1865","New York Times (1857-1922)",1865,"http://search.proquest.com/docview/91894256?accountid=13567",4,"http://openurl.lib.rochester.edu/find?ctx_ver=Z39.88-2004&amp;ctx_enc=info:ofi/enc:UTF-8&amp;rfr_id=info:sid/ProQ%3Ahnpnewyorktimeswindex&amp;rft_val_fmt=info:ofi/fmt:kev:mtx:journal&amp;rft.genre=article&amp;rft.jtitle=New+York+Times+%281857-1922%29&amp;rft.atitle=NEWS+FROM+WASHINGTON.%3A+REBEL+NEWS+ABOUT+SHERMAN.+REFUGEES+AND+THEIR+REPORTS.+ESCAPED+PRISONER.+PRISONERS+SENT+NORTH.+PRISONERS+TRANSFERRED.+LOOKING+OUT+FOR+THE+NEW+PIRATE.+THE+EXCURSIONISTS+RETURNED.+CANAL+NAVIGATION.+A+REBEL+SCHOONER+BURNED.+THE+DEMOCRATIC+PEACE+COMMISSION.+THE+STORM+OF+THURSDAY.+CORRECTION.+THE+PRESIDENT.+TOBACCO+SEED.&amp;rft.au=&amp;rft.aulast=&amp;rft.aufirst=&amp;rft.date=1865-03-26&amp;rft.volume=&amp;rft.issue=&amp;rft.spage=4&amp;rft.isbn=&amp;rft.btitle=&amp;rft.title=New+York+Times+%281857-1922%29&amp;rft.issn=03624331","ProQuest Historical Newspapers: The New York Times (1851-2009) with Index (1851-1993)"
"FROM THE SOUTH.",,92005926,"Historical Newspapers"," Copyright New York Times Company Mar 25, 1865"," 78742597-1 , 1446508 , 113715"," front_page"," Mar 25, 1865","0362-4331"," English"," English",1," New York, N.Y.","Mar 25, 1865","New York Times (1857-1922)",1865,"http://search.proquest.com/docview/92005926?accountid=13567",1,"http://openurl.lib.rochester.edu/find?ctx_ver=Z39.88-2004&amp;ctx_enc=info:ofi/enc:UTF-8&amp;rfr_id=info:sid/ProQ%3Ahnpnewyorktimeswindex&amp;rft_val_fmt=info:ofi/fmt:kev:mtx:journal&amp;rft.genre=unknown&amp;rft.jtitle=New+York+Times+%281857-1922%29&amp;rft.atitle=FROM+THE+SOUTH.%3A+OFFICIAL+DISPATCH+FROM+GEN.+GRANT.+NO+FIGHTING+BETWEEN+SHERMAN+AND+JOHNSTON+SINCE+SUNDAY.+THE+REPORTED+FIGHT+WITH+HARDEE+AT+AVERYSBORO.+GROSSLY+EXAGGERATED+REBEL+ACCOUNT.+MILITARY+OPERATIONS+IN+FRONT+OF+PETERSBURGH.+THE+REDUNDANT+POPULATION+OF+THE+REBEL+CAPITAL.+%5BOFFICIAL.%5D+OUR+SOUTHERN+FILES&amp;rft.au=&amp;rft.aulast=&amp;rft.aufirst=&amp;rft.date=1865-03-25&amp;rft.volume=&amp;rft.issue=&amp;rft.spage=1&amp;rft.isbn=&amp;rft.btitle=&amp;rft.title=New+York+Times+%281857-1922%29&amp;rft.issn=03624331","ProQuest Historical Newspapers: The New York Times (1851-2009) with Index (1851-1993)"
