Title,Abstract,StoreId,ArticleType,Authors,copyright,digitalObjectIdentifier,documentType,entryDate,issn,language,languageOfSummary,pages,placeOfPublication,pubdate,pubtitle,year,DocumentURL,startPage,FindACopy,Database
THE BATTLE AT FREDERICKSBURGH.,"We have already laid before our readers an account of the passage of the Rappahannock by the enemy, on Thursday, and the fighting which ensued in and around the town of Fredericksburgh. It was anticipated by those unfamiliar with the time required to maneuvre and place in position large bodies of troops, that a general engagement between the two armies would take place on Friday.",91705820,Historical Newspapers,," Copyright New York Times Company Dec 26, 1862"," 90529330-1 , 1524394 , 113715", article," Dec 26, 1862",0362-4331, English, English, 3," New York, N.Y.","Dec 26, 1862",New York Times (1857-1922),1862,http://search.proquest.com/docview/91705820?accountid=13567, 3,http://openurl.lib.rochester.edu/find?ctx_ver=Z39.88-2004&amp;ctx_enc=info:ofi/enc:UTF-8&amp;rfr_id=info:sid/ProQ%3Ahnpnewyorktimeswindex&amp;rft_val_fmt=info:ofi/fmt:kev:mtx:journal&amp;rft.genre=article&amp;rft.jtitle=New+York+Times+%281857-1922%29&amp;rft.atitle=THE+BATTLE+AT+FREDERICKSBURGH.%3A+REBEL+ACCOUNTS+OF+THE+CONFLICT--A+GENERAL+RESUME.+ACCOUNTS+BY+NEWSPAPER+CORRESPOND+ENTS.+GEN.+PRENTISS%27+REPORT+OF+THE+BATTLE+OF+SHILOH&amp;rft.au=&amp;rft.aulast=&amp;rft.aufirst=&amp;rft.date=1862-12-26&amp;rft.volume=&amp;rft.issue=&amp;rft.spage=3&amp;rft.isbn=&amp;rft.btitle=&amp;rft.title=New+York+Times+%281857-1922%29&amp;rft.issn=03624331,ProQuest Historical Newspapers: The New York Times (1851-2009) with Index (1851-1993)
"The Crossing of the River--The Wounded-- Estimate of Our Forces, &c.","The entire portion of the Union army that passed over the river to engage the enemy, recrossed to the northern bank last night and this morning.",91717225,Historical Newspapers,," Copyright New York Times Company Dec 21, 1862"," 81670705 , 1467560 , 113715", front_page," Dec 21, 1862",0362-4331, English, English, 1," New York, N.Y.","Dec 21, 1862",New York Times (1857-1922),1862,http://search.proquest.com/docview/91717225?accountid=13567, 1,http://openurl.lib.rochester.edu/find?ctx_ver=Z39.88-2004&amp;ctx_enc=info:ofi/enc:UTF-8&amp;rfr_id=info:sid/ProQ%3Ahnpnewyorktimeswindex&amp;rft_val_fmt=info:ofi/fmt:kev:mtx:journal&amp;rft.genre=unknown&amp;rft.jtitle=New+York+Times+%281857-1922%29&amp;rft.atitle=The+Crossing+of+the+River--The+Wounded--+Estimate+of+Our+Forces%2C+%26c.&amp;rft.au=&amp;rft.aulast=&amp;rft.aufirst=&amp;rft.date=1862-12-21&amp;rft.volume=&amp;rft.issue=&amp;rft.spage=1&amp;rft.isbn=&amp;rft.btitle=&amp;rft.title=New+York+Times+%281857-1922%29&amp;rft.issn=03624331,ProQuest Historical Newspapers: The New York Times (1851-2009) with Index (1851-1993)
CASUALTIES AT FREDERICKSBURGH.,"The following is an official list of the casualties in the First Brigade, (Col. JAMES BARNES,) Second Division, Fifth Army Corps, with the exception of those in the One Hundred and Eighteenth Pennsylvania:",91675972,Historical Newspapers,," Copyright New York Times Company Dec 21, 1862"," 81670706 , 1467560 , 113715", front_page," Dec 21, 1862",0362-4331, English, English, 1," New York, N.Y.","Dec 21, 1862",New York Times (1857-1922),1862,http://search.proquest.com/docview/91675972?accountid=13567, 1,http://openurl.lib.rochester.edu/find?ctx_ver=Z39.88-2004&amp;ctx_enc=info:ofi/enc:UTF-8&amp;rfr_id=info:sid/ProQ%3Ahnpnewyorktimeswindex&amp;rft_val_fmt=info:ofi/fmt:kev:mtx:journal&amp;rft.genre=unknown&amp;rft.jtitle=New+York+Times+%281857-1922%29&amp;rft.atitle=CASUALTIES+AT+FREDERICKSBURGH.%3A+FIFTH+ARMY+CORPS.+FROM+GEN.+BURNSIDE%27S+ARMY.&amp;rft.au=&amp;rft.aulast=&amp;rft.aufirst=&amp;rft.date=1862-12-21&amp;rft.volume=&amp;rft.issue=&amp;rft.spage=1&amp;rft.isbn=&amp;rft.btitle=&amp;rft.title=New+York+Times+%281857-1922%29&amp;rft.issn=03624331,ProQuest Historical Newspapers: The New York Times (1851-2009) with Index (1851-1993)
The Battle and Retreat at Fredericksburgh.,"The growing interest which centres in our latest Virginia battle-field necessitates the most searching investigation into the causes which brought disaster when we had every reason to expect triumphant success. Fruitful in evil as would be the old French Revolutionary policy of following with a special inquest of querelous functionaries every movement of the army, in this case inquiry is a sacred, public duty.",91692560,Historical Newspapers,," Copyright New York Times Company Dec 21, 1862"," 81670734-1 , 1467560 , 113715", article," Dec 21, 1862",0362-4331, English, English, 4," New York, N.Y.","Dec 21, 1862",New York Times (1857-1922),1862,http://search.proquest.com/docview/91692560?accountid=13567, 4,http://openurl.lib.rochester.edu/find?ctx_ver=Z39.88-2004&amp;ctx_enc=info:ofi/enc:UTF-8&amp;rfr_id=info:sid/ProQ%3Ahnpnewyorktimeswindex&amp;rft_val_fmt=info:ofi/fmt:kev:mtx:journal&amp;rft.genre=article&amp;rft.jtitle=New+York+Times+%281857-1922%29&amp;rft.atitle=The+Battle+and+Retreat+at+Fredericksburgh.&amp;rft.au=&amp;rft.aulast=&amp;rft.aufirst=&amp;rft.date=1862-12-21&amp;rft.volume=&amp;rft.issue=&amp;rft.spage=4&amp;rft.isbn=&amp;rft.btitle=&amp;rft.title=New+York+Times+%281857-1922%29&amp;rft.issn=03624331,ProQuest Historical Newspapers: The New York Times (1851-2009) with Index (1851-1993)
FROM THE ARMY OF THE POTOMAC.,"The Richmond Dispatch of yesterday contains the following: GEN. LEE'S REPORT OF THE EVACUATION. HEADQUARTERS NEAR FREDERICKSBURGH, Dec. 16, 1862. As for as can be ascertained this stormy morning, the enemy has disappeared in our immediate front, and has recrossed the Rappahanucck. I presume be is meditating a passage at some other point.",91656941,Historical Newspapers,," Copyright New York Times Company Dec 20, 1862"," 90527542-1 , 1524376 , 113715", front_page," Dec 20, 1862",0362-4331, English, English, 1," New York, N.Y.","Dec 20, 1862",New York Times (1857-1922),1862,http://search.proquest.com/docview/91656941?accountid=13567, 1,http://openurl.lib.rochester.edu/find?ctx_ver=Z39.88-2004&amp;ctx_enc=info:ofi/enc:UTF-8&amp;rfr_id=info:sid/ProQ%3Ahnpnewyorktimeswindex&amp;rft_val_fmt=info:ofi/fmt:kev:mtx:journal&amp;rft.genre=unknown&amp;rft.jtitle=New+York+Times+%281857-1922%29&amp;rft.atitle=FROM+THE+ARMY+OF+THE+POTOMAC.%3A+THE+REBEL+REPORTS+OF+RECENT+OPERATIONS.+GENERAL+LEE%27S+OFFICIAL+ACCOUNT+OF+THE+BATTLE+OF+SATURDAY.+HE+PUTS+THE+REBEL+LOSSES+AT+1%2C800+KILLED+AND+WOUNDED.+GENERAL+COBB+KILLED+AND+GEN.+GREGG+WOUNDED.+EXTENT+OF+THE+NATIONAL+LOSSES+UNKNOWN.&amp;rft.au=&amp;rft.aulast=&amp;rft.aufirst=&amp;rft.date=1862-12-20&amp;rft.volume=&amp;rft.issue=&amp;rft.spage=1&amp;rft.isbn=&amp;rft.btitle=&amp;rft.title=New+York+Times+%281857-1922%29&amp;rft.issn=03624331,ProQuest Historical Newspapers: The New York Times (1851-2009) with Index (1851-1993)
REBEL ACCOUNTS FROM FREDERICKSBURGH.,"The following dispatches, received by way of Nashville, are from the Murfreesboro (rebel) Banner, of the 17th inst.:",91685250,Historical Newspapers,," Copyright New York Times Company Dec 19, 1862"," 90527139-1 , 1524372 , 113715", front_page," Dec 19, 1862",0362-4331, English, English, 1," New York, N.Y.","Dec 19, 1862",New York Times (1857-1922),1862,http://search.proquest.com/docview/91685250?accountid=13567, 1,http://openurl.lib.rochester.edu/find?ctx_ver=Z39.88-2004&amp;ctx_enc=info:ofi/enc:UTF-8&amp;rfr_id=info:sid/ProQ%3Ahnpnewyorktimeswindex&amp;rft_val_fmt=info:ofi/fmt:kev:mtx:journal&amp;rft.genre=unknown&amp;rft.jtitle=New+York+Times+%281857-1922%29&amp;rft.atitle=REBEL+ACCOUNTS+FROM+FREDERICKSBURGH.%3A+LEE%27S+ANNOUNCEMENT+OF+THE+REPULSE+OF+OUR+FORCES.+A+REBEL+LOSS+OF+500+KILLED+AND+2%2C500+WOUNDED+ADMITTED.&amp;rft.au=&amp;rft.aulast=&amp;rft.aufirst=&amp;rft.date=1862-12-19&amp;rft.volume=&amp;rft.issue=&amp;rft.spage=1&amp;rft.isbn=&amp;rft.btitle=&amp;rft.title=New+York+Times+%281857-1922%29&amp;rft.issn=03624331,ProQuest Historical Newspapers: The New York Times (1851-2009) with Index (1851-1993)
NEWS FROM WASHINGTON.,,91730216,Historical Newspapers,," Copyright New York Times Company Dec 19, 1862"," 90527141-1 , 1524372 , 113715", front_page," Dec 19, 1862",0362-4331, English, English, 1," New York, N.Y.","Dec 19, 1862",New York Times (1857-1922),1862,http://search.proquest.com/docview/91730216?accountid=13567, 1,http://openurl.lib.rochester.edu/find?ctx_ver=Z39.88-2004&amp;ctx_enc=info:ofi/enc:UTF-8&amp;rfr_id=info:sid/ProQ%3Ahnpnewyorktimeswindex&amp;rft_val_fmt=info:ofi/fmt:kev:mtx:journal&amp;rft.genre=unknown&amp;rft.jtitle=New+York+Times+%281857-1922%29&amp;rft.atitle=NEWS+FROM+WASHINGTON.%3A+A+COMMUNICATION+FROM+SECRETARY+CHASE+REGARDING+THE+PAY+OF+THE+SOLDIERS.+NATURE+AND+EXTENT+OF+THE+REQUISITIONS+ON+THE+TREASURY.+PASSAGE+OF+THE+ARMY+APPROPRIATION+BILL+IN+THE+HOUSE.+IT+CALLS+FOR+%24731%2C000%2C000.+AN+INQUIRY+INTO+THE+DISASTER+AT+FREDERICKSBURGH.OUR+SPECIAL+WASHINGTON+DISPATCHS.+THE+PAYMENT+OF+SOLDIERS.+SECRETARY+CHASE%27S+FINANCE.+THE+DISASTER+AT+FREDERICKSBURGH.+THE+FREDERICKSBURGH+WOUNDED.+REMOVAL+OF+THE+WOUNDED.+GEN.+M%27CLELLAN.+THE+INDIAN+EXECUTIONS.+STONEWALL+JACKSON.+ATTORNEY-GENERAL+BATES%27+OPINION.+SMUGGLING.+RAILROAD+TO+NEW-YORK.+COUNTERFEIT+POSTAL+CURRENCY.+CONSULS+RECOGNIZED.+THE+COSTA+RICA+CLAIMS.+THE+DISCHARGE+OF+DISABLED+SOLDIERS.+ABSENCE+OF+OFFICERS+FROM+DUTY.+SICK+AND+WOUNDED+OFFICERS.&amp;rft.au=&amp;rft.aulast=&amp;rft.aufirst=&amp;rft.date=1862-12-19&amp;rft.volume=&amp;rft.issue=&amp;rft.spage=1&amp;rft.isbn=&amp;rft.btitle=&amp;rft.title=New+York+Times+%281857-1922%29&amp;rft.issn=03624331,ProQuest Historical Newspapers: The New York Times (1851-2009) with Index (1851-1993)
THE FACTS CONCERNING FREDERICKSBURGH,"The country will be gratified to learn that the Congressional Committee on the Conduct of the War were yesterday ""directed to inquire into the facts relative to the recent battle at Fredericksburgh, Virginia, and particularly as to what officer or officers ...",91717777,Historical Newspapers,," Copyright New York Times Company Dec 19, 1862"," 90527163 , 1524372 , 113715", article," Dec 19, 1862",0362-4331, English, English, 4," New York, N.Y.","Dec 19, 1862",New York Times (1857-1922),1862,http://search.proquest.com/docview/91717777?accountid=13567, 4,http://openurl.lib.rochester.edu/find?ctx_ver=Z39.88-2004&amp;ctx_enc=info:ofi/enc:UTF-8&amp;rfr_id=info:sid/ProQ%3Ahnpnewyorktimeswindex&amp;rft_val_fmt=info:ofi/fmt:kev:mtx:journal&amp;rft.genre=article&amp;rft.jtitle=New+York+Times+%281857-1922%29&amp;rft.atitle=THE+FACTS+CONCERNING+FREDERICKSBURGH%3A+CALLED+FOR.--&amp;rft.au=&amp;rft.aulast=&amp;rft.aufirst=&amp;rft.date=1862-12-19&amp;rft.volume=&amp;rft.issue=&amp;rft.spage=4&amp;rft.isbn=&amp;rft.btitle=&amp;rft.title=New+York+Times+%281857-1922%29&amp;rft.issn=03624331,ProQuest Historical Newspapers: The New York Times (1851-2009) with Index (1851-1993)
CASUALTIES AT FREDERICKSBURGH.,,91685275,Historical Newspapers,," Copyright New York Times Company Dec 19, 1862"," 90527196 , 1524372 , 113715", article," Dec 19, 1862",0362-4331, English, English, 8," New York, N.Y.","Dec 19, 1862",New York Times (1857-1922),1862,http://search.proquest.com/docview/91685275?accountid=13567, 8,http://openurl.lib.rochester.edu/find?ctx_ver=Z39.88-2004&amp;ctx_enc=info:ofi/enc:UTF-8&amp;rfr_id=info:sid/ProQ%3Ahnpnewyorktimeswindex&amp;rft_val_fmt=info:ofi/fmt:kev:mtx:journal&amp;rft.genre=article&amp;rft.jtitle=New+York+Times+%281857-1922%29&amp;rft.atitle=CASUALTIES+AT+FREDERICKSBURGH.&amp;rft.au=&amp;rft.aulast=&amp;rft.aufirst=&amp;rft.date=1862-12-19&amp;rft.volume=&amp;rft.issue=&amp;rft.spage=8&amp;rft.isbn=&amp;rft.btitle=&amp;rft.title=New+York+Times+%281857-1922%29&amp;rft.issn=03624331,ProQuest Historical Newspapers: The New York Times (1851-2009) with Index (1851-1993)
Movements of the Left Wing--How the Evacuation was Conducted.,"After the severe battle of Saturday, our Generals became convinced that it would be next to an impossibility to dislodge the rebels from their strong position, and the question now arose, not how we should advance, but how we could successfully regain our former position. A bold front was decided upon, and",91657200,Historical Newspapers,," Copyright New York Times Company Dec 18, 1862"," 90526738-1 , 1524368 , 113715", front_page," Dec 18, 1862",0362-4331, English, English, 1," New York, N.Y.","Dec 18, 1862",New York Times (1857-1922),1862,http://search.proquest.com/docview/91657200?accountid=13567, 1,http://openurl.lib.rochester.edu/find?ctx_ver=Z39.88-2004&amp;ctx_enc=info:ofi/enc:UTF-8&amp;rfr_id=info:sid/ProQ%3Ahnpnewyorktimeswindex&amp;rft_val_fmt=info:ofi/fmt:kev:mtx:journal&amp;rft.genre=unknown&amp;rft.jtitle=New+York+Times+%281857-1922%29&amp;rft.atitle=Movements+of+the+Left+Wing--How+the+Evacuation+was+Conducted.&amp;rft.au=&amp;rft.aulast=&amp;rft.aufirst=&amp;rft.date=1862-12-18&amp;rft.volume=&amp;rft.issue=&amp;rft.spage=1&amp;rft.isbn=&amp;rft.btitle=&amp;rft.title=New+York+Times+%281857-1922%29&amp;rft.issn=03624331,ProQuest Historical Newspapers: The New York Times (1851-2009) with Index (1851-1993)
FROM THE ARMY OF THE POTOMAC,,91647212,Historical Newspapers,," Copyright New York Times Company Dec 18, 1862"," 90526734-1 , 1524368 , 113715", front_page," Dec 18, 1862",0362-4331, English, English, 1," New York, N.Y.","Dec 18, 1862",New York Times (1857-1922),1862,http://search.proquest.com/docview/91647212?accountid=13567, 1,http://openurl.lib.rochester.edu/find?ctx_ver=Z39.88-2004&amp;ctx_enc=info:ofi/enc:UTF-8&amp;rfr_id=info:sid/ProQ%3Ahnpnewyorktimeswindex&amp;rft_val_fmt=info:ofi/fmt:kev:mtx:journal&amp;rft.genre=unknown&amp;rft.jtitle=New+York+Times+%281857-1922%29&amp;rft.atitle=FROM+THE+ARMY+OF+THE+POTOMAC%3A+GEN.+BURNSIDE%27S+REASONS+FOR+RECROSSING+THE+RAPPAHANNOCK.THE+EVACUATION+A+MILITARY+NECESSITY.SURPRISE+OF+THE+REBELS+ON+DISCOVERING+THE+MOVEMENT.+HOW+THE+RETREAT+WAS+CONDUCTED+NO+MOVEMENT+OF+IMPORTANCE+YESTERDAY+THE+REBELS+STILL+STRENGTHENING+THEIR+FORTIFICATIONS.+OUR+ARMY+LARGELY+REINFORCED+A+DISPATCH+FROM+GEN.+BURNSIDE.&amp;rft.au=&amp;rft.aulast=&amp;rft.aufirst=&amp;rft.date=1862-12-18&amp;rft.volume=&amp;rft.issue=&amp;rft.spage=1&amp;rft.isbn=&amp;rft.btitle=&amp;rft.title=New+York+Times+%281857-1922%29&amp;rft.issn=03624331,ProQuest Historical Newspapers: The New York Times (1851-2009) with Index (1851-1993)
OUR SPECIAL ARMY CORRESPONDENCE.,"The whole country will experience a sense of relief at the announcement that the Union Army has been successfully withdrawn from its position before the rebel Malakoff at Fredericksburgh, to the north bank of the Rappahannock; that the sick and wounded have been safely removed; the entire materiel of the army saved, and the forces placed in a",91645182,Historical Newspapers,," Copyright New York Times Company Dec 18, 1862"," 90526737 , 1524368 , 113715", front_page," Dec 18, 1862",0362-4331, English, English, 1," New York, N.Y.","Dec 18, 1862",New York Times (1857-1922),1862,http://search.proquest.com/docview/91645182?accountid=13567, 1,http://openurl.lib.rochester.edu/find?ctx_ver=Z39.88-2004&amp;ctx_enc=info:ofi/enc:UTF-8&amp;rfr_id=info:sid/ProQ%3Ahnpnewyorktimeswindex&amp;rft_val_fmt=info:ofi/fmt:kev:mtx:journal&amp;rft.genre=unknown&amp;rft.jtitle=New+York+Times+%281857-1922%29&amp;rft.atitle=OUR+SPECIAL+ARMY+CORRESPONDENCE.%3A+WITHDRAWAL+OF+THE+NATIONAL+FORCES+TO+THE+NORTH+BANK+OF+THE+RAPPAHANNOCK-HOW+THE+MOVEMENT+WAS+ACCOMPLISHED--REMOVAL+OF+THE+SICK+AND+WOUNDED.&amp;rft.au=&amp;rft.aulast=&amp;rft.aufirst=&amp;rft.date=1862-12-18&amp;rft.volume=&amp;rft.issue=&amp;rft.spage=1&amp;rft.isbn=&amp;rft.btitle=&amp;rft.title=New+York+Times+%281857-1922%29&amp;rft.issn=03624331,ProQuest Historical Newspapers: The New York Times (1851-2009) with Index (1851-1993)
GEN. BURNSIDE'S SUNDAY DISPATCH.,,91652228,Historical Newspapers,," Copyright New York Times Company Dec 18, 1862"," 90526735 , 1524368 , 113715", front_page," Dec 18, 1862",0362-4331, English, English, 1," New York, N.Y.","Dec 18, 1862",New York Times (1857-1922),1862,http://search.proquest.com/docview/91652228?accountid=13567, 1,http://openurl.lib.rochester.edu/find?ctx_ver=Z39.88-2004&amp;ctx_enc=info:ofi/enc:UTF-8&amp;rfr_id=info:sid/ProQ%3Ahnpnewyorktimeswindex&amp;rft_val_fmt=info:ofi/fmt:kev:mtx:journal&amp;rft.genre=unknown&amp;rft.jtitle=New+York+Times+%281857-1922%29&amp;rft.atitle=GEN.+BURNSIDE%27S+SUNDAY+DISPATCH.&amp;rft.au=&amp;rft.aulast=&amp;rft.aufirst=&amp;rft.date=1862-12-18&amp;rft.volume=&amp;rft.issue=&amp;rft.spage=1&amp;rft.isbn=&amp;rft.btitle=&amp;rft.title=New+York+Times+%281857-1922%29&amp;rft.issn=03624331,ProQuest Historical Newspapers: The New York Times (1851-2009) with Index (1851-1993)
THE COURT-MARTIAL OF GEN. PORTER.,"All the members of the Court were present this morning. Testimony of Gen. McDowell resumed--Q.--By Judge Holt--From the extent of the ground occupied by Gen. Porter's corps, how many men had he at his disposal? How many do you suppose he had?",91647435,Historical Newspapers," From Our Own Correspondent.
From Our Own Correspondent."," Copyright New York Times Company Dec 18, 1862"," 90526743 , 1524368 , 113715", front_page," Dec 18, 1862",0362-4331, English, English, 2," New York, N.Y.","Dec 18, 1862",New York Times (1857-1922),1862,http://search.proquest.com/docview/91647435?accountid=13567, 2,http://openurl.lib.rochester.edu/find?ctx_ver=Z39.88-2004&amp;ctx_enc=info:ofi/enc:UTF-8&amp;rfr_id=info:sid/ProQ%3Ahnpnewyorktimeswindex&amp;rft_val_fmt=info:ofi/fmt:kev:mtx:journal&amp;rft.genre=unknown&amp;rft.jtitle=New+York+Times+%281857-1922%29&amp;rft.atitle=THE+COURT-MARTIAL+OF+GEN.+PORTER.%3A+IMPORTANT+DISPATCHES+FROM+GEN.+PORTER+TO+GEN.+BURNSIDE--WHAT+GEN.+PORTER+THOUGHT+OF+THE+ARMY+OF+VIRGINIA--HIS+DESIRE+TO+LEAVE+IT.&amp;rft.au=From+Our+Own+Correspondent.&amp;rft.aulast=From+Our+Own+Correspondent.&amp;rft.aufirst=&amp;rft.date=1862-12-18&amp;rft.volume=&amp;rft.issue=&amp;rft.spage=2&amp;rft.isbn=&amp;rft.btitle=&amp;rft.title=New+York+Times+%281857-1922%29&amp;rft.issn=03624331,ProQuest Historical Newspapers: The New York Times (1851-2009) with Index (1851-1993)
FROM THE ARMY OF THE POTOMAC.,During last night the Army of the Potomac evacuated their positions on the opposite side of the river.,91694162,Historical Newspapers,," Copyright New York Times Company Dec 17, 1862"," 90526204-1 , 1524363 , 113715", front_page," Dec 17, 1862",0362-4331, English, English, 1," New York, N.Y.","Dec 17, 1862",New York Times (1857-1922),1862,http://search.proquest.com/docview/91694162?accountid=13567, 1,http://openurl.lib.rochester.edu/find?ctx_ver=Z39.88-2004&amp;ctx_enc=info:ofi/enc:UTF-8&amp;rfr_id=info:sid/ProQ%3Ahnpnewyorktimeswindex&amp;rft_val_fmt=info:ofi/fmt:kev:mtx:journal&amp;rft.genre=unknown&amp;rft.jtitle=New+York+Times+%281857-1922%29&amp;rft.atitle=FROM+THE+ARMY+OF+THE+POTOMAC.%3A+EVACUATION+OF+FREDERICKSBURGH+BY+OUR+FORCES.+THE+ARMY+AGAIN+ON+THE+FALMOUTH+SIDE+OF+THE+RAPPAHANNOCK.+THE+MOVEMENT+EXECUTED+WITH+SUCCESS.+THE+WOUNDED+ALL+SAFE.+FULL+DESCRIPTION+OF+THE+TERRIBLE+BATTLE+OF+SATURDAY.+OUR+LOSSES+FROM+TEN+TO+FIFTEEN+THOUSAND.+INCIDENTS+OF+THE+DAY.&amp;rft.au=&amp;rft.aulast=&amp;rft.aufirst=&amp;rft.date=1862-12-17&amp;rft.volume=&amp;rft.issue=&amp;rft.spage=1&amp;rft.isbn=&amp;rft.btitle=&amp;rft.title=New+York+Times+%281857-1922%29&amp;rft.issn=03624331,ProQuest Historical Newspapers: The New York Times (1851-2009) with Index (1851-1993)
SPECIAL DISPATCH FROM WASHINGTON.,"Sabbath with the Army of the Potomac passed with comparative quiet, and there was only occasional bring between pickets, and desultory shots from the enemy's batteries. The movement of the army on its withdrawal from Fredericsburgh to the north bank of the Rappahannock began at dark on Monday night, and was successfully accomplished",91685372,Historical Newspapers,," Copyright New York Times Company Dec 17, 1862"," 90526205 , 1524363 , 113715", front_page," Dec 17, 1862",0362-4331, English, English, 1," New York, N.Y.","Dec 17, 1862",New York Times (1857-1922),1862,http://search.proquest.com/docview/91685372?accountid=13567, 1,http://openurl.lib.rochester.edu/find?ctx_ver=Z39.88-2004&amp;ctx_enc=info:ofi/enc:UTF-8&amp;rfr_id=info:sid/ProQ%3Ahnpnewyorktimeswindex&amp;rft_val_fmt=info:ofi/fmt:kev:mtx:journal&amp;rft.genre=unknown&amp;rft.jtitle=New+York+Times+%281857-1922%29&amp;rft.atitle=SPECIAL+DISPATCH+FROM+WASHINGTON.%3A+FROM+THE+ARMY+OF+THE+POTOMAC&amp;rft.au=&amp;rft.aulast=&amp;rft.aufirst=&amp;rft.date=1862-12-17&amp;rft.volume=&amp;rft.issue=&amp;rft.spage=1&amp;rft.isbn=&amp;rft.btitle=&amp;rft.title=New+York+Times+%281857-1922%29&amp;rft.issn=03624331,ProQuest Historical Newspapers: The New York Times (1851-2009) with Index (1851-1993)
THE BATTLE OF FREDERICKSBURG.,"The battle of Fredericksburgh, which has been raging since 10 o'clock this morning, without a moment's pause, was closed by darkness to-night.",91706057,Historical Newspapers,," Copyright New York Times Company Dec 17, 1862"," 90526206-1 , 1524363 , 113715", front_page," Dec 17, 1862",0362-4331, English, English, 1," New York, N.Y.","Dec 17, 1862",New York Times (1857-1922),1862,http://search.proquest.com/docview/91706057?accountid=13567, 1,http://openurl.lib.rochester.edu/find?ctx_ver=Z39.88-2004&amp;ctx_enc=info:ofi/enc:UTF-8&amp;rfr_id=info:sid/ProQ%3Ahnpnewyorktimeswindex&amp;rft_val_fmt=info:ofi/fmt:kev:mtx:journal&amp;rft.genre=unknown&amp;rft.jtitle=New+York+Times+%281857-1922%29&amp;rft.atitle=THE+BATTLE+OF+FREDERICKSBURG.%3A+FULL+AND+RELIABLE+DETAILS+FROM+OUR+SPECIAL+CORRESPONDENT.&amp;rft.au=&amp;rft.aulast=&amp;rft.aufirst=&amp;rft.date=1862-12-17&amp;rft.volume=&amp;rft.issue=&amp;rft.spage=1&amp;rft.isbn=&amp;rft.btitle=&amp;rft.title=New+York+Times+%281857-1922%29&amp;rft.issn=03624331,ProQuest Historical Newspapers: The New York Times (1851-2009) with Index (1851-1993)
THE OPERATIONS OF FRIDAY.,"As I stated in my last letter, the National troops occupy the town of Fredericksburgh. During the preceding night FRANKLIN'S and a portion of SUMMER'S Grand Divisions passed over the river and bivouacked on the opposite bank.",91682051,Historical Newspapers," From Our Special Correspondent.
From Our Special Correspondent."," Copyright New York Times Company Dec 16, 1862"," 90526013 , 1524361 , 113715", front_page," Dec 16, 1862",0362-4331, English, English, 1," New York, N.Y.","Dec 16, 1862",New York Times (1857-1922),1862,http://search.proquest.com/docview/91682051?accountid=13567, 1,http://openurl.lib.rochester.edu/find?ctx_ver=Z39.88-2004&amp;ctx_enc=info:ofi/enc:UTF-8&amp;rfr_id=info:sid/ProQ%3Ahnpnewyorktimeswindex&amp;rft_val_fmt=info:ofi/fmt:kev:mtx:journal&amp;rft.genre=unknown&amp;rft.jtitle=New+York+Times+%281857-1922%29&amp;rft.atitle=THE+OPERATIONS+OF+FRIDAY.%3A+CONTINUAL+SKIRMISHING+THROUGHOUT+THE+DAY+--ABOUT+TWO+HUNDRED+OF+OUR+MEN+KILLED+AND+WOUNDED%2C+%26+C.&amp;rft.au=From+Our+Special+Correspondent.&amp;rft.aulast=From+Our+Special+Correspondent.&amp;rft.aufirst=&amp;rft.date=1862-12-16&amp;rft.volume=&amp;rft.issue=&amp;rft.spage=1&amp;rft.isbn=&amp;rft.btitle=&amp;rft.title=New+York+Times+%281857-1922%29&amp;rft.issn=03624331,ProQuest Historical Newspapers: The New York Times (1851-2009) with Index (1851-1993)
GUNBOAT FIGHT ON THE RAPPAHANNOCK,"On Wednesday evening, our gunboats at Port Royal, about twenty-seven miles from Fredericksburgh, were fired into by a rebel battery from the shore supposed to number twenty heavy guns.",91688960,Historical Newspapers,," Copyright New York Times Company Dec 16, 1862"," 90526012 , 1524361 , 113715", front_page," Dec 16, 1862",0362-4331, English, English, 1," New York, N.Y.","Dec 16, 1862",New York Times (1857-1922),1862,http://search.proquest.com/docview/91688960?accountid=13567, 1,http://openurl.lib.rochester.edu/find?ctx_ver=Z39.88-2004&amp;ctx_enc=info:ofi/enc:UTF-8&amp;rfr_id=info:sid/ProQ%3Ahnpnewyorktimeswindex&amp;rft_val_fmt=info:ofi/fmt:kev:mtx:journal&amp;rft.genre=unknown&amp;rft.jtitle=New+York+Times+%281857-1922%29&amp;rft.atitle=GUNBOAT+FIGHT+ON+THE+RAPPAHANNOCK&amp;rft.au=&amp;rft.aulast=&amp;rft.aufirst=&amp;rft.date=1862-12-16&amp;rft.volume=&amp;rft.issue=&amp;rft.spage=1&amp;rft.isbn=&amp;rft.btitle=&amp;rft.title=New+York+Times+%281857-1922%29&amp;rft.issn=03624331,ProQuest Historical Newspapers: The New York Times (1851-2009) with Index (1851-1993)
REBEL REPORTS FROM FREDERICKSBURGH.,"Early yesterday morning intelligence was received in this city that the ball had opened in earnest at Fredericksburgh, and that, from the fight, there was little room to doubt a general engagement would ensue. Throughout the day anxiety was evinced to hear from the conflict, and as usual, rumors of every variety were most industriously circuiated. At an early hour yesterday morning the important rumor was buzzed in the streets that the long expected action at Fredericksburgh had at last commenced, and that we were engaged with the enemy in force. The authorities were, as usual, both costive and dilatory in giving out anything to gratify public curiosity; and it was intimated at the War Department, ... It is understood that the point at which the enemy effected a passage of the Rappahannock was at Deep Run, about two miles below Fredericksburgh. The Yankees are said to have secured a landing there on a low cape, and our guns were in a position to sweep their ranks on their reaching the table land extending toward Fredericksburgh.",91643368,Historical Newspapers,," Copyright New York Times Company Dec 16, 1862"," 90526019-1 , 1524361 , 113715", front_page," Dec 16, 1862",0362-4331, English, English, 1," New York, N.Y.","Dec 16, 1862",New York Times (1857-1922),1862,http://search.proquest.com/docview/91643368?accountid=13567, 1,http://openurl.lib.rochester.edu/find?ctx_ver=Z39.88-2004&amp;ctx_enc=info:ofi/enc:UTF-8&amp;rfr_id=info:sid/ProQ%3Ahnpnewyorktimeswindex&amp;rft_val_fmt=info:ofi/fmt:kev:mtx:journal&amp;rft.genre=unknown&amp;rft.jtitle=New+York+Times+%281857-1922%29&amp;rft.atitle=REBEL+REPORTS+FROM+FREDERICKSBURGH.%3A+THE+EVENTS+OF+THURSDAY+LAST.+FROM+THE+EXAMINER+OF+FRIDAY.+FURTHER+PARTICULARS%2C+INCIDENTS%2C+ETC.+LATER+ACCOUNTS.&amp;rft.au=&amp;rft.aulast=&amp;rft.aufirst=&amp;rft.date=1862-12-16&amp;rft.volume=&amp;rft.issue=&amp;rft.spage=1&amp;rft.isbn=&amp;rft.btitle=&amp;rft.title=New+York+Times+%281857-1922%29&amp;rft.issn=03624331,ProQuest Historical Newspapers: The New York Times (1851-2009) with Index (1851-1993)
OUR FORCE ON THE RAPPAHANNOCK,,91700826,Historical Newspapers,," Copyright New York Times Company Dec 16, 1862"," 90526059-1 , 1524361 , 113715", article," Dec 16, 1862",0362-4331, English, English, 4," New York, N.Y.","Dec 16, 1862",New York Times (1857-1922),1862,http://search.proquest.com/docview/91700826?accountid=13567, 4,http://openurl.lib.rochester.edu/find?ctx_ver=Z39.88-2004&amp;ctx_enc=info:ofi/enc:UTF-8&amp;rfr_id=info:sid/ProQ%3Ahnpnewyorktimeswindex&amp;rft_val_fmt=info:ofi/fmt:kev:mtx:journal&amp;rft.genre=article&amp;rft.jtitle=New+York+Times+%281857-1922%29&amp;rft.atitle=OUR+FORCE+ON+THE+RAPPAHANNOCK&amp;rft.au=&amp;rft.aulast=&amp;rft.aufirst=&amp;rft.date=1862-12-16&amp;rft.volume=&amp;rft.issue=&amp;rft.spage=4&amp;rft.isbn=&amp;rft.btitle=&amp;rft.title=New+York+Times+%281857-1922%29&amp;rft.issn=03624331,ProQuest Historical Newspapers: The New York Times (1851-2009) with Index (1851-1993)
The Non-Defence of the Rappahannock by Lee.,"Much astonishment has been expressed in some quarters that LEE did not interpose a more serious resistance to BURNSIDE'S crossing of the Rappahannock. Save the covert efforts of a few hundred sharpshooters, and the occasional firing of a few batteries, he ...",91643437,Historical Newspapers,," Copyright New York Times Company Dec 16, 1862"," 90526057-1 , 1524361 , 113715", article," Dec 16, 1862",0362-4331, English, English, 4," New York, N.Y.","Dec 16, 1862",New York Times (1857-1922),1862,http://search.proquest.com/docview/91643437?accountid=13567, 4,http://openurl.lib.rochester.edu/find?ctx_ver=Z39.88-2004&amp;ctx_enc=info:ofi/enc:UTF-8&amp;rfr_id=info:sid/ProQ%3Ahnpnewyorktimeswindex&amp;rft_val_fmt=info:ofi/fmt:kev:mtx:journal&amp;rft.genre=article&amp;rft.jtitle=New+York+Times+%281857-1922%29&amp;rft.atitle=The+Non-Defence+of+the+Rappahannock+by+Lee.&amp;rft.au=&amp;rft.aulast=&amp;rft.aufirst=&amp;rft.date=1862-12-16&amp;rft.volume=&amp;rft.issue=&amp;rft.spage=4&amp;rft.isbn=&amp;rft.btitle=&amp;rft.title=New+York+Times+%281857-1922%29&amp;rft.issn=03624331,ProQuest Historical Newspapers: The New York Times (1851-2009) with Index (1851-1993)
OUR SPECIAL ARMY CORRESPONDENCE.,"Affairs are rapidly culminating here, and the crises of battle, the grandest-probably the most decisive--of the war, approaches space.",91652760,Historical Newspapers," CAMP OPPOSITE FREDERICKSBURGH,
CAMP OPPOSITE FREDERICKSBURGH,"," Copyright New York Times Company Dec 15, 1862"," 90525544 , 1524356 , 113715", front_page," Dec 15, 1862",0362-4331, English, English, 1," New York, N.Y.","Dec 15, 1862",New York Times (1857-1922),1862,http://search.proquest.com/docview/91652760?accountid=13567, 1,http://openurl.lib.rochester.edu/find?ctx_ver=Z39.88-2004&amp;ctx_enc=info:ofi/enc:UTF-8&amp;rfr_id=info:sid/ProQ%3Ahnpnewyorktimeswindex&amp;rft_val_fmt=info:ofi/fmt:kev:mtx:journal&amp;rft.genre=unknown&amp;rft.jtitle=New+York+Times+%281857-1922%29&amp;rft.atitle=OUR+SPECIAL+ARMY+CORRESPONDENCE.%3A+DETAILS+OF+OPERATIONS+TO+SATURDAY+MORNING.+THE+CROSSING+OF+THE+RAPPAHANNOCK-THE+MOVEMENT+SPLENDIDLY+PERFORMED-PREPONDERANCEOF+THE+UNION+FORCES--CONDITION+OF+FREDCRICKSBURGH%2C+%26C.%2C+%26C.&amp;rft.au=CAMP+OPPOSITE+FREDERICKSBURGH%2C&amp;rft.aulast=CAMP+OPPOSITE+FREDERICKSBURGH&amp;rft.aufirst=&amp;rft.date=1862-12-15&amp;rft.volume=&amp;rft.issue=&amp;rft.spage=1&amp;rft.isbn=&amp;rft.btitle=&amp;rft.title=New+York+Times+%281857-1922%29&amp;rft.issn=03624331,ProQuest Historical Newspapers: The New York Times (1851-2009) with Index (1851-1993)
IMPORTANT FROM VIRGINIA.,"The great battle, so long anticipated between the two contending armies, is now progressing. Last night our troops wrere rapidly pushed across the river, and every preparation made for a battle. Gen. FRANKLIN's Division crossed two miles below the city, while Gen. SUMNER'S troops occupied a portion of the town. Gen. FRANKLIN's line was moved forward at sunrise, with his right resting on Fredericksburgh, his centre advanced a mile from the river, and his left resting on the river three miles below.",91652701,Historical Newspapers," HEADQUARTERS OF THE ARMY OF THE POTOMAC.FROM ANOTHER CORRESPONDENT.
HEADQUARTERS OF THE ARMY OF THE POTOMAC.FROM ANOTHER CORRESPONDENT."," Copyright New York Times Company Dec 15, 1862"," 90525541 , 1524356 , 113715", front_page," Dec 15, 1862",0362-4331, English, English, 1," New York, N.Y.","Dec 15, 1862",New York Times (1857-1922),1862,http://search.proquest.com/docview/91652701?accountid=13567, 1,http://openurl.lib.rochester.edu/find?ctx_ver=Z39.88-2004&amp;ctx_enc=info:ofi/enc:UTF-8&amp;rfr_id=info:sid/ProQ%3Ahnpnewyorktimeswindex&amp;rft_val_fmt=info:ofi/fmt:kev:mtx:journal&amp;rft.genre=unknown&amp;rft.jtitle=New+York+Times+%281857-1922%29&amp;rft.atitle=IMPORTANT+FROM+VIRGINIA.%3A+THE+GREAT+BATTLE+FOUGHT+ON+SATURDAY+AT+FREDERICKSBURGH.+STORMING+OF+THE+FIRST+LINE+OF+THE+ENEMY%27S+WORKS.+FAILURE+TO+CARRY+THE+POSITION.+TERRIFIC+FIGHTING+UNTIL+DARK.+SPLENDID+SUCCESS+OF+GEN.+FRANKLIN+ON+THE+LEFT.STONEWALL+JACKSON+DRIVEN+BACK+ABOUTA+MILE.SEVERAL+HUNDRED+PRISONERSCAPTURED.+A+NUMBER+OF+OUR+GENERAL+OFFICERS+KILLED+AND+WOUNDED.NO+GENERAL+ENGAGEMENT+YESTERDAY.THE+OPERATIONS+OF+SATURDAY.+HEADQUARTERS+ARMY+OF+THE+POTOMAC%2C&amp;rft.au=HEADQUARTERS+OF+THE+ARMY+OF+THE+POTOMAC.FROM+ANOTHER+CORRESPONDENT.&amp;rft.aulast=HEADQUARTERS+OF+THE+ARMY+OF+THE+POTOMAC.FROM+ANOTHER+CORRESPONDENT.&amp;rft.aufirst=&amp;rft.date=1862-12-15&amp;rft.volume=&amp;rft.issue=&amp;rft.spage=1&amp;rft.isbn=&amp;rft.btitle=&amp;rft.title=New+York+Times+%281857-1922%29&amp;rft.issn=03624331,ProQuest Historical Newspapers: The New York Times (1851-2009) with Index (1851-1993)
LIST OF CASUALITIES.,,91662075,Historical Newspapers,," Copyright New York Times Company Dec 15, 1862"," 90525545 , 1524356 , 113715", front_page," Dec 15, 1862",0362-4331, English, English, 1," New York, N.Y.","Dec 15, 1862",New York Times (1857-1922),1862,http://search.proquest.com/docview/91662075?accountid=13567, 1,http://openurl.lib.rochester.edu/find?ctx_ver=Z39.88-2004&amp;ctx_enc=info:ofi/enc:UTF-8&amp;rfr_id=info:sid/ProQ%3Ahnpnewyorktimeswindex&amp;rft_val_fmt=info:ofi/fmt:kev:mtx:journal&amp;rft.genre=unknown&amp;rft.jtitle=New+York+Times+%281857-1922%29&amp;rft.atitle=LIST+OF+CASUALITIES.%3A+KILLED+AND+WOUNDED+AT+THE+BATTLE+OF+FREDERICKSBURGH.+TWENTIETH+MASSACHUSETTS.&amp;rft.au=&amp;rft.aulast=&amp;rft.aufirst=&amp;rft.date=1862-12-15&amp;rft.volume=&amp;rft.issue=&amp;rft.spage=1&amp;rft.isbn=&amp;rft.btitle=&amp;rft.title=New+York+Times+%281857-1922%29&amp;rft.issn=03624331,ProQuest Historical Newspapers: The New York Times (1851-2009) with Index (1851-1993)
REBEL ACCOUNTS FROM FREDERICKSBURGH.,"The Richmond Inquirer, of the 17th, has the following:",91646432,Historical Newspapers,," Copyright New York Times Company Dec 15, 1862"," 90525547 , 1524356 , 113715", front_page," Dec 15, 1862",0362-4331, English, English, 1," New York, N.Y.","Dec 15, 1862",New York Times (1857-1922),1862,http://search.proquest.com/docview/91646432?accountid=13567, 1,http://openurl.lib.rochester.edu/find?ctx_ver=Z39.88-2004&amp;ctx_enc=info:ofi/enc:UTF-8&amp;rfr_id=info:sid/ProQ%3Ahnpnewyorktimeswindex&amp;rft_val_fmt=info:ofi/fmt:kev:mtx:journal&amp;rft.genre=unknown&amp;rft.jtitle=New+York+Times+%281857-1922%29&amp;rft.atitle=REBEL+ACCOUNTS+FROM+FREDERICKSBURGH.&amp;rft.au=&amp;rft.aulast=&amp;rft.aufirst=&amp;rft.date=1862-12-15&amp;rft.volume=&amp;rft.issue=&amp;rft.spage=1&amp;rft.isbn=&amp;rft.btitle=&amp;rft.title=New+York+Times+%281857-1922%29&amp;rft.issn=03624331,ProQuest Historical Newspapers: The New York Times (1851-2009) with Index (1851-1993)
THE LEFT GRAND DIVISION.,"At sunset last evening the first troops of the left wing of the army crossed to this side of the Rappahannock. Gen. NEWTON'S Division came over, the seacond Rhode-lsland being in the advance and moving in "" double quick."" It was",91675535,Historical Newspapers," BERNARD'S PLANTATION,ONE MILE AND A HALF BELOW FREDERICKSBURGH,
BERNARD'S PLANTATION,ONE MILE AND A HALF BELOW FREDERICKSBURGH,"," Copyright New York Times Company Dec 15, 1862"," 90525546-1 , 1524356 , 113715", front_page," Dec 15, 1862",0362-4331, English, English, 1," New York, N.Y.","Dec 15, 1862",New York Times (1857-1922),1862,http://search.proquest.com/docview/91675535?accountid=13567, 1,http://openurl.lib.rochester.edu/find?ctx_ver=Z39.88-2004&amp;ctx_enc=info:ofi/enc:UTF-8&amp;rfr_id=info:sid/ProQ%3Ahnpnewyorktimeswindex&amp;rft_val_fmt=info:ofi/fmt:kev:mtx:journal&amp;rft.genre=unknown&amp;rft.jtitle=New+York+Times+%281857-1922%29&amp;rft.atitle=THE+LEFT+GRAND+DIVISION.%3A+DETAILS+OF+THE+CROSSING+OF+GEN.FRANKLIN%27S+COMMAND+BELOW+FREDERICKSBURG.&amp;rft.au=BERNARD%27S+PLANTATION%2CONE+MILE+AND+A+HALF+BELOW+FREDERICKSBURGH%2C&amp;rft.aulast=BERNARD%27S+PLANTATION&amp;rft.aufirst=ONE+MILE+AND+A+HALF+BELOW&amp;rft.date=1862-12-15&amp;rft.volume=&amp;rft.issue=&amp;rft.spage=1&amp;rft.isbn=&amp;rft.btitle=&amp;rft.title=New+York+Times+%281857-1922%29&amp;rft.issn=03624331,ProQuest Historical Newspapers: The New York Times (1851-2009) with Index (1851-1993)
The Battle of Saturday.,"The action of Saturday is evidently to be classed with the great battles of the war. The whole of the Richmond Rebel Army seems to have been in the field, though, we are sorry to say, it does not appear that it",91665198,Historical Newspapers,," Copyright New York Times Company Dec 15, 1862"," 90525568 , 1524356 , 113715", article," Dec 15, 1862",0362-4331, English, English, 4," New York, N.Y.","Dec 15, 1862",New York Times (1857-1922),1862,http://search.proquest.com/docview/91665198?accountid=13567, 4,http://openurl.lib.rochester.edu/find?ctx_ver=Z39.88-2004&amp;ctx_enc=info:ofi/enc:UTF-8&amp;rfr_id=info:sid/ProQ%3Ahnpnewyorktimeswindex&amp;rft_val_fmt=info:ofi/fmt:kev:mtx:journal&amp;rft.genre=article&amp;rft.jtitle=New+York+Times+%281857-1922%29&amp;rft.atitle=The+Battle+of+Saturday.&amp;rft.au=&amp;rft.aulast=&amp;rft.aufirst=&amp;rft.date=1862-12-15&amp;rft.volume=&amp;rft.issue=&amp;rft.spage=4&amp;rft.isbn=&amp;rft.btitle=&amp;rft.title=New+York+Times+%281857-1922%29&amp;rft.issn=03624331,ProQuest Historical Newspapers: The New York Times (1851-2009) with Index (1851-1993)
A GREAT BATTLE.,"The great battle, so long anticipated between the two contending armies, is now progressing.",91689667,Historical Newspapers,," Copyright New York Times Company Dec 14, 1862"," 90525139-1 , 1524352 , 113715", front_page," Dec 14, 1862",0362-4331, English, English, 1," New York, N.Y.","Dec 14, 1862",New York Times (1857-1922),1862,http://search.proquest.com/docview/91689667?accountid=13567, 1,http://openurl.lib.rochester.edu/find?ctx_ver=Z39.88-2004&amp;ctx_enc=info:ofi/enc:UTF-8&amp;rfr_id=info:sid/ProQ%3Ahnpnewyorktimeswindex&amp;rft_val_fmt=info:ofi/fmt:kev:mtx:journal&amp;rft.genre=unknown&amp;rft.jtitle=New+York+Times+%281857-1922%29&amp;rft.atitle=A+GREAT+BATTLE.%3A+COMMENCEMENT+OF+THE+STRUGGLE+AT+FREDERICKSBURGH.+THE+ACTION+BEGUN+AT+9%3A15+A.M.+YESTERDAY.+GEN.+REYNOLDS%27+CORPS+ENGAGED+WITH+THE+ENEMY%27S+INFANTRY.+A+HEAVY+FIRE+OF+ARTILLERY+OPENED+BY+THE+REBELS.+OUR+HEAVY+GUNS+RESPONDING.+A+DENSE+FOG+INTERFERING+WITH+OPERATIONS.+A+REBEL+CAVALRY+FORCE+ACROSS+THE+RAPPAHANNOCK.+A+RAID+ON+DUMFRIES.+FURTHER+DETAILS+OF+THE+PRELIMINARY+MOVEMENTS.&amp;rft.au=&amp;rft.aulast=&amp;rft.aufirst=&amp;rft.date=1862-12-14&amp;rft.volume=&amp;rft.issue=&amp;rft.spage=1&amp;rft.isbn=&amp;rft.btitle=&amp;rft.title=New+York+Times+%281857-1922%29&amp;rft.issn=03624331,ProQuest Historical Newspapers: The New York Times (1851-2009) with Index (1851-1993)
THE PREPARATIONS FOR ACTION.,"The Army of the Potomac are on the move, and are about to cross the river to occupy Fredericksburgh. The council of Generals, which was held yesterday, fully acquiesced in the plan of now making the attack directly in front of and near the town, above and below. A series of ingenious moves and changes of the Union forces during the past week have had the effect to mislead the enemy, and to make the crossing here, instead of above or below, where the rebels evidently expected us, the most practicable mode of attack.",91677269,Historical Newspapers,," Copyright New York Times Company Dec 14, 1862"," 90525142 , 1524352 , 113715", front_page," Dec 14, 1862",0362-4331, English, English, 1," New York, N.Y.","Dec 14, 1862",New York Times (1857-1922),1862,http://search.proquest.com/docview/91677269?accountid=13567, 1,http://openurl.lib.rochester.edu/find?ctx_ver=Z39.88-2004&amp;ctx_enc=info:ofi/enc:UTF-8&amp;rfr_id=info:sid/ProQ%3Ahnpnewyorktimeswindex&amp;rft_val_fmt=info:ofi/fmt:kev:mtx:journal&amp;rft.genre=unknown&amp;rft.jtitle=New+York+Times+%281857-1922%29&amp;rft.atitle=THE+PREPARATIONS+FOR+ACTION.%3A+REASONS+FOR+A+CONCENTRATED+ATTRACK+AT+FREDERICKSBURGH--THE+WORK+ON+THE+DAY+AND+NIGHT+OF+THE+10TH--THE+CROSSING+ON+THE+11TH--FULL+AND+INTERESTING+DETAILS.&amp;rft.au=&amp;rft.aulast=&amp;rft.aufirst=&amp;rft.date=1862-12-14&amp;rft.volume=&amp;rft.issue=&amp;rft.spage=1&amp;rft.isbn=&amp;rft.btitle=&amp;rft.title=New+York+Times+%281857-1922%29&amp;rft.issn=03624331,ProQuest Historical Newspapers: The New York Times (1851-2009) with Index (1851-1993)
OUR SPECIAL ARMY CORRESPONDENCE.,Much perseverance and powder have once more placed this rebellious city within our power But how marked the contrast between the Fredericksburgh of to-day and the Fredericksburgh which we occupied last April?,91689556,Historical Newspapers,," Copyright New York Times Company Dec 14, 1862"," 90525141 , 1524352 , 113715", front_page," Dec 14, 1862",0362-4331, English, English, 1," New York, N.Y.","Dec 14, 1862",New York Times (1857-1922),1862,http://search.proquest.com/docview/91689556?accountid=13567, 1,http://openurl.lib.rochester.edu/find?ctx_ver=Z39.88-2004&amp;ctx_enc=info:ofi/enc:UTF-8&amp;rfr_id=info:sid/ProQ%3Ahnpnewyorktimeswindex&amp;rft_val_fmt=info:ofi/fmt:kev:mtx:journal&amp;rft.genre=unknown&amp;rft.jtitle=New+York+Times+%281857-1922%29&amp;rft.atitle=OUR+SPECIAL+ARMY+CORRESPONDENCE.%3A+THE+OPERATIONS+OF+WEDNESDAY+NIGHT+AND+THURSDAY.+THE+BUILDING+OF+THE+PONTOON+BRIDGES+AND+THE+CROSSING+OF+OUR+FORCES.&amp;rft.au=&amp;rft.aulast=&amp;rft.aufirst=&amp;rft.date=1862-12-14&amp;rft.volume=&amp;rft.issue=&amp;rft.spage=1&amp;rft.isbn=&amp;rft.btitle=&amp;rft.title=New+York+Times+%281857-1922%29&amp;rft.issn=03624331,ProQuest Historical Newspapers: The New York Times (1851-2009) with Index (1851-1993)
FROM THE ARMY OF THE POTOMAC,"After occupying the river-front of the city last night, we lost about one hundred men in killed and wounded, while driving the rebels through",91683011,Historical Newspapers,," Copyright New York Times Company Dec 13, 1862"," 90524815 , 1524349 , 113715", front_page," Dec 13, 1862",0362-4331, English, English, 1," New York, N.Y.","Dec 13, 1862",New York Times (1857-1922),1862,http://search.proquest.com/docview/91683011?accountid=13567, 1,http://openurl.lib.rochester.edu/find?ctx_ver=Z39.88-2004&amp;ctx_enc=info:ofi/enc:UTF-8&amp;rfr_id=info:sid/ProQ%3Ahnpnewyorktimeswindex&amp;rft_val_fmt=info:ofi/fmt:kev:mtx:journal&amp;rft.genre=unknown&amp;rft.jtitle=New+York+Times+%281857-1922%29&amp;rft.atitle=FROM+THE+ARMY+OF+THE+POTOMAC%3A+THE+GREAT+BATTLE+NOT+YET+COMMENCED.+OUR+TROOPS+ALL+OVER+THE+RAPPAHANNOCK+IN+GOOD+ORDER.+TWO+LINES+OF+REBEL+BATTERIES+IN+THE+REAR+OF+FREDERICKSBURGH.+ALL+THE+GUNS+IN+THE+FIRST+LINE+OPENED+UPON+OUR+TROOPS.+VERY+LITTLE+HARM+DONE+THE+REBEL+FIRE+SILENCED+BY+OUR+BATTERIES.THE+REBEL+FORCES+CONCENTRATED+AND+A+BATTLE+PROBABLE+TO-DAY.&amp;rft.au=&amp;rft.aulast=&amp;rft.aufirst=&amp;rft.date=1862-12-13&amp;rft.volume=&amp;rft.issue=&amp;rft.spage=1&amp;rft.isbn=&amp;rft.btitle=&amp;rft.title=New+York+Times+%281857-1922%29&amp;rft.issn=03624331,ProQuest Historical Newspapers: The New York Times (1851-2009) with Index (1851-1993)
THE OPERATIONS OF THURSDAY.,"FREDBRICKSBURGH, Va., Thursday Night, Dec. 11, I localize this letter Fredericksburgh, but it is assuredly ""living"" Fredericksburgh ""no more."" A city soulless, rent by wrack of war, and shooting up in flames athwart night's sky, is the pretty little antique spot by the Rappahannock, erewhite the peculiar scene of dignified case and retirement.",91730398,Historical Newspapers," Telegraphic Dispatch Via Washington.
Telegraphic Dispatch Via Washington."," Copyright New York Times Company Dec 13, 1862"," 90524816-1 , 1524349 , 113715", front_page," Dec 13, 1862",0362-4331, English, English, 1," New York, N.Y.","Dec 13, 1862",New York Times (1857-1922),1862,http://search.proquest.com/docview/91730398?accountid=13567, 1,http://openurl.lib.rochester.edu/find?ctx_ver=Z39.88-2004&amp;ctx_enc=info:ofi/enc:UTF-8&amp;rfr_id=info:sid/ProQ%3Ahnpnewyorktimeswindex&amp;rft_val_fmt=info:ofi/fmt:kev:mtx:journal&amp;rft.genre=unknown&amp;rft.jtitle=New+York+Times+%281857-1922%29&amp;rft.atitle=THE+OPERATIONS+OF+THURSDAY.%3A+FALL+PARTICULARS+FROM+OUR+SPECIAL+CORRESPONDENT.&amp;rft.au=Telegraphic+Dispatch+Via+Washington.&amp;rft.aulast=Telegraphic+Dispatch+Via+Washington.&amp;rft.aufirst=&amp;rft.date=1862-12-13&amp;rft.volume=&amp;rft.issue=&amp;rft.spage=1&amp;rft.isbn=&amp;rft.btitle=&amp;rft.title=New+York+Times+%281857-1922%29&amp;rft.issn=03624331,ProQuest Historical Newspapers: The New York Times (1851-2009) with Index (1851-1993)
