Title,Abstract,StoreId,ArticleType,Authors,copyright,digitalObjectIdentifier,documentType,entryDate,issn,language,languageOfSummary,pages,placeOfPublication,pubdate,pubtitle,year,DocumentURL,startPage,FindACopy,Database
GRANT'S ARMY.,"To Maj.-Gen. Dix: A dispatch from Maj.-Gen. Banks, dated May 21, on the Mississippi River, was received to-day. It details the brilliant engineering achievement of Col. BAILEY, in constructing a dam across the falls of Red River for the relief of the gunboat fleet, the particulars of which have already been made public.",91815199,Historical Newspapers,," Copyright New York Times Company May 28, 1864"," 80295265-1 , 1459061 , 113715", front_page," May 28, 1864",0362-4331, English, English, 1," New York, N.Y.","May 28, 1864",New York Times (1857-1922),1864,http://search.proquest.com/docview/91815199?accountid=13567, 1,http://openurl.lib.rochester.edu/find?ctx_ver=Z39.88-2004&amp;ctx_enc=info:ofi/enc:UTF-8&amp;rfr_id=info:sid/ProQ%3Ahnpnewyorktimeswindex&amp;rft_val_fmt=info:ofi/fmt:kev:mtx:journal&amp;rft.genre=unknown&amp;rft.jtitle=New+York+Times+%281857-1922%29&amp;rft.atitle=GRANT%27S+ARMY.%3A+THE+ADVANCE+UPON+RICHMOND.+HOW+LEE+WAS+OUTFLANKED.+THE+REASON+WHY+IT+WAS+DONE.+HERCULEAN+FEATS+OF+MARCHING+BY+OUR+ARMY.+THE+SPIRITED+CONFLICTS+ON+THE+NORTH+ANNA.+HOW+THE+REBELS+WERE+BEATEN+AND+THE+RIVER+CROSSED.+FULL+DETAILS+FROM+OUR+SPECIAL+CORRESPONDENT.+ARRIVAL+OF+GEN.+BANKS+AT+THE+MISSISSIPPI--+TWO+FIGHTS+WITH+THE+REBELS--NO+FURTHER+NEWS+FROM+GRANT%2C+SHERMAN+OR+BUTLER%2C+DISPATCH+FROM+SECRETARY+STANTON.+DETAILS+OF+THE+MOVEMENT.+GEN.+GRANT%27S+MOVEMENTS--WOUNDED+OFFICERS+ARRIVED+AT+WASHINGTON.+ABANDONMENT+OF+FREDERICKSBURGH+AND+AQULA+CREEK--CAPTURE+OF+GUERRILLAS--INFAMOUS+ATTEMPT+TO+POISON+WOUNDED+SOLDIERS--THE+WRETCH+IN+DURANCE+VILE.+THE+OPERATIONS+OF+MOSEBY--THE+FREDERICKSBURGH+HOSTAGES.+BATTLE+REPORTS+VIA+PHILADELPHIA.+GEN.+BUTLER%27S+ARMY.+SITUATION+OF+AFFAIRS+AT+BERMUDA+HUNDRED.+ALL+QUIET+AT+BERMUDA.&amp;rft.au=&amp;rft.aulast=&amp;rft.aufirst=&amp;rft.date=1864-05-28&amp;rft.volume=&amp;rft.issue=&amp;rft.spage=1&amp;rft.isbn=&amp;rft.btitle=&amp;rft.title=New+York+Times+%281857-1922%29&amp;rft.issn=03624331,ProQuest Historical Newspapers: The New York Times (1851-2009) with Index (1851-1993)
THE FLANK MOVEMENT.,"The Army of the Potomac is again on the march toward Richmond. During the night, HANCOCK'S corps, which had held the left of our lines in front of Spottsylvania Court-house, took up its march, ...",91865144,Historical Newspapers," From Our Special Correspondent.
From Our Special Correspondent."," Copyright New York Times Company May 24, 1864"," 78724531-1 , 1446318 , 113715", front_page," May 24, 1864",0362-4331, English, English, 1," New York, N.Y.","May 24, 1864",New York Times (1857-1922),1864,http://search.proquest.com/docview/91865144?accountid=13567, 1,http://openurl.lib.rochester.edu/find?ctx_ver=Z39.88-2004&amp;ctx_enc=info:ofi/enc:UTF-8&amp;rfr_id=info:sid/ProQ%3Ahnpnewyorktimeswindex&amp;rft_val_fmt=info:ofi/fmt:kev:mtx:journal&amp;rft.genre=unknown&amp;rft.jtitle=New+York+Times+%281857-1922%29&amp;rft.atitle=THE+FLANK+MOVEMENT.%3A+LEE%27S+RIGHT+FLANK+EFFECTUALLY+TURNED+OUR+ADVANCE+EIGHTEEN+MILES+SOUTH+OF+SPOTTSYLVANIA+ON+SATURDAY-LEE+FALLING+BACK+HARD+FIGHTING+EXPECTED.&amp;rft.au=From+Our+Special+Correspondent.&amp;rft.aulast=From+Our+Special+Correspondent.&amp;rft.aufirst=&amp;rft.date=1864-05-24&amp;rft.volume=&amp;rft.issue=&amp;rft.spage=1&amp;rft.isbn=&amp;rft.btitle=&amp;rft.title=New+York+Times+%281857-1922%29&amp;rft.issn=03624331,ProQuest Historical Newspapers: The New York Times (1851-2009) with Index (1851-1993)
FROM SPOTTSYLVANIA COURT-HOUSE.,"IN THE FIELD, Wednesday, may 18,1864. The centre is the key of our present position... From Ny Run the ground, by a succession of gradations, reaches a very commanding height, and plainly overlooks a large field of open country, which is be-...",91748241,Historical Newspapers," Correspondence of the Washington Chronicle.
Correspondence of the Washington Chronicle."," Copyright New York Times Company May 23, 1864"," 80295107 , 1459058 , 113715", front_page," May 23, 1864",0362-4331, English, English, 1," New York, N.Y.","May 23, 1864",New York Times (1857-1922),1864,http://search.proquest.com/docview/91748241?accountid=13567, 1,http://openurl.lib.rochester.edu/find?ctx_ver=Z39.88-2004&amp;ctx_enc=info:ofi/enc:UTF-8&amp;rfr_id=info:sid/ProQ%3Ahnpnewyorktimeswindex&amp;rft_val_fmt=info:ofi/fmt:kev:mtx:journal&amp;rft.genre=unknown&amp;rft.jtitle=New+York+Times+%281857-1922%29&amp;rft.atitle=FROM+SPOTTSYLVANIA+COURT-HOUSE.%3A+TOPOGRAPHICAL+FEATURES--WEDNESDAY%27S+BATTLE.&amp;rft.au=Correspondence+of+the+Washington+Chronicle.&amp;rft.aulast=Correspondence+of+the+Washington+Chronicle.&amp;rft.aufirst=&amp;rft.date=1864-05-23&amp;rft.volume=&amp;rft.issue=&amp;rft.spage=1&amp;rft.isbn=&amp;rft.btitle=&amp;rft.title=New+York+Times+%281857-1922%29&amp;rft.issn=03624331,ProQuest Historical Newspapers: The New York Times (1851-2009) with Index (1851-1993)
RICHMOND.,"To Major-Gen. Dix: On Friday morning, Gen. GRANT commenced a movement for the purpose of compelling LEE to abandon his position at Spottsylvania (the details of which, for obvious reasons, should not be made public. It has thus far progressed successfully.",91813251,Historical Newspapers,," Copyright New York Times Company May 23, 1864"," 80295106 , 1459058 , 113715", front_page," May 23, 1864",0362-4331, English, English, 1," New York, N.Y.","May 23, 1864",New York Times (1857-1922),1864,http://search.proquest.com/docview/91813251?accountid=13567, 1,http://openurl.lib.rochester.edu/find?ctx_ver=Z39.88-2004&amp;ctx_enc=info:ofi/enc:UTF-8&amp;rfr_id=info:sid/ProQ%3Ahnpnewyorktimeswindex&amp;rft_val_fmt=info:ofi/fmt:kev:mtx:journal&amp;rft.genre=unknown&amp;rft.jtitle=New+York+Times+%281857-1922%29&amp;rft.atitle=RICHMOND.%3A+THE+ONWARD+MARCH+LEE+OUTFLANKED.+BRILLIANT+SUCCESS+OF+GRANT%27S+FLANK+MOVEMENT.+LONGSTREET+AND+EWELL+IN+RETREAT.+HANCOCK+AHEAD+OF+THEM+THE+REBEL+ARMY+BEYOND+THE+NORTH+ANNA.+GRANT%27S+LATEST+MOVEMENT+MANAGED+WITHOUT+SERIOUS+LOSS.+THE+NATIONAL+ARMY+SOUTH+OF+THE+MATTAPONY.+BETTER+NEWS+FROM+RED+RIVER.+SHERMAN+RESTING+AND+REPLENISHING.+BUTLER%27S+POSITION+UNCHANGED.+OFFICIAL.+GRANT%27S+FLANK+MOVEMENT+SO+FAR+SUCCESSFULADVICES+FROM+GENS%2C+CANBY+AND+SHERMANNOTHING+FROM+BUTLER.+GEN.+SHERMAN%27S+PROGRESS+HE+IS+REPLENISHING+SUPPLIES+AT+KINGSTON+CAPTURE+OF+IRONFOUNDRIES+AT+ROME+LATE+NEWS+FROM+GEN.+BANKS-MORE+FIGHTING+IN+BUTLER%27SARMY+A+HARD+BATTLE+ON+FRIDAY.WASHINGTON%2C+SATURDAY%2C+MAY+21%2C1864+9%3A50+P.M.+NO+FIGHTING+SINCE+THURSDAY-+IMPORTANT+MOVEMENTS+GOING+ON.&amp;rft.au=&amp;rft.aulast=&amp;rft.aufirst=&amp;rft.date=1864-05-23&amp;rft.volume=&amp;rft.issue=&amp;rft.spage=1&amp;rft.isbn=&amp;rft.btitle=&amp;rft.title=New+York+Times+%281857-1922%29&amp;rft.issn=03624331,ProQuest Historical Newspapers: The New York Times (1851-2009) with Index (1851-1993)
THE REBELLION.,"Secretary STANTON'S official dispatch of last evening conveys, in distinct terms, the very important intelligence that on Friday Gen. GRANT commenced a flank movement for the purpose of compelling LEE to abandon his position at Spottsylvania Court...",91808600,Historical Newspapers,," Copyright New York Times Company May 23, 1864"," 80295130-1 , 1459058 , 113715", article," May 23, 1864",0362-4331, English, English, 4," New York, N.Y.","May 23, 1864",New York Times (1857-1922),1864,http://search.proquest.com/docview/91808600?accountid=13567, 4,http://openurl.lib.rochester.edu/find?ctx_ver=Z39.88-2004&amp;ctx_enc=info:ofi/enc:UTF-8&amp;rfr_id=info:sid/ProQ%3Ahnpnewyorktimeswindex&amp;rft_val_fmt=info:ofi/fmt:kev:mtx:journal&amp;rft.genre=article&amp;rft.jtitle=New+York+Times+%281857-1922%29&amp;rft.atitle=THE+REBELLION.&amp;rft.au=&amp;rft.aulast=&amp;rft.aufirst=&amp;rft.date=1864-05-23&amp;rft.volume=&amp;rft.issue=&amp;rft.spage=4&amp;rft.isbn=&amp;rft.btitle=&amp;rft.title=New+York+Times+%281857-1922%29&amp;rft.issn=03624331,ProQuest Historical Newspapers: The New York Times (1851-2009) with Index (1851-1993)
ANOTHER FIGHT ON THURSDAY.,"WAR DEPARTMENT, WASHINGTON, May 20, 1864--6:30 P.M. This afternoon we have dispatches dated at 8 o'clock this morning from Gen. GRANT.",91821416,Historical Newspapers,," Copyright New York Times Company May 21, 1864"," 90119361 , 1523109 , 113715", front_page," May 21, 1864",0362-4331, English, English, 1," New York, N.Y.","May 21, 1864",New York Times (1857-1922),1864,http://search.proquest.com/docview/91821416?accountid=13567, 1,http://openurl.lib.rochester.edu/find?ctx_ver=Z39.88-2004&amp;ctx_enc=info:ofi/enc:UTF-8&amp;rfr_id=info:sid/ProQ%3Ahnpnewyorktimeswindex&amp;rft_val_fmt=info:ofi/fmt:kev:mtx:journal&amp;rft.genre=unknown&amp;rft.jtitle=New+York+Times+%281857-1922%29&amp;rft.atitle=ANOTHER+FIGHT+ON+THURSDAY.%3A+THE+REBELS+ATTEMPT+TO+TURN+OUR+RIGHT.+THEY+ARE+SEVERELY+REPULSED.+OFFICIAL+DISPATCH+FROM+SECRETARY+STANTON.+TWENTY-FIVE+THOUSAND+VETERAN+REINFORCEMENTS+JOINED+GEN.+GRANT.LATER+NEWS+FROM+GENERAL+SHERMAN.HIS+CONTINUED+PROGRESS.NEWS+FROM+GEN.+GRANT--ATTEMPT+BY+THEENEMY+TO+TURN+OUR+RIGHT--THE+EFFORT+PROMPTLY+REPULSED--25%2C000+VETERAN+REINFORCEMENTS+FOR+GRANT--LATE+NEWS+FROMSHERMAN--HIS+ARMY+STILL+PROGRESSING.%5BOFFICIAL.%5D&amp;rft.au=&amp;rft.aulast=&amp;rft.aufirst=&amp;rft.date=1864-05-21&amp;rft.volume=&amp;rft.issue=&amp;rft.spage=1&amp;rft.isbn=&amp;rft.btitle=&amp;rft.title=New+York+Times+%281857-1922%29&amp;rft.issn=03624331,ProQuest Historical Newspapers: The New York Times (1851-2009) with Index (1851-1993)
IMPORTANT.,"The skirmishing which began yesterday morning at daybreak settled into a heavy engagement, lasting through the forenoon, and culminating in another brilliant charge by HANCOCK on our right, when he drove the enemy a short distance, and carried their first line of intrenchments.",91836667,Historical Newspapers,," Copyright New York Times Company May 20, 1864"," 80294999-1 , 1459057 , 113715", front_page," May 20, 1864",0362-4331, English, English, 1," New York, N.Y.","May 20, 1864",New York Times (1857-1922),1864,http://search.proquest.com/docview/91836667?accountid=13567, 1,http://openurl.lib.rochester.edu/find?ctx_ver=Z39.88-2004&amp;ctx_enc=info:ofi/enc:UTF-8&amp;rfr_id=info:sid/ProQ%3Ahnpnewyorktimeswindex&amp;rft_val_fmt=info:ofi/fmt:kev:mtx:journal&amp;rft.genre=unknown&amp;rft.jtitle=New+York+Times+%281857-1922%29&amp;rft.atitle=IMPORTANT.%3A+ANOTHER+BATTLE+IN+VIRGINIA.+ANOTHER+BRILLIANT+CHARGE+BY+HANCOCK.+THE+FIRST+LINE+OF+REBEL+WORKS+CARRIED.+LEE%27S+LEFT+FLANK+TURNED.+ALL+THE+RESULTS+CONSIDERED+FAVORABLE.+THE+MOVEMENTS+OF+BOTH+ARMIES+ON+THURSDAY.+THE+BATTLE+NOT+RENEWED.+SPLENDID+SUCCESS+OF+GENERAL+SHERMAN.+ALL+QUIET+WITH+GENERAL+BUTLER.+THE+BATTLE+RENEWED+ON+WEDNESDAY--ANOTHER+GLORIOUS+CHARGE+BY+HANCOCK--THE+FIRST+LINE+OF+REBEL+WORKS+CARRIED--THE+RESULT+OF+THE+DAY%27S+FIGHTING+SOMEWHAT+FAVORABLE--THE+BATTLE+PROBABLY+RENEWED+YESTERDAY.&amp;rft.au=&amp;rft.aulast=&amp;rft.aufirst=&amp;rft.date=1864-05-20&amp;rft.volume=&amp;rft.issue=&amp;rft.spage=1&amp;rft.isbn=&amp;rft.btitle=&amp;rft.title=New+York+Times+%281857-1922%29&amp;rft.issn=03624331,ProQuest Historical Newspapers: The New York Times (1851-2009) with Index (1851-1993)
THE GREAT CAMPAIGN.,,91836819,Historical Newspapers," SPECIAL DISPATCHES TO THE N.Y. TIMES
SPECIAL DISPATCHES TO THE N.Y. TIMES"," Copyright New York Times Company May 19, 1864"," 88154425 , 1512547 , 113715", front_page," May 19, 1864",0362-4331, English, English, 1," New York, N.Y.","May 19, 1864",New York Times (1857-1922),1864,http://search.proquest.com/docview/91836819?accountid=13567, 1,http://openurl.lib.rochester.edu/find?ctx_ver=Z39.88-2004&amp;ctx_enc=info:ofi/enc:UTF-8&amp;rfr_id=info:sid/ProQ%3Ahnpnewyorktimeswindex&amp;rft_val_fmt=info:ofi/fmt:kev:mtx:journal&amp;rft.genre=unknown&amp;rft.jtitle=New+York+Times+%281857-1922%29&amp;rft.atitle=THE+GREAT+CAMPAIGN.%3A+THE+STRUGGLE+IN+VIRGINIA+RENEWED.+THE+BATTLE+AGAIN+OPENED+YESTERDAY+MORNING.+THE+ROADS+IMPROVED+AND+REINFORCEMENTS+ON+HAND.+GEN.+GRANT+%22MOVES+AGAINST+THE+ENEMY+WITHOUT+DELAY.%22+MOST+OF+THE+WOUNDED+REMOVED+FROM+FREDERICKSBURGH.+HANDSOME+VICTORY+IN+WESTERN+VIRGINIA.+THE+REBELS+DEFEATED+BY+GENERAL+CROOK.+ALL+QUIET--RECAPTURE%2C+OF+A+HOSPITAL--SUFFERINGS+OF+THE+WOUNDED.&amp;rft.au=SPECIAL+DISPATCHES+TO+THE+N.Y.+TIMES&amp;rft.aulast=SPECIAL+DISPATCHES+TO+THE+N.Y.+TIMES&amp;rft.aufirst=&amp;rft.date=1864-05-19&amp;rft.volume=&amp;rft.issue=&amp;rft.spage=1&amp;rft.isbn=&amp;rft.btitle=&amp;rft.title=New+York+Times+%281857-1922%29&amp;rft.issn=03624331,ProQuest Historical Newspapers: The New York Times (1851-2009) with Index (1851-1993)
FROM GEN. GRANT'S ARMY.,"I have just returned from the scene of Gen. HANCOCK's brilliant victory of yesterday morning. At the point at which his assault was made, the rebel breastworks formed an angle or salient, and his men advanced silently and, without firing a shot, entered...",91834269,Historical Newspapers," From Our Special Correspondent.
From Our Special Correspondent."," Copyright New York Times Company May 18, 1864"," 78724363 , 1446316 , 113715", front_page," May 18, 1864",0362-4331, English, English, 1," New York, N.Y.","May 18, 1864",New York Times (1857-1922),1864,http://search.proquest.com/docview/91834269?accountid=13567, 1,http://openurl.lib.rochester.edu/find?ctx_ver=Z39.88-2004&amp;ctx_enc=info:ofi/enc:UTF-8&amp;rfr_id=info:sid/ProQ%3Ahnpnewyorktimeswindex&amp;rft_val_fmt=info:ofi/fmt:kev:mtx:journal&amp;rft.genre=unknown&amp;rft.jtitle=New+York+Times+%281857-1922%29&amp;rft.atitle=FROM+GEN.+GRANT%27S+ARMY.%3A+THE+LATEST.+ADDITIONAL+CASUALTIES.&amp;rft.au=From+Our+Special+Correspondent.&amp;rft.aulast=From+Our+Special+Correspondent.&amp;rft.aufirst=&amp;rft.date=1864-05-18&amp;rft.volume=&amp;rft.issue=&amp;rft.spage=1&amp;rft.isbn=&amp;rft.btitle=&amp;rft.title=New+York+Times+%281857-1922%29&amp;rft.issn=03624331,ProQuest Historical Newspapers: The New York Times (1851-2009) with Index (1851-1993)
REPORTS FROM WASHINGTON.,"The rebels up to yesterday occupied their line of entrenchments immediately around and this side of Spottsylvania Court-house. Both armies lay on their arms on Sunday night, expecting an attack. The rebel works bear all appearance of having been but recently thrown up. A few hours' sunshine will remove all impediment to the resumption of active hostilities. LEE'S position is described as being a very strong one in itself, but it can be flanked with.",91821222,Historical Newspapers,," Copyright New York Times Company May 18, 1864"," 78724362 , 1446316 , 113715", front_page," May 18, 1864",0362-4331, English, English, 1," New York, N.Y.","May 18, 1864",New York Times (1857-1922),1864,http://search.proquest.com/docview/91821222?accountid=13567, 1,http://openurl.lib.rochester.edu/find?ctx_ver=Z39.88-2004&amp;ctx_enc=info:ofi/enc:UTF-8&amp;rfr_id=info:sid/ProQ%3Ahnpnewyorktimeswindex&amp;rft_val_fmt=info:ofi/fmt:kev:mtx:journal&amp;rft.genre=unknown&amp;rft.jtitle=New+York+Times+%281857-1922%29&amp;rft.atitle=REPORTS+FROM+WASHINGTON.%3A+OUR+FORCES+RESTING+AND+RECRUITING+FOR+ANOTHER+STRUGGLE+AN+UNSUCCESSFUL+MOVEMENT+AGAINST+THE+TRAINS.&amp;rft.au=&amp;rft.aulast=&amp;rft.aufirst=&amp;rft.date=1864-05-18&amp;rft.volume=&amp;rft.issue=&amp;rft.spage=1&amp;rft.isbn=&amp;rft.btitle=&amp;rft.title=New+York+Times+%281857-1922%29&amp;rft.issn=03624331,ProQuest Historical Newspapers: The New York Times (1851-2009) with Index (1851-1993)
THE SITUATION IN VIRGINIA.,We have no official intelligence of any military operations since my last dispatch. The Richmond papers of Saturday state that Gen. STEELE had sur,91815104,Historical Newspapers,," Copyright New York Times Company May 18, 1864"," 78724361 , 1446316 , 113715", front_page," May 18, 1864",0362-4331, English, English, 1," New York, N.Y.","May 18, 1864",New York Times (1857-1922),1864,http://search.proquest.com/docview/91815104?accountid=13567, 1,http://openurl.lib.rochester.edu/find?ctx_ver=Z39.88-2004&amp;ctx_enc=info:ofi/enc:UTF-8&amp;rfr_id=info:sid/ProQ%3Ahnpnewyorktimeswindex&amp;rft_val_fmt=info:ofi/fmt:kev:mtx:journal&amp;rft.genre=unknown&amp;rft.jtitle=New+York+Times+%281857-1922%29&amp;rft.atitle=THE+SITUATION+IN+VIRGINIA.%3A+GRANT+CONCENTRATING+FOR+A+TREMENDOUS+EFFORT.+LEE+STILL+IN+A+STRONG+POSITION.+HORRIBLE+CONDITION+OF+THE+ROADS.+REST+FOR+THE+ARMY+AND+SUCCOR+FOR+THE+WOUNDED.+FULL+DETAILS+OF+GENERAL+BUTLER%27S+OPERATIONS.+HIGHLY+ENCOURAGING+NEWS+FROM+GENERAL+SHERMAN.+NO+LATE+MILITARY+INTELLIGENCE+IN+WASHINGTON+STEELE%27S+REPORTED+SURRENDER+UNTRUE+SHERMAN+VIGOROUSLY+PURSUING+JOHNSTON.%5BOFFICIAL.%5D&amp;rft.au=&amp;rft.aulast=&amp;rft.aufirst=&amp;rft.date=1864-05-18&amp;rft.volume=&amp;rft.issue=&amp;rft.spage=1&amp;rft.isbn=&amp;rft.btitle=&amp;rft.title=New+York+Times+%281857-1922%29&amp;rft.issn=03624331,ProQuest Historical Newspapers: The New York Times (1851-2009) with Index (1851-1993)
THE GRAND CAMPAIGN.,"Major-Gen. Dix, New-York: We have dispatches from Gen. GRANT to 8 o'clock this morning. He states that offensive operations have been necessarily suspended until the roads become passable; that the army is in the best of spirits, and feels the fullest confidence in success. The two armies are now concentrated on the main road from Fredericksburgh to Richmond.",91833059,Historical Newspapers,," Copyright New York Times Company May 17, 1864"," 80294903 , 1459056 , 113715", front_page," May 17, 1864",0362-4331, English, English, 1," New York, N.Y.","May 17, 1864",New York Times (1857-1922),1864,http://search.proquest.com/docview/91833059?accountid=13567, 1,http://openurl.lib.rochester.edu/find?ctx_ver=Z39.88-2004&amp;ctx_enc=info:ofi/enc:UTF-8&amp;rfr_id=info:sid/ProQ%3Ahnpnewyorktimeswindex&amp;rft_val_fmt=info:ofi/fmt:kev:mtx:journal&amp;rft.genre=unknown&amp;rft.jtitle=New+York+Times+%281857-1922%29&amp;rft.atitle=THE+GRAND+CAMPAIGN.%3A+THE+SITUATION+IN+VIRGINIA.+ADVICES+FROM+GENERAL+GRANT+TO+MONDAY+MORNING.+HOSTILITIES+SUSPENDED+BY+IMPASSABLE+ROADS.+THE+TROOPS+IN+FINE+SPIRITS.+LEE+FORTIFYING+HIS+POSITION+STRONGLY.+GEN.+WADSWORTH%27S+BODY+RECOVERED.+GENERAL+BUTLER+LAYING+SIEGE+TO+FORT+DARLING.+CHEERING+NEWS+FROM+GENERAL+SHERMAN.+TWO+DAYS%27+HARD+FIGHTING+WITH+GOOD+RESULTS.+THE+REBELS+ABANDON+RESACA+AND+RETREAT.+OUR+FORCES+IN+VIGOROUS+PURSUIT.+DISPATCHES+FROM+THE+WAR+OFFICE.+DELAY+OF+OFFENSIVE+OPERATIONS--IMPASSABLE+CONDITION+OF+THE+ROADS--FINE+SPIRITS+OF+THE+TROOPS--BOTH+ARMIES+CONCENTRATED+ON+THE+ROAD+TO+RICHMOND--EVACUATION+OF+RESACA+BY+JOHNSTON--BUTLER+STILL+OPERATING+AGAINST+FORT+DARLING.%5BOFFICIAL.%5D+FROM+THE+ARMIES+IN+VIRGINIA-INTELLIGENCE+FROM+RESACA+TWO+LINES+OF+THE+ENEMY%27S+WORKS+STORMED.+%5BOFFICIAL.%5D&amp;rft.au=&amp;rft.aulast=&amp;rft.aufirst=&amp;rft.date=1864-05-17&amp;rft.volume=&amp;rft.issue=&amp;rft.spage=1&amp;rft.isbn=&amp;rft.btitle=&amp;rft.title=New+York+Times+%281857-1922%29&amp;rft.issn=03624331,ProQuest Historical Newspapers: The New York Times (1851-2009) with Index (1851-1993)
Very Latest from General Grant.,Dispatches from General Grant have been received by this Department down to seven o'clock this morning. There had been no engagement for the last two days.,91857057,Historical Newspapers,," Copyright New York Times Company May 16, 1864"," 79180761-1 , 1450891 , 113715", front_page," May 16, 1864",0362-4331, English, English, 1," New York, N.Y.","May 16, 1864",New York Times (1857-1922),1864,http://search.proquest.com/docview/91857057?accountid=13567, 1,http://openurl.lib.rochester.edu/find?ctx_ver=Z39.88-2004&amp;ctx_enc=info:ofi/enc:UTF-8&amp;rfr_id=info:sid/ProQ%3Ahnpnewyorktimeswindex&amp;rft_val_fmt=info:ofi/fmt:kev:mtx:journal&amp;rft.genre=unknown&amp;rft.jtitle=New+York+Times+%281857-1922%29&amp;rft.atitle=Very+Latest+from+General+Grant.%3A+LEE+STILL+RETREATING.+No+Fighting+on+Friday+or+Saturday.+Glorious+Work+of+General+Sheridan.+Railroads+Destroyed%2C+Supplies+Captured+and+Burned+and+the+Rebel+Cavalry+Defeated.+The+Rebel+Gen.+J.+E.+B.+Stuart+Killed.+Fort+Darling+Attacked+by+Gen.+Butler.+A+PORTION+OF+THE+WORKS+CARRIED.+REBEL+REINFORCEMENTS+CUT+OFF+Highly+Important+from+Gen.+Sherman.+A+Great+Battle+Going+on+Near+Dalton.+DISPATCHES+FROM+THE+WAR+OFFICE.+The+Latest+Army+News--Advices+from+Gen.+Grant+to+Sunday+Morning--No+more+Flighting--News+from+Gen.+Sherman+to+Saturday+Evening--His+Army+Actively+Engaged.+%28OFFICIAL.%29+Dispatches+from+Gen.+Grant+to+Half-past+Six+Saturday+Morning--Retreat+of+Lee.+SHERIDAN%27S+GREAT+CAVALRY+RAID.+The+Retreat+of+Lee+and+Pursuit+by+Grant--The+News+from+Sherman--Dalton+Evacuated--Sigel%27s+Position.+Gen.+Butler%27s+Attack+on+Fort+Darling--The+Enemy%27s+First+Line+Carried.+The+Arrival+of+Prisoners+at+Belle+Plain.&amp;rft.au=&amp;rft.aulast=&amp;rft.aufirst=&amp;rft.date=1864-05-16&amp;rft.volume=&amp;rft.issue=&amp;rft.spage=1&amp;rft.isbn=&amp;rft.btitle=&amp;rft.title=New+York+Times+%281857-1922%29&amp;rft.issn=03624331,ProQuest Historical Newspapers: The New York Times (1851-2009) with Index (1851-1993)
LATEST FROM THE ARMY,"The latest intelligence rcceived here from the front, through unofficial sources, is up to yesterday, at 1 o'clock. On Saturday evening, just before dusk,",91838605,Historical Newspapers,," Copyright New York Times Company May 16, 1864"," 79180859 , 1450891 , 113715", article," May 16, 1864",0362-4331, English, English, 8," New York, N.Y.","May 16, 1864",New York Times (1857-1922),1864,http://search.proquest.com/docview/91838605?accountid=13567, 8,http://openurl.lib.rochester.edu/find?ctx_ver=Z39.88-2004&amp;ctx_enc=info:ofi/enc:UTF-8&amp;rfr_id=info:sid/ProQ%3Ahnpnewyorktimeswindex&amp;rft_val_fmt=info:ofi/fmt:kev:mtx:journal&amp;rft.genre=article&amp;rft.jtitle=New+York+Times+%281857-1922%29&amp;rft.atitle=LATEST+FROM+THE+ARMY%3A+A+SAVAGE+FIGHT+ON+SATURDAY+EVENING.+THE+REBELS+REPULSED+AND+A+BATTERY+CAPTURED.+FRESH+TROOPS+ARRIVING+TO+AID+GRANT.+LEE%27S+ARMY+ON+QUARTER+RATIONS%2C+BUT+MASSED+FOR+MORE+FIGHTING.+SPECIAL+DISPATCHES+TO+THE+N.Y.+TIMES.&amp;rft.au=&amp;rft.aulast=&amp;rft.aufirst=&amp;rft.date=1864-05-16&amp;rft.volume=&amp;rft.issue=&amp;rft.spage=8&amp;rft.isbn=&amp;rft.btitle=&amp;rft.title=New+York+Times+%281857-1922%29&amp;rft.issn=03624331,ProQuest Historical Newspapers: The New York Times (1851-2009) with Index (1851-1993)
REPORTS FROM PHILADELPHIA.,,91816188,Historical Newspapers,," Copyright New York Times Company May 15, 1864"," 80294849 , 1459055 , 113715", front_page," May 15, 1864",0362-4331, English, English, 1," New York, N.Y.","May 15, 1864",New York Times (1857-1922),1864,http://search.proquest.com/docview/91816188?accountid=13567, 1,http://openurl.lib.rochester.edu/find?ctx_ver=Z39.88-2004&amp;ctx_enc=info:ofi/enc:UTF-8&amp;rfr_id=info:sid/ProQ%3Ahnpnewyorktimeswindex&amp;rft_val_fmt=info:ofi/fmt:kev:mtx:journal&amp;rft.genre=unknown&amp;rft.jtitle=New+York+Times+%281857-1922%29&amp;rft.atitle=REPORTS+FROM+PHILADELPHIA.%3A+GRANT%27S+ARMY+SAID+TO+BE+SOUTH+OF+THE+PO--THE+REBEL+REARGUARD+OVERTAKEN.&amp;rft.au=&amp;rft.aulast=&amp;rft.aufirst=&amp;rft.date=1864-05-15&amp;rft.volume=&amp;rft.issue=&amp;rft.spage=1&amp;rft.isbn=&amp;rft.btitle=&amp;rft.title=New+York+Times+%281857-1922%29&amp;rft.issn=03624331,ProQuest Historical Newspapers: The New York Times (1851-2009) with Index (1851-1993)
THE VICTORY.,"Maj.-Gen: Dix: A dispatch from the Commissary of Prisoners at Belle Plain, announces the arrival there of over 7,000 prisoners, including 400 officers, with Maj.-Gen. Johnson and Brig.-Gen. STUART.",91815474,Historical Newspapers," EDWIN M. STANTON, Secretary of War.
EDWIN M. STANTON, Secretary of War."," Copyright New York Times Company May 15, 1864"," 80294843-1 , 1459055 , 113715", front_page," May 15, 1864",0362-4331, English, English, 1," New York, N.Y.","May 15, 1864",New York Times (1857-1922),1864,http://search.proquest.com/docview/91815474?accountid=13567, 1,http://openurl.lib.rochester.edu/find?ctx_ver=Z39.88-2004&amp;ctx_enc=info:ofi/enc:UTF-8&amp;rfr_id=info:sid/ProQ%3Ahnpnewyorktimeswindex&amp;rft_val_fmt=info:ofi/fmt:kev:mtx:journal&amp;rft.genre=unknown&amp;rft.jtitle=New+York+Times+%281857-1922%29&amp;rft.atitle=THE+VICTORY.%3A+%27GENERAL+MEADE+REVIEWS+THE+SITUATION.+AN+EIGHT+DAYS%27+RETROSPECT.+8%2C000+REBEL+PRISONERS.+CAPTURE+OF+EIGHTEEN+GUNS+AND+TWENTY+COLORS.+A+LULL+IN+THE+STRUGGLE.+LEE+FALLEN+BACK+TO+A+NEW+LINE.+THE+TOTAL+UNION+LOSS+TWENTY+THOUSAND.+REINFORCEMENTS+FOR+GRANT.+GEN.+BUTLER+IN+GOOD+POSITION.+VICTORY+IN+THE+SOUTHWEST.+SHERMAN+IN+THE+REAR+OF+JOHNSTON%27S+ARMY.+THE+REBELS+RETREAT+BEYOND+RESACA.+GEN.+SIGEL+AT+WOODSTOCK.+EXCHANGE+OF+PRISONERS+OF+WAR+%5BOFFICIAL.%5D+SECOND+DISPATCH.+THIRD+DISPATCH.+GEN.%2C+MEADE+TO+THE+ARMY.&amp;rft.au=EDWIN+M.+STANTON%2C+Secretary+of+War.&amp;rft.aulast=EDWIN+M.+STANTON&amp;rft.aufirst=Secretary+of&amp;rft.date=1864-05-15&amp;rft.volume=&amp;rft.issue=&amp;rft.spage=1&amp;rft.isbn=&amp;rft.btitle=&amp;rft.title=New+York+Times+%281857-1922%29&amp;rft.issn=03624331,ProQuest Historical Newspapers: The New York Times (1851-2009) with Index (1851-1993)
THE REBELLION.,"In three separate bulletins, admirable for their brevity and distinctness, the Secretary of War sums up the whole of the news from the armies East and West, which had reached the Department up to yesterday afternoon. The dispatches from Gen. GRANT come up to Friday evening at 6 o'clock. During that day the advance of HAN",91838013,Historical Newspapers,," Copyright New York Times Company May 15, 1864"," 80294864-1 , 1459055 , 113715", article," May 15, 1864",0362-4331, English, English, 4," New York, N.Y.","May 15, 1864",New York Times (1857-1922),1864,http://search.proquest.com/docview/91838013?accountid=13567, 4,http://openurl.lib.rochester.edu/find?ctx_ver=Z39.88-2004&amp;ctx_enc=info:ofi/enc:UTF-8&amp;rfr_id=info:sid/ProQ%3Ahnpnewyorktimeswindex&amp;rft_val_fmt=info:ofi/fmt:kev:mtx:journal&amp;rft.genre=article&amp;rft.jtitle=New+York+Times+%281857-1922%29&amp;rft.atitle=THE+REBELLION.&amp;rft.au=&amp;rft.aulast=&amp;rft.aufirst=&amp;rft.date=1864-05-15&amp;rft.volume=&amp;rft.issue=&amp;rft.spage=4&amp;rft.isbn=&amp;rft.btitle=&amp;rft.title=New+York+Times+%281857-1922%29&amp;rft.issn=03624331,ProQuest Historical Newspapers: The New York Times (1851-2009) with Index (1851-1993)
SPECIAL DISPATCHES TO THE N.Y. TIMES.,"The four hours that have passed since the date of my last dispatch have been occupied with vigorous hammer-and-tongs work that does not appear to have greatly advanced the upshot of the contest, save in the destruction of life to the enemy that may have been accomplished.",91814090,Historical Newspapers,," Copyright New York Times Company May 14, 1864"," 78724243 , 1446315 , 113715", front_page," May 14, 1864",0362-4331, English, English, 1," New York, N.Y.","May 14, 1864",New York Times (1857-1922),1864,http://search.proquest.com/docview/91814090?accountid=13567, 1,http://openurl.lib.rochester.edu/find?ctx_ver=Z39.88-2004&amp;ctx_enc=info:ofi/enc:UTF-8&amp;rfr_id=info:sid/ProQ%3Ahnpnewyorktimeswindex&amp;rft_val_fmt=info:ofi/fmt:kev:mtx:journal&amp;rft.genre=unknown&amp;rft.jtitle=New+York+Times+%281857-1922%29&amp;rft.atitle=SPECIAL+DISPATCHES+TO+THE+N.Y.+TIMES.%3A+THURSDAY.+FULL+DETAILS+OF+THE+GREAT+BATTLE.&amp;rft.au=&amp;rft.aulast=&amp;rft.aufirst=&amp;rft.date=1864-05-14&amp;rft.volume=&amp;rft.issue=&amp;rft.spage=1&amp;rft.isbn=&amp;rft.btitle=&amp;rft.title=New+York+Times+%281857-1922%29&amp;rft.issn=03624331,ProQuest Historical Newspapers: The New York Times (1851-2009) with Index (1851-1993)
THE GREAT CAMPAIGN.,"Maj.-Gen. Dix: Official dispatches just received by this Department dated yesterday, 8 A.M. at the battle-field, near Spottsylvania Court-House. They state that during the night, Gen. HANCOCK marched frown his previous position on our right and occupied the ground between Gens.",91844695,Historical Newspapers,," Copyright New York Times Company May 14, 1864"," 78724242-1 , 1446315 , 113715", front_page," May 14, 1864",0362-4331, English, English, 1," New York, N.Y.","May 14, 1864",New York Times (1857-1922),1864,http://search.proquest.com/docview/91844695?accountid=13567, 1,http://openurl.lib.rochester.edu/find?ctx_ver=Z39.88-2004&amp;ctx_enc=info:ofi/enc:UTF-8&amp;rfr_id=info:sid/ProQ%3Ahnpnewyorktimeswindex&amp;rft_val_fmt=info:ofi/fmt:kev:mtx:journal&amp;rft.genre=unknown&amp;rft.jtitle=New+York+Times+%281857-1922%29&amp;rft.atitle=THE+GREAT+CAMPAIGN.%3A+GEN.+GRANT%27S+DECISIVE+BATTLE.LEE%27S+ARMY+IN+FULL+RETREAT.+OUR+ARMY+IN+PURSUIT+THE+GLORIOUS+WORK+OF+THURSDAY.+GRANT+FINDS+THE+REBELS+IN+THE+LAST+DITCH.+GREAT+CAPTURES+OF+PRISONERS+AND+ARTILLERY.THE+TROPHIES+OF+VICTORY+A+WHOLE+REBEL+DIVISION+AND+THIRTY+GUNS.REINFORCEMENTS+PRESSING+FORWARD+HIGHLY+IMPORTANT+FROM+GEN.+SIGEL.COMMUNICATION+WITH+LYNCHBURGH+SEVERED.THE+OPERATIONS+OF+GEN.+BUTLER.HIS+ARMY+MOVING+ON+FORT+DARLING.+THE+CONDITION+OF+THE+WOUNDED+AT+WASHINGTON.FULL+DETAILS+FROM+OUR+SPECIAL+CORRESPONDENTS.DISPATCHES+FROM+THE+WAR+OFFICE.+FIRST+DISPATCH.+SECOND+DISPATCH.+%5BOFFICIAL.%5D+THIRD+DISPATCH.+FOURTH+DISPATCH.+%5BOFFICIAL.%5D&amp;rft.au=&amp;rft.aulast=&amp;rft.aufirst=&amp;rft.date=1864-05-14&amp;rft.volume=&amp;rft.issue=&amp;rft.spage=1&amp;rft.isbn=&amp;rft.btitle=&amp;rft.title=New+York+Times+%281857-1922%29&amp;rft.issn=03624331,ProQuest Historical Newspapers: The New York Times (1851-2009) with Index (1851-1993)
LATEST FROM THE BATTLE-FIELD,,91813934,Historical Newspapers,," Copyright New York Times Company May 14, 1864"," 78724333 , 1446315 , 113715", article," May 14, 1864",0362-4331, English, English, 8," New York, N.Y.","May 14, 1864",New York Times (1857-1922),1864,http://search.proquest.com/docview/91813934?accountid=13567, 8,http://openurl.lib.rochester.edu/find?ctx_ver=Z39.88-2004&amp;ctx_enc=info:ofi/enc:UTF-8&amp;rfr_id=info:sid/ProQ%3Ahnpnewyorktimeswindex&amp;rft_val_fmt=info:ofi/fmt:kev:mtx:journal&amp;rft.genre=article&amp;rft.jtitle=New+York+Times+%281857-1922%29&amp;rft.atitle=LATEST+FROM+THE+BATTLE-FIELD&amp;rft.au=&amp;rft.aulast=&amp;rft.aufirst=&amp;rft.date=1864-05-14&amp;rft.volume=&amp;rft.issue=&amp;rft.spage=8&amp;rft.isbn=&amp;rft.btitle=&amp;rft.title=New+York+Times+%281857-1922%29&amp;rft.issn=03624331,ProQuest Historical Newspapers: The New York Times (1851-2009) with Index (1851-1993)
ANOTHER DISPATCH.,"A letter just received from an officer on a distinguished General's staff, dated on the battle-field at 8 o'clock last night, says:",91820695,Historical Newspapers,," Copyright New York Times Company May 14, 1864"," 78724334 , 1446315 , 113715", article," May 14, 1864",0362-4331, English, English, 8," New York, N.Y.","May 14, 1864",New York Times (1857-1922),1864,http://search.proquest.com/docview/91820695?accountid=13567, 8,http://openurl.lib.rochester.edu/find?ctx_ver=Z39.88-2004&amp;ctx_enc=info:ofi/enc:UTF-8&amp;rfr_id=info:sid/ProQ%3Ahnpnewyorktimeswindex&amp;rft_val_fmt=info:ofi/fmt:kev:mtx:journal&amp;rft.genre=article&amp;rft.jtitle=New+York+Times+%281857-1922%29&amp;rft.atitle=ANOTHER+DISPATCH.&amp;rft.au=&amp;rft.aulast=&amp;rft.aufirst=&amp;rft.date=1864-05-14&amp;rft.volume=&amp;rft.issue=&amp;rft.spage=8&amp;rft.isbn=&amp;rft.btitle=&amp;rft.title=New+York+Times+%281857-1922%29&amp;rft.issn=03624331,ProQuest Historical Newspapers: The New York Times (1851-2009) with Index (1851-1993)
"THE BATTLE OF SUNDAY, MAY 8.","I have this morning returned from our advanced line of battle, which lies within two and a half miles of Spottsylvania Court-house, the enemy confronting in force.",91816206,Historical Newspapers,," Copyright New York Times Company May 13, 1864"," 78724101 , 1446314 , 113715", front_page," May 13, 1864",0362-4331, English, English, 1," New York, N.Y.","May 13, 1864",New York Times (1857-1922),1864,http://search.proquest.com/docview/91816206?accountid=13567, 1,http://openurl.lib.rochester.edu/find?ctx_ver=Z39.88-2004&amp;ctx_enc=info:ofi/enc:UTF-8&amp;rfr_id=info:sid/ProQ%3Ahnpnewyorktimeswindex&amp;rft_val_fmt=info:ofi/fmt:kev:mtx:journal&amp;rft.genre=unknown&amp;rft.jtitle=New+York+Times+%281857-1922%29&amp;rft.atitle=THE+BATTLE+OF+SUNDAY%2C+MAY+8.&amp;rft.au=&amp;rft.aulast=&amp;rft.aufirst=&amp;rft.date=1864-05-13&amp;rft.volume=&amp;rft.issue=&amp;rft.spage=1&amp;rft.isbn=&amp;rft.btitle=&amp;rft.title=New+York+Times+%281857-1922%29&amp;rft.issn=03624331,ProQuest Historical Newspapers: The New York Times (1851-2009) with Index (1851-1993)
"SKIRMISHES OF MONDAY, MAY 9.","The military situation at this hour (Tuesday, 12 M.) finds the line of the army drawn around Spottsylvania Court-house in the arc of a circle, the concave toward us.",91807350,Historical Newspapers,," Copyright New York Times Company May 13, 1864"," 78724102 , 1446314 , 113715", front_page," May 13, 1864",0362-4331, English, English, 1," New York, N.Y.","May 13, 1864",New York Times (1857-1922),1864,http://search.proquest.com/docview/91807350?accountid=13567, 1,http://openurl.lib.rochester.edu/find?ctx_ver=Z39.88-2004&amp;ctx_enc=info:ofi/enc:UTF-8&amp;rfr_id=info:sid/ProQ%3Ahnpnewyorktimeswindex&amp;rft_val_fmt=info:ofi/fmt:kev:mtx:journal&amp;rft.genre=unknown&amp;rft.jtitle=New+York+Times+%281857-1922%29&amp;rft.atitle=SKIRMISHES+OF+MONDAY%2C+MAY+9.%3A+%5BIN+ORDER+TO+MAKE+OUR+ACCOUNT+CONTINUOUS+FROM+DAY+TO+DAY%2C+WE+INSERT+AGAIN+A+PART+OF+A+LETTER+GIVEN+YESTERDAY.%5D&amp;rft.au=&amp;rft.aulast=&amp;rft.aufirst=&amp;rft.date=1864-05-13&amp;rft.volume=&amp;rft.issue=&amp;rft.spage=1&amp;rft.isbn=&amp;rft.btitle=&amp;rft.title=New+York+Times+%281857-1922%29&amp;rft.issn=03624331,ProQuest Historical Newspapers: The New York Times (1851-2009) with Index (1851-1993)
REPORTS FROM WASHINGTON.,"Yesterday morning the fighting was again renewed, and was continued with various success until about 11 o'clock, when our line was somewhat advanced.",91816575,Historical Newspapers,," Copyright New York Times Company May 13, 1864"," 78724212 , 1446314 , 113715", article," May 13, 1864",0362-4331, English, English, 8," New York, N.Y.","May 13, 1864",New York Times (1857-1922),1864,http://search.proquest.com/docview/91816575?accountid=13567, 8,http://openurl.lib.rochester.edu/find?ctx_ver=Z39.88-2004&amp;ctx_enc=info:ofi/enc:UTF-8&amp;rfr_id=info:sid/ProQ%3Ahnpnewyorktimeswindex&amp;rft_val_fmt=info:ofi/fmt:kev:mtx:journal&amp;rft.genre=article&amp;rft.jtitle=New+York+Times+%281857-1922%29&amp;rft.atitle=REPORTS+FROM+WASHINGTON.%3A+THE+FIGHTING+RENEWED+ON+WEDNESDAY+OUR+LINES+ADVANCE+A+FLAG+OF+TRUCE+FROM+GEN.+LEE+WANTS+TIME+TO+BURY+HIS+DEAD+GRANT+SAYS+HE+HASN%27T+TIME+TO+BURY+HIS+OWN+DEAD%2C+AND+PROPOSES+TO+ADVANCE+LEE+WITHDRAWS+HIS+CENTRE+EVIDENCES+OF+A+RETREAT+OVER+FOUR+THOUSAND+PRISONERS+CAPTURED+ON+TUESDAY+AND+WEDNESDAY+THE+LOSSES.+THE+DESPERATE+FIGHTING+OF+TUESDAY+THE+CHARGE+OF+THE+SIXTH+CORPS+THE+BATTLE+PROBABLY+RENEWED+WEDNESDAY+DEATH+OF+GENS.+RICH+AND+STEVENSON+INCIDENTS+OF+THE+BATTLE.+HILL+REPULSED+BY+BURNSIDE+GALLANT+CONDUCT+OF+THE+COLORED+TROOPS+EVERYTHING+LOOKING+HOPEFUL+SIGEL+BELIEVED+TO+HAVEREACHED+LYNCHBURGH.&amp;rft.au=&amp;rft.aulast=&amp;rft.aufirst=&amp;rft.date=1864-05-13&amp;rft.volume=&amp;rft.issue=&amp;rft.spage=8&amp;rft.isbn=&amp;rft.btitle=&amp;rft.title=New+York+Times+%281857-1922%29&amp;rft.issn=03624331,ProQuest Historical Newspapers: The New York Times (1851-2009) with Index (1851-1993)
VICTORY!,News received to-day continues to be of a most satisfactory character.,91807762,Historical Newspapers,," Copyright New York Times Company May 13, 1864"," 78724211 , 1446314 , 113715", article," May 13, 1864",0362-4331, English, English, 8," New York, N.Y.","May 13, 1864",New York Times (1857-1922),1864,http://search.proquest.com/docview/91807762?accountid=13567, 8,http://openurl.lib.rochester.edu/find?ctx_ver=Z39.88-2004&amp;ctx_enc=info:ofi/enc:UTF-8&amp;rfr_id=info:sid/ProQ%3Ahnpnewyorktimeswindex&amp;rft_val_fmt=info:ofi/fmt:kev:mtx:journal&amp;rft.genre=article&amp;rft.jtitle=New+York+Times+%281857-1922%29&amp;rft.atitle=VICTORY%21%3A+A+DECISIVE+BATTLE.+LEE%27S+ARMY+ROUTED.+A+TERRIFIC+CHARGE+BY+GENERAL+HANCOCK.+DESPERATE+FURY+OF+OUR+MEN.+THREE+GENERALS%2C+50+OFFICERS%2C+3%2C000+MEN+AND+12+GUNS+CAPTURED.+SPLENDID+NEWS+FROM+GENERAL+SHERIDAN.+LEE%27S+COMMUNICATIONS+TOTALLY+SEVERED.+TRAINS+AND+SUPPLIES+CAPTURED.+OVER+FIVE+HUNDRED+UNION+PRISONERS+RETAKEN.+DISPATCHES+FROM+THE+WAR+OFFICE+FIRST+DISPATCH.+%5BOFFICIAL.%5D+SECOND+DISPATCH+%5BOFFICIAL.%5D&amp;rft.au=&amp;rft.aulast=&amp;rft.aufirst=&amp;rft.date=1864-05-13&amp;rft.volume=&amp;rft.issue=&amp;rft.spage=8&amp;rft.isbn=&amp;rft.btitle=&amp;rft.title=New+York+Times+%281857-1922%29&amp;rft.issn=03624331,ProQuest Historical Newspapers: The New York Times (1851-2009) with Index (1851-1993)
Operations of Gen. Robinson's Division The Bodies of Dead and Wounded Consumed by Fire A Night's Fight with the Fifth Corps A Terrible Reception of the Enemy.,"Gen. ROBINSON suffers much from his wound, which is in the knee. His division was in the advance on the Spottsylvania road, from Todd's Tavern, with Gen. PHIL. SHERIDAN'S cavalry, and had driven the rebels about six miles, carrying two positions they had endeavored to hold on to.",91825440,Historical Newspapers,," Copyright New York Times Company May 12, 1864"," 78723979 , 1446313 , 113715", front_page," May 12, 1864",0362-4331, English, English, 1," New York, N.Y.","May 12, 1864",New York Times (1857-1922),1864,http://search.proquest.com/docview/91825440?accountid=13567, 1,http://openurl.lib.rochester.edu/find?ctx_ver=Z39.88-2004&amp;ctx_enc=info:ofi/enc:UTF-8&amp;rfr_id=info:sid/ProQ%3Ahnpnewyorktimeswindex&amp;rft_val_fmt=info:ofi/fmt:kev:mtx:journal&amp;rft.genre=unknown&amp;rft.jtitle=New+York+Times+%281857-1922%29&amp;rft.atitle=Operations+of+Gen.+Robinson%27s+Division+The+Bodies+of+Dead+and+Wounded+Consumed+by+Fire+A+Night%27s+Fight+with+the+Fifth+Corps+A+Terrible+Reception+of+the+Enemy.%3A+THIRD+DISPATCH.&amp;rft.au=&amp;rft.aulast=&amp;rft.aufirst=&amp;rft.date=1864-05-12&amp;rft.volume=&amp;rft.issue=&amp;rft.spage=1&amp;rft.isbn=&amp;rft.btitle=&amp;rft.title=New+York+Times+%281857-1922%29&amp;rft.issn=03624331,ProQuest Historical Newspapers: The New York Times (1851-2009) with Index (1851-1993)
SPECIAL DISPATCHES TO THE N.Y. TIMES,"The latest news received here from Gen GRANT'S army relates to the operations of Monday and yesterday. The fight on Monday evening was very severe, inflicting a loss on our side of over two thousand men killed and wounded. It was brought on by HANCOCK, who, in his effort to take Spottsylvania Court-house, accomplished the crossing of the River Po under cover of a tremendous artillery fire, and established himself on the south bank.",91814527,Historical Newspapers,," Copyright New York Times Company May 12, 1864"," 78723973 , 1446313 , 113715", front_page," May 12, 1864",0362-4331, English, English, 1," New York, N.Y.","May 12, 1864",New York Times (1857-1922),1864,http://search.proquest.com/docview/91814527?accountid=13567, 1,http://openurl.lib.rochester.edu/find?ctx_ver=Z39.88-2004&amp;ctx_enc=info:ofi/enc:UTF-8&amp;rfr_id=info:sid/ProQ%3Ahnpnewyorktimeswindex&amp;rft_val_fmt=info:ofi/fmt:kev:mtx:journal&amp;rft.genre=unknown&amp;rft.jtitle=New+York+Times+%281857-1922%29&amp;rft.atitle=SPECIAL+DISPATCHES+TO+THE+N.Y.+TIMES%3A+THE+BATTLE+OF+MONDAY+EVENING+HANCOCK+CROSSES+THE+RIVER+PO+LEE%27S+POSITION+AND+LINE+OF+BATTLE+SIGNS+OF+DESPONDENCY+ON+THE+PART+OF+THE+REBELS+NO+SIGNS+OF+WEARINESS+IN+GRANT%27S+ARMY+LEE+OUT+OF+RATIONS+SIX+THOUSAND+PRISONERS+CAPTURED.&amp;rft.au=&amp;rft.aulast=&amp;rft.aufirst=&amp;rft.date=1864-05-12&amp;rft.volume=&amp;rft.issue=&amp;rft.spage=1&amp;rft.isbn=&amp;rft.btitle=&amp;rft.title=New+York+Times+%281857-1922%29&amp;rft.issn=03624331,ProQuest Historical Newspapers: The New York Times (1851-2009) with Index (1851-1993)
THE GREAT CAMPAIGN.,"Dispatches from the Army of the Potomac have just reached here, bearing dates to 5 o'clock P.M., of yesterday. Both armies at that time held their positions at Spottsylvania Court-house, without any material change.",91815523,Historical Newspapers," Major-Gen. Dix:
Major-Gen. Dix:"," Copyright New York Times Company May 12, 1864"," 78723971-1 , 1446313 , 113715", front_page," May 12, 1864",0362-4331, English, English, 1," New York, N.Y.","May 12, 1864",New York Times (1857-1922),1864,http://search.proquest.com/docview/91815523?accountid=13567, 1,http://openurl.lib.rochester.edu/find?ctx_ver=Z39.88-2004&amp;ctx_enc=info:ofi/enc:UTF-8&amp;rfr_id=info:sid/ProQ%3Ahnpnewyorktimeswindex&amp;rft_val_fmt=info:ofi/fmt:kev:mtx:journal&amp;rft.genre=unknown&amp;rft.jtitle=New+York+Times+%281857-1922%29&amp;rft.atitle=THE+GREAT+CAMPAIGN.%3A+ANOTHER+TERRIFIC+BATTLE%2C+ANOTHER+DEFEAT+OF+THE+REBELS.+THE+REBEL+RIGHT+CRUSHED.+THREE+BRIGADES+AND+FOUR+GUNS+CAPTURED.+THE+REBEL+INTRENCHMENTS+OCCUPIED.+THE+BATTLE+NOT+RENEWED+YESTERDAY+AUTHENTIC+DETAILS+TO+WEDNESDAY+AT+10+O%27CLOCK.+HANCOCK+CROSSES+THE+RIVER+PO.+THE+REBEL+ARMY+BECOMING+DISHEARTENED.+SIX+THOUSAND+PRISONERS+CAPTURED.+DEATH+OF+BRIGADIER-GENERAL+STEVENSON%2C+OF+MASSACHUSETTS.+CONTINUED+SUCCESS+OF+GEN.+BUTLER.+LATER+INTELLIGENCE+FROM+GENERAL+SHERMAN.+RELIABLE+DETAILS+FROM+THE+WAR+OFFICE+AND+OUR+SPECIAL+CORRESPONDENTS.+DISPATCHES+FROM+THE+WAR+OFFICE.+ADVICES+FROM+GEN.+GRANT+TO+TUESDAY+AT+FIVE+O%27CLOCK+THE+ENEMY+DRIVEN+TO+THEIR+BREASTWORKS+THEIR+FIRST+LINE+OF+RIFLE+PITS+CARRIED-THE+WOUNDED.&amp;rft.au=Major-Gen.+Dix%3A&amp;rft.aulast=Major-Gen.+Dix%3A&amp;rft.aufirst=&amp;rft.date=1864-05-12&amp;rft.volume=&amp;rft.issue=&amp;rft.spage=1&amp;rft.isbn=&amp;rft.btitle=&amp;rft.title=New+York+Times+%281857-1922%29&amp;rft.issn=03624331,ProQuest Historical Newspapers: The New York Times (1851-2009) with Index (1851-1993)
VERY LATEST.,"A distinguished officer arrived here about 10 o'clock to-night who was present during the terrible conflict of yesterday afternoon and last evening, and who left Gen. GRANT in the saddle as late as ten o'clock this morning. He sums up the bloody work of yesterday thus:",91837048,Historical Newspapers,," Copyright New York Times Company May 12, 1864"," 78724073 , 1446313 , 113715", article," May 12, 1864",0362-4331, English, English, 8," New York, N.Y.","May 12, 1864",New York Times (1857-1922),1864,http://search.proquest.com/docview/91837048?accountid=13567, 8,http://openurl.lib.rochester.edu/find?ctx_ver=Z39.88-2004&amp;ctx_enc=info:ofi/enc:UTF-8&amp;rfr_id=info:sid/ProQ%3Ahnpnewyorktimeswindex&amp;rft_val_fmt=info:ofi/fmt:kev:mtx:journal&amp;rft.genre=article&amp;rft.jtitle=New+York+Times+%281857-1922%29&amp;rft.atitle=VERY+LATEST.%3A+ANOTHER+TERRIBLE+BATTLE+ON+TUESDAY.+ADVICES+UP+TO+WEDNESDAY+MORNING+AT+10+O%27CLOCK.+WASHINGTON%2C+WEDNESDAY%2C+MAY+11.&amp;rft.au=&amp;rft.aulast=&amp;rft.aufirst=&amp;rft.date=1864-05-12&amp;rft.volume=&amp;rft.issue=&amp;rft.spage=8&amp;rft.isbn=&amp;rft.btitle=&amp;rft.title=New+York+Times+%281857-1922%29&amp;rft.issn=03624331,ProQuest Historical Newspapers: The New York Times (1851-2009) with Index (1851-1993)
GRANT'S ADVANCE.,To Maj.-Gen Dix: Dispatches have been received this evening from Lieut.-Gen. GRANT dated at 1 o'clock yesterday.,91823522,Historical Newspapers,," Copyright New York Times Company May 11, 1864"," 78723883 , 1446312 , 113715", front_page," May 11, 1864",0362-4331, English, English, 1," New York, N.Y.","May 11, 1864",New York Times (1857-1922),1864,http://search.proquest.com/docview/91823522?accountid=13567, 1,http://openurl.lib.rochester.edu/find?ctx_ver=Z39.88-2004&amp;ctx_enc=info:ofi/enc:UTF-8&amp;rfr_id=info:sid/ProQ%3Ahnpnewyorktimeswindex&amp;rft_val_fmt=info:ofi/fmt:kev:mtx:journal&amp;rft.genre=unknown&amp;rft.jtitle=New+York+Times+%281857-1922%29&amp;rft.atitle=GRANT%27S+ADVANCE.%3A+OFFICIAL+DISPATCHES+TO+SUNDAY+NOON.+THE+REBELS+MAKE+A+STAND+AT+SPOTTSYLVANIA.+SOME+HARD+FIGHTING%2C+BUT+NO+GENERAL+ENGAGEMENT.+DEATH+OF+GENERAL+SEDGWICK.+THE+BATTLE+PROBABLY+RENEWED+YESTERDAY.+THE+ARMY+REPLENISHING+SUPPLIES+FOR+A+RAPID+MARCH.+VERY+IMPORTANT+FROM+GENERAL+BUTLER.+A+SEVERE+BATTLE+ON+MONDAY.+THE+PETERSBURGH+RAILROAD+IN+OUR+POSSESSION.+BEAUREGARD+DEFEATED+AND+HIS+FORCES+DIVIDED.+IMPORTANT+FROM+SHERMAN+A+GREAT+BATTLE+GOING+ON+NEAR+DALTON.+FROM+GEN.+SHERMAN%27S+ARMY+IMPORTANT+PROGRESS+A+GREAT+BATTLE+PROBABLY+IN+PROGRESS.+FROM+GEN.+BUTLER%27S+ARMY+BEAUREGARD+DEFEATED+HIS+FORCES+DIVIDED+THE+RAILROADCUT+NORTH+AND+SOUTH+OF+PETERSBURGH+ASEVERE+BATTLE+ON+SUNDAY+MANY+PRISONERS+CAPTURED.&amp;rft.au=&amp;rft.aulast=&amp;rft.aufirst=&amp;rft.date=1864-05-11&amp;rft.volume=&amp;rft.issue=&amp;rft.spage=1&amp;rft.isbn=&amp;rft.btitle=&amp;rft.title=New+York+Times+%281857-1922%29&amp;rft.issn=03624331,ProQuest Historical Newspapers: The New York Times (1851-2009) with Index (1851-1993)
RICHMOND AND THE REBELLION.,mond papers of Friday last express great fear for the safety of that city. The Whig seems to think there is not only danger im- pending over the rebel captial but over the,91830474,Historical Newspapers,," Copyright New York Times Company May 11, 1864"," 78723927 , 1446312 , 113715", article," May 11, 1864",0362-4331, English, English, 4," New York, N.Y.","May 11, 1864",New York Times (1857-1922),1864,http://search.proquest.com/docview/91830474?accountid=13567, 4,http://openurl.lib.rochester.edu/find?ctx_ver=Z39.88-2004&amp;ctx_enc=info:ofi/enc:UTF-8&amp;rfr_id=info:sid/ProQ%3Ahnpnewyorktimeswindex&amp;rft_val_fmt=info:ofi/fmt:kev:mtx:journal&amp;rft.genre=article&amp;rft.jtitle=New+York+Times+%281857-1922%29&amp;rft.atitle=RICHMOND+AND+THE+REBELLION.&amp;rft.au=&amp;rft.aulast=&amp;rft.aufirst=&amp;rft.date=1864-05-11&amp;rft.volume=&amp;rft.issue=&amp;rft.spage=4&amp;rft.isbn=&amp;rft.btitle=&amp;rft.title=New+York+Times+%281857-1922%29&amp;rft.issn=03624331,ProQuest Historical Newspapers: The New York Times (1851-2009) with Index (1851-1993)
POSTSCRIPT.,"The Army of the Potomac has had a portion of a day to recuperate. Gen. BURNSIDE on Monday began the attack on the left with great fury, and with an encouraging degree of success. He had a fight the day before, in which, to use his own words, he ""whipped old LONGSTREET.""",91857270,Historical Newspapers,," Copyright New York Times Company May 11, 1864"," 78723953-1 , 1446312 , 113715", article," May 11, 1864",0362-4331, English, English, 8," New York, N.Y.","May 11, 1864",New York Times (1857-1922),1864,http://search.proquest.com/docview/91857270?accountid=13567, 8,http://openurl.lib.rochester.edu/find?ctx_ver=Z39.88-2004&amp;ctx_enc=info:ofi/enc:UTF-8&amp;rfr_id=info:sid/ProQ%3Ahnpnewyorktimeswindex&amp;rft_val_fmt=info:ofi/fmt:kev:mtx:journal&amp;rft.genre=article&amp;rft.jtitle=New+York+Times+%281857-1922%29&amp;rft.atitle=POSTSCRIPT.%3A+FROM+THE+ARMY.+THE+POSITION+OF+THE+FORCES.+THE+REBELS+OCCUPY+SPOTTSYLVANIA.+LONGSTREET%27S+CORPS+DEFEATED+BY+GEN.+BURNSIDE.+DEATH+OF+LONGSTREET.+PARTICULAR+OF+GEN.+SEDGWICK%27S+DEATH.+FURTHER+LISTS+OF+CASUALTIES.+ARRIVAL+OF+EXCHANGED+PRISONERS+RICHMOND+EXCITED.&amp;rft.au=&amp;rft.aulast=&amp;rft.aufirst=&amp;rft.date=1864-05-11&amp;rft.volume=&amp;rft.issue=&amp;rft.spage=8&amp;rft.isbn=&amp;rft.btitle=&amp;rft.title=New+York+Times+%281857-1922%29&amp;rft.issn=03624331,ProQuest Historical Newspapers: The New York Times (1851-2009) with Index (1851-1993)
DISPATCHES FROM THE WAR-OFFICE.,,91815609,Historical Newspapers,," Copyright New York Times Company May 10, 1864"," 80294705 , 1459054 , 113715", article," May 10, 1864",0362-4331, English, English, 1," New York, N.Y.","May 10, 1864",New York Times (1857-1922),1864,http://search.proquest.com/docview/91815609?accountid=13567, 1,http://openurl.lib.rochester.edu/find?ctx_ver=Z39.88-2004&amp;ctx_enc=info:ofi/enc:UTF-8&amp;rfr_id=info:sid/ProQ%3Ahnpnewyorktimeswindex&amp;rft_val_fmt=info:ofi/fmt:kev:mtx:journal&amp;rft.genre=article&amp;rft.jtitle=New+York+Times+%281857-1922%29&amp;rft.atitle=DISPATCHES+FROM+THE+WAR-OFFICE.%3A+FIRST+DISPATCH.+THE+GENERAL+RESULT+A+SUCCESS--THE+FIGHTING+DESPERATE-THE+COOL%2C+DETERMINED+COURAGE+OF+THE+ARMY--THE+DEATH+OF+GEN.WADSWORTH--GEN.+SHERMAN+HEARD+FROM.&amp;rft.au=&amp;rft.aulast=&amp;rft.aufirst=&amp;rft.date=1864-05-10&amp;rft.volume=&amp;rft.issue=&amp;rft.spage=1&amp;rft.isbn=&amp;rft.btitle=&amp;rft.title=New+York+Times+%281857-1922%29&amp;rft.issn=03624331,ProQuest Historical Newspapers: The New York Times (1851-2009) with Index (1851-1993)
THIRD DISPATCH.,,91815552,Historical Newspapers,," Copyright New York Times Company May 10, 1864"," 80294707 , 1459054 , 113715", front_page," May 10, 1864",0362-4331, English, English, 1," New York, N.Y.","May 10, 1864",New York Times (1857-1922),1864,http://search.proquest.com/docview/91815552?accountid=13567, 1,http://openurl.lib.rochester.edu/find?ctx_ver=Z39.88-2004&amp;ctx_enc=info:ofi/enc:UTF-8&amp;rfr_id=info:sid/ProQ%3Ahnpnewyorktimeswindex&amp;rft_val_fmt=info:ofi/fmt:kev:mtx:journal&amp;rft.genre=unknown&amp;rft.jtitle=New+York+Times+%281857-1922%29&amp;rft.atitle=THIRD+DISPATCH.%3A+GEN.+GRANT+%22ON+TO+RICHMOND%22+CAPTURE+OF+TWO+THOUSAND+PRISONERS.&amp;rft.au=&amp;rft.aulast=&amp;rft.aufirst=&amp;rft.date=1864-05-10&amp;rft.volume=&amp;rft.issue=&amp;rft.spage=1&amp;rft.isbn=&amp;rft.btitle=&amp;rft.title=New+York+Times+%281857-1922%29&amp;rft.issn=03624331,ProQuest Historical Newspapers: The New York Times (1851-2009) with Index (1851-1993)
Richmond and Petersburgh Not Evacuated. Gen. Hancock in Vigorous Pursuit of Lee The Casualties.,,91826594,Historical Newspapers,," Copyright New York Times Company May 10, 1864"," 80294713 , 1459054 , 113715", front_page," May 10, 1864",0362-4331, English, English, 1," New York, N.Y.","May 10, 1864",New York Times (1857-1922),1864,http://search.proquest.com/docview/91826594?accountid=13567, 1,http://openurl.lib.rochester.edu/find?ctx_ver=Z39.88-2004&amp;ctx_enc=info:ofi/enc:UTF-8&amp;rfr_id=info:sid/ProQ%3Ahnpnewyorktimeswindex&amp;rft_val_fmt=info:ofi/fmt:kev:mtx:journal&amp;rft.genre=unknown&amp;rft.jtitle=New+York+Times+%281857-1922%29&amp;rft.atitle=Richmond+and+Petersburgh+Not+Evacuated.+Gen.+Hancock+in+Vigorous+Pursuit+of+Lee+The+Casualties.&amp;rft.au=&amp;rft.aulast=&amp;rft.aufirst=&amp;rft.date=1864-05-10&amp;rft.volume=&amp;rft.issue=&amp;rft.spage=1&amp;rft.isbn=&amp;rft.btitle=&amp;rft.title=New+York+Times+%281857-1922%29&amp;rft.issn=03624331,ProQuest Historical Newspapers: The New York Times (1851-2009) with Index (1851-1993)
The Result of Friday's Fighting Very Advantageous Lee Falling Back He Leaves his Dead and Wounded in our Hands.,,91837578,Historical Newspapers,," Copyright New York Times Company May 10, 1864"," 80294714 , 1459054 , 113715", front_page," May 10, 1864",0362-4331, English, English, 1," New York, N.Y.","May 10, 1864",New York Times (1857-1922),1864,http://search.proquest.com/docview/91837578?accountid=13567, 1,http://openurl.lib.rochester.edu/find?ctx_ver=Z39.88-2004&amp;ctx_enc=info:ofi/enc:UTF-8&amp;rfr_id=info:sid/ProQ%3Ahnpnewyorktimeswindex&amp;rft_val_fmt=info:ofi/fmt:kev:mtx:journal&amp;rft.genre=unknown&amp;rft.jtitle=New+York+Times+%281857-1922%29&amp;rft.atitle=The+Result+of+Friday%27s+Fighting+Very+Advantageous+Lee+Falling+Back+He+Leaves+his+Dead+and+Wounded+in+our+Hands.&amp;rft.au=&amp;rft.aulast=&amp;rft.aufirst=&amp;rft.date=1864-05-10&amp;rft.volume=&amp;rft.issue=&amp;rft.spage=1&amp;rft.isbn=&amp;rft.btitle=&amp;rft.title=New+York+Times+%281857-1922%29&amp;rft.issn=03624331,ProQuest Historical Newspapers: The New York Times (1851-2009) with Index (1851-1993)
FOURTH DISPATCH.,,91837530,Historical Newspapers,," Copyright New York Times Company May 10, 1864"," 80294708 , 1459054 , 113715", front_page," May 10, 1864",0362-4331, English, English, 1," New York, N.Y.","May 10, 1864",New York Times (1857-1922),1864,http://search.proquest.com/docview/91837530?accountid=13567, 1,http://openurl.lib.rochester.edu/find?ctx_ver=Z39.88-2004&amp;ctx_enc=info:ofi/enc:UTF-8&amp;rfr_id=info:sid/ProQ%3Ahnpnewyorktimeswindex&amp;rft_val_fmt=info:ofi/fmt:kev:mtx:journal&amp;rft.genre=unknown&amp;rft.jtitle=New+York+Times+%281857-1922%29&amp;rft.atitle=FOURTH+DISPATCH.%3A+LEE+RETREATS+FRIDAY+NIGHT--GRANT%27S+PURSUIT+ON+SATURDAY--HANCOCK+PASSES+THROUGH+SPOTTSYLVANIA+COURT-HOUSE+ON+SUNDAY+MORNING--HEADQUARTERS+TWENTY+MILES+FROM+THE+BATTLE-FIELD+ON+SUNDAY--OCCUPATION+OF+FREDERICKSBURGH--DEPOT+FOR+THE+WOUNDED+ESTABLISHED+THERE.&amp;rft.au=&amp;rft.aulast=&amp;rft.aufirst=&amp;rft.date=1864-05-10&amp;rft.volume=&amp;rft.issue=&amp;rft.spage=1&amp;rft.isbn=&amp;rft.btitle=&amp;rft.title=New+York+Times+%281857-1922%29&amp;rft.issn=03624331,ProQuest Historical Newspapers: The New York Times (1851-2009) with Index (1851-1993)
"""ON TO RICHMOND.""",,91847348,Historical Newspapers,," Copyright New York Times Company May 10, 1864"," 80294704-1 , 1459054 , 113715", front_page," May 10, 1864",0362-4331, English, English, 1," New York, N.Y.","May 10, 1864",New York Times (1857-1922),1864,http://search.proquest.com/docview/91847348?accountid=13567, 1,http://openurl.lib.rochester.edu/find?ctx_ver=Z39.88-2004&amp;ctx_enc=info:ofi/enc:UTF-8&amp;rfr_id=info:sid/ProQ%3Ahnpnewyorktimeswindex&amp;rft_val_fmt=info:ofi/fmt:kev:mtx:journal&amp;rft.genre=unknown&amp;rft.jtitle=New+York+Times+%281857-1922%29&amp;rft.atitle=%22ON+TO+RICHMOND.%22%3A+LEE%27S+DEFEAT+AND+RETREAT+FULLY+CONFIRMED.+OUR+ARMY+IN+VIGOROUS+PURSUIT.+OFFICIAL+DISPATCHES+FROM+GRANT+AND+MEADE.+LEE%27S+REPORT+OF+THE+BATTLES.+THE+REBEL+DEAD+AND+WOUNDED+LEFT+ON+THE+FIELD.+ADVANCE+OF+HANCOCK.+HE+PASSES+THROUGH+SPOTTSYLVANIA+ON+SUNDAY.+TWO+THOUSAND+PRISONERS+CAPTURED.+FREDERICKSBURG+AGAIN+OCCUPIED+A+DEPOT+FOR+THE+WOUNDED+ESTABLISHED+THERE.IMPORTANT+FROM+GEN.+BUTLER.A+SEVERE+BATTLE+FOUGHT+ON+SATURDAY.+THE+RAILROAD+DESTROYED+BETWEEN+PETERSBURGH+AND+RICHMOND.+CAPTURE+OF+THE+GUNBOAT+SHOSHONE.THE+CASULTIES+OF+THE+BATTLES.GEN.+WADSWORTH+KILLED+THE+REBEL+LONGSTREET+MORTALLYWOUNDED.PROCLAMATION+FROM+THE+PRESIDENTEXECUTIVE+RECOMMENDATIONFOR+PRAYER+AND+ESPECIAL+GRATITUDE+TO+GOD%2CIN+VIEW+OF+THE+GREAT+VICTORY.&amp;rft.au=&amp;rft.aulast=&amp;rft.aufirst=&amp;rft.date=1864-05-10&amp;rft.volume=&amp;rft.issue=&amp;rft.spage=1&amp;rft.isbn=&amp;rft.btitle=&amp;rft.title=New+York+Times+%281857-1922%29&amp;rft.issn=03624331,ProQuest Historical Newspapers: The New York Times (1851-2009) with Index (1851-1993)
