Title,Abstract,StoreId,ArticleType,Authors,copyright,digitalObjectIdentifier,documentType,entryDate,issn,language,languageOfSummary,pages,placeOfPublication,pubdate,pubtitle,year,DocumentURL,startPage,FindACopy,Database
IMPORTANT.,,91816169,Historical Newspapers,," Copyright New York Times Company Jun 18, 1864"," 78725277-1 , 1446326 , 113715", front_page," Jun 18, 1864",0362-4331, English, English, 1," New York, N.Y.","Jun 18, 1864",New York Times (1857-1922),1864,http://search.proquest.com/docview/91816169?accountid=13567, 1,http://openurl.lib.rochester.edu/find?ctx_ver=Z39.88-2004&amp;ctx_enc=info:ofi/enc:UTF-8&amp;rfr_id=info:sid/ProQ%3Ahnpnewyorktimeswindex&amp;rft_val_fmt=info:ofi/fmt:kev:mtx:journal&amp;rft.genre=unknown&amp;rft.jtitle=New+York+Times+%281857-1922%29&amp;rft.atitle=IMPORTANT.%3A+PETERSBURG+CAPTURED.+THE+FORTIFICATIONS+STORMED+BY%2C+GENERAL+SMITH.+BOTH+LINES+CARRIED.+FOUR+HUNDRED+PRISONERS+AND+SIXTEEN+GUNS+TAKEN.+DISTINGUISHED+GALLANTRY+OF+THE+BLACK+LEGION.+GEN.+SMITH+TENDERS+HIS+THANKS+TO+THEM.+PETERSBURGH+UNDER+OUR+GUNS.+THE+REBELS+ON+THE+WEST+SIDE+OF+THE+APPOMATTEX.+THE+ARMY+ALL+ACROSS+THE+JAMES.+HANCOCK+IN+JUNCTION+WITH+SMITH.+GRANT+WELL+AHEAD+OF+LEE.+SECRETARY+STANTON+TO+GENERAL+DIX.+%5BOFFICIAL.%5D&amp;rft.au=&amp;rft.aulast=&amp;rft.aufirst=&amp;rft.date=1864-06-18&amp;rft.volume=&amp;rft.issue=&amp;rft.spage=1&amp;rft.isbn=&amp;rft.btitle=&amp;rft.title=New+York+Times+%281857-1922%29&amp;rft.issn=03624331,ProQuest Historical Newspapers: The New York Times (1851-2009) with Index (1851-1993)
GRANT'S LAST MOVEMENT.,The clear and succinct dispatches of the Secretary of War have made the country acquainted with the outline facts of the last great move of Gen. GRANT the transfer of the Army of the Potomac from the Chickahominy to the James River.,91797064,Historical Newspapers," From Our Special Correspondent.
From Our Special Correspondent."," Copyright New York Times Company Jun 18, 1864"," 78725286 , 1446326 , 113715", front_page," Jun 18, 1864",0362-4331, English, English, 1," New York, N.Y.","Jun 18, 1864",New York Times (1857-1922),1864,http://search.proquest.com/docview/91797064?accountid=13567, 1,http://openurl.lib.rochester.edu/find?ctx_ver=Z39.88-2004&amp;ctx_enc=info:ofi/enc:UTF-8&amp;rfr_id=info:sid/ProQ%3Ahnpnewyorktimeswindex&amp;rft_val_fmt=info:ofi/fmt:kev:mtx:journal&amp;rft.genre=unknown&amp;rft.jtitle=New+York+Times+%281857-1922%29&amp;rft.atitle=GRANT%27S+LAST+MOVEMENT.%3A+ITS+MILITARY+ASPECTS+AND+OBJECTS+ITS+PROBABLE+EFFECT+UPON+THE+CAMPAIGN.&amp;rft.au=From+Our+Special+Correspondent.&amp;rft.aulast=From+Our+Special+Correspondent.&amp;rft.aufirst=&amp;rft.date=1864-06-18&amp;rft.volume=&amp;rft.issue=&amp;rft.spage=1&amp;rft.isbn=&amp;rft.btitle=&amp;rft.title=New+York+Times+%281857-1922%29&amp;rft.issn=03624331,ProQuest Historical Newspapers: The New York Times (1851-2009) with Index (1851-1993)
REBEL ACCOUNTS.,"Early yesterday morning heavy canonading was heard along the right of our lines, and soon the report came to the city that the enemy were moving off. Later information stated that he had thrown a portion of his forces across to this side of the Chickahominy, and was moving in the direction of Malvern Hill, which position he is reported to have occupied.",91819447,Historical Newspapers,," Copyright New York Times Company Jun 17, 1864"," 90562655 , 1524492 , 113715", front_page," Jun 17, 1864",0362-4331, English, English, 1," New York, N.Y.","Jun 17, 1864",New York Times (1857-1922),1864,http://search.proquest.com/docview/91819447?accountid=13567, 1,http://openurl.lib.rochester.edu/find?ctx_ver=Z39.88-2004&amp;ctx_enc=info:ofi/enc:UTF-8&amp;rfr_id=info:sid/ProQ%3Ahnpnewyorktimeswindex&amp;rft_val_fmt=info:ofi/fmt:kev:mtx:journal&amp;rft.genre=unknown&amp;rft.jtitle=New+York+Times+%281857-1922%29&amp;rft.atitle=REBEL+ACCOUNTS.%3A+THE+WAR+IN+VIRGINIA--GRANT%27S+LAST+MOVEMENT--THE+REBEL+ARMY+SURPRISED--THE+ATTACK+ON+PETERSBURGH--THE+LATE+FIGHTS+IN+MISSISSIPPI--OPERATIONS+IN+GEORGIA.+THE+WAR+IN+VIRGINIA.+GRANT%27S+MOVEMENTS.+COMMANDANT+OF+CAVALRY.+FROM+GEN.+LEE%27S+ARMY.+AFFAIRS+IN+THE+VALLEY.+THE+ATTACK+ON+PETERSBURGH.&amp;rft.au=&amp;rft.aulast=&amp;rft.aufirst=&amp;rft.date=1864-06-17&amp;rft.volume=&amp;rft.issue=&amp;rft.spage=1&amp;rft.isbn=&amp;rft.btitle=&amp;rft.title=New+York+Times+%281857-1922%29&amp;rft.issn=03624331,ProQuest Historical Newspapers: The New York Times (1851-2009) with Index (1851-1993)
Grant's Army all South of the James.,"One of Gen. GRANT'S couriers who arrived here this morning from Bermuda Hundred, with dispatches for the Government, says that when he left there on yesterday morning, (Wednesday, the 15th,) fighting was going on in the vicinity of Petersburgh.",91791692,Historical Newspapers,," Copyright New York Times Company Jun 17, 1864"," 90562647-1 , 1524492 , 113715", front_page," Jun 17, 1864",0362-4331, English, English, 1," New York, N.Y.","Jun 17, 1864",New York Times (1857-1922),1864,http://search.proquest.com/docview/91791692?accountid=13567, 1,http://openurl.lib.rochester.edu/find?ctx_ver=Z39.88-2004&amp;ctx_enc=info:ofi/enc:UTF-8&amp;rfr_id=info:sid/ProQ%3Ahnpnewyorktimeswindex&amp;rft_val_fmt=info:ofi/fmt:kev:mtx:journal&amp;rft.genre=unknown&amp;rft.jtitle=New+York+Times+%281857-1922%29&amp;rft.atitle=Grant%27s+Army+all+South+of+the+James.%3A+A+Battle+at+Petersburgh+on+Wednesday.+GEN.+SMITH%27S+CORPS+ENGAGED.+REBEL+ACCOUNTS+OF+LATE+MOVEMENTS.+The+Enemy+Again+Out-generaled.+CELERITY+OF+THE+MARCH+General+Gillmore+Relieved+by+General+Butler.+THE+ATTACK+ON+PETERSBURGH.+Hard+Fighting+There+Wednesday+Morning--The+Army+of+the+Potomac+All+Across+the+James.&amp;rft.au=&amp;rft.aulast=&amp;rft.aufirst=&amp;rft.date=1864-06-17&amp;rft.volume=&amp;rft.issue=&amp;rft.spage=1&amp;rft.isbn=&amp;rft.btitle=&amp;rft.title=New+York+Times+%281857-1922%29&amp;rft.issn=03624331,ProQuest Historical Newspapers: The New York Times (1851-2009) with Index (1851-1993)
JAMES RIVER.,"To Major-Gen. Dix: The movement of the Army of the Potomac to the south side of Richmond, across the Chickahominy River and James River, has progressed far enough to admit the publication of some general facts, without danger of premature disclosure.",91815748,Historical Newspapers,," Copyright New York Times Company Jun 16, 1864"," 78725173-1 , 1446325 , 113715", front_page," Jun 16, 1864",0362-4331, English, English, 1," New York, N.Y.","Jun 16, 1864",New York Times (1857-1922),1864,http://search.proquest.com/docview/91815748?accountid=13567, 1,http://openurl.lib.rochester.edu/find?ctx_ver=Z39.88-2004&amp;ctx_enc=info:ofi/enc:UTF-8&amp;rfr_id=info:sid/ProQ%3Ahnpnewyorktimeswindex&amp;rft_val_fmt=info:ofi/fmt:kev:mtx:journal&amp;rft.genre=unknown&amp;rft.jtitle=New+York+Times+%281857-1922%29&amp;rft.atitle=JAMES+RIVER.%3A+GEN.+GRANT+ON+THE+SOUTH+SIDE.+THE+MOVEMENT+SUCCESSFULLY+EXECUTED.+THE+MARCH+BEGUN+ON+SUNDAY.+THE+RIVER+CROSSED+ON+TUESDAY.+NO+INTERRUPTION+FROM+THE+ENEMY.+IMPORTANT+FROM+GEN.+SHERMAN.+HIS+ARMY+ADVANCING+ON+MARIETTA.DEATH+OF+THE+REBEL+GENERAL+POLK.DISPATCHES+FROM+SECRETARY+STANTON-LATE+INTELLIGENCE+FROM+GEN.+SHERMAN-FIGHTING+GOING+ON+AT+KENESAW+THE+REBEL+GEN.+POLK+KILLED+THE+DISASTER+TO+GEN.+STURGLE+AND+THE+MEANS+TAKEN+TO+REPAIR+IT.%5BOFFICIAL.%5D&amp;rft.au=&amp;rft.aulast=&amp;rft.aufirst=&amp;rft.date=1864-06-16&amp;rft.volume=&amp;rft.issue=&amp;rft.spage=1&amp;rft.isbn=&amp;rft.btitle=&amp;rft.title=New+York+Times+%281857-1922%29&amp;rft.issn=03624331,ProQuest Historical Newspapers: The New York Times (1851-2009) with Index (1851-1993)
GRANT'S TACTICS.,"We think it mad be safely asserted that, since war first became known to mankind, no General ever sacrificed his men so recklessly, so remorselessly, and to so little purpose, as Gen. GRANT. He started from his camp on the north side of the Rappahannoek, little more than a month ago, with 130,- 00 men.",91860030,Historical Newspapers," From the Houston Telegraph.From the Richmond Dispatch, June 9.
From the Houston Telegraph.From the Richmond Dispatch, June 9."," Copyright New York Times Company Jun 15, 1864"," 78990978 , 1449476 , 113715", front_page," Jun 15, 1864",0362-4331, English, English, 1," New York, N.Y.","Jun 15, 1864",New York Times (1857-1922),1864,http://search.proquest.com/docview/91860030?accountid=13567, 1,http://openurl.lib.rochester.edu/find?ctx_ver=Z39.88-2004&amp;ctx_enc=info:ofi/enc:UTF-8&amp;rfr_id=info:sid/ProQ%3Ahnpnewyorktimeswindex&amp;rft_val_fmt=info:ofi/fmt:kev:mtx:journal&amp;rft.genre=unknown&amp;rft.jtitle=New+York+Times+%281857-1922%29&amp;rft.atitle=GRANT%27S+TACTICS.%3A+CAPTURE+OF+TWO+YANKEE+GUNBOATS.+TRIAL+OF+MRS+PATTERSON+ALLEN.&amp;rft.au=From+the+Houston+Telegraph.From+the+Richmond+Dispatch%2C+June+9.&amp;rft.aulast=From+the+Houston+Telegraph.From+the+Richmond+Dispatch&amp;rft.aufirst=June&amp;rft.date=1864-06-15&amp;rft.volume=&amp;rft.issue=&amp;rft.spage=1&amp;rft.isbn=&amp;rft.btitle=&amp;rft.title=New+York+Times+%281857-1922%29&amp;rft.issn=03624331,ProQuest Historical Newspapers: The New York Times (1851-2009) with Index (1851-1993)
ARMY OF THE POTOMAC,"To Major Gen. Dix, New-York: We have dispatches from the Army of the Potomac as late as 8 o'clock this morning. The movement was at that hour in successful progress.",91844007,Historical Newspapers,," Copyright New York Times Company Jun 14, 1864"," 80296006-1 , 1459070 , 113715", front_page," Jun 14, 1864",0362-4331, English, English, 1," New York, N.Y.","Jun 14, 1864",New York Times (1857-1922),1864,http://search.proquest.com/docview/91844007?accountid=13567, 1,http://openurl.lib.rochester.edu/find?ctx_ver=Z39.88-2004&amp;ctx_enc=info:ofi/enc:UTF-8&amp;rfr_id=info:sid/ProQ%3Ahnpnewyorktimeswindex&amp;rft_val_fmt=info:ofi/fmt:kev:mtx:journal&amp;rft.genre=unknown&amp;rft.jtitle=New+York+Times+%281857-1922%29&amp;rft.atitle=ARMY+OF+THE+POTOMAC%3A+NEWS+TO+MONDAY+MORNING+AN+IMPORTANT+MOVEMENT+IN+SUCCESSFUL+PROGRESS.+REPORTED+CAPTURE+OF+BOTTOM%27S+BRIDGE.+OUR+ARMY+SAID+TO+BE+SAFELY+ACROSS.+THE+YORK+RIVER+RAILROAD+DEMOLISHED.+ALL+QUIET+AT+BERMUDA+HUNDRED.+SIGNIFICANT+SHIPMENT+OF+SIEGE+GUNS+AND+INTRENCHING+TOOLS.+NEWS+FROM+GEN.+GRANT+TO+MONDAY+MORNING--A+MOVEMENT+IN+SUCCESSFUL+PROGRESS--GEN.+BURBRIDGE%27S+VICTORY+FULLY+CONFIRMED.+%5BOFFICIAL.%5D+THE+POSITION+ON+SUNDAY--ALL+QUIET--UNAUTHORIZED+TRUCES--CASUALTIES.+REPORTED+CAPTURE+OF+BOTTOM%27S+BIRDGE--A+BAYONET+CHARGE--OUR+ARMY+SAID+TO+BE+ALL+ACROSS+THE+CHICKAHOMINY.+ARRIVAL+OF+WOUNDED+AT+WASHINGTON.&amp;rft.au=&amp;rft.aulast=&amp;rft.aufirst=&amp;rft.date=1864-06-14&amp;rft.volume=&amp;rft.issue=&amp;rft.spage=1&amp;rft.isbn=&amp;rft.btitle=&amp;rft.title=New+York+Times+%281857-1922%29&amp;rft.issn=03624331,ProQuest Historical Newspapers: The New York Times (1851-2009) with Index (1851-1993)
THE REBELLION.,"The latest intelligence from Gen. GRANT'S army is up to Monday morning, at which time an important movement was reported to be in successful progress. A report comes by way of Washington and Philadelphia, though not confirmed from other sources, that Gen. HANCOCK captured Bottom's Bridge on...",91840859,Historical Newspapers,," Copyright New York Times Company Jun 14, 1864"," 80296048 , 1459070 , 113715", article," Jun 14, 1864",0362-4331, English, English, 4," New York, N.Y.","Jun 14, 1864",New York Times (1857-1922),1864,http://search.proquest.com/docview/91840859?accountid=13567, 4,http://openurl.lib.rochester.edu/find?ctx_ver=Z39.88-2004&amp;ctx_enc=info:ofi/enc:UTF-8&amp;rfr_id=info:sid/ProQ%3Ahnpnewyorktimeswindex&amp;rft_val_fmt=info:ofi/fmt:kev:mtx:journal&amp;rft.genre=article&amp;rft.jtitle=New+York+Times+%281857-1922%29&amp;rft.atitle=THE+REBELLION.&amp;rft.au=&amp;rft.aulast=&amp;rft.aufirst=&amp;rft.date=1864-06-14&amp;rft.volume=&amp;rft.issue=&amp;rft.spage=4&amp;rft.isbn=&amp;rft.btitle=&amp;rft.title=New+York+Times+%281857-1922%29&amp;rft.issn=03624331,ProQuest Historical Newspapers: The New York Times (1851-2009) with Index (1851-1993)
THE WAR.,"Major-Gen. Dix: A dispatch from Gen. HUNTER, dated 6 o'clock in the morning of the 8th inst., at Staunton, reports that "" we met the enemy at Piedmont last Sunday,...",91831327,Historical Newspapers,," Copyright New York Times Company Jun 13, 1864"," 80295906 , 1459069 , 113715", front_page," Jun 13, 1864",0362-4331, English, English, 1," New York, N.Y.","Jun 13, 1864",New York Times (1857-1922),1864,http://search.proquest.com/docview/91831327?accountid=13567, 1,http://openurl.lib.rochester.edu/find?ctx_ver=Z39.88-2004&amp;ctx_enc=info:ofi/enc:UTF-8&amp;rfr_id=info:sid/ProQ%3Ahnpnewyorktimeswindex&amp;rft_val_fmt=info:ofi/fmt:kev:mtx:journal&amp;rft.genre=unknown&amp;rft.jtitle=New+York+Times+%281857-1922%29&amp;rft.atitle=THE+WAR.%3A+GRANT%27S+MOVEMENTS+OPERATIONS+ON+THE+JAMES.+REPORTED+CAPTURE+OF+FORT+DARLING.+PROBABLE+CHANGE+OF+BASE+FROM+THE+WHITE+HOUSE.+NOTHING+BEING+LANDED+THERE%2C+AND+THE+TRACK+TORN+UP.+GEN.+HUNTER%27S+VICTORY.+FIFTEEN+HUNDRED+PRISONERS+TAKEN.+GENERAL+HUNTER%27S+FORCES+JOIN+CROOK%27S+AND+AVERILL%27S.+SHERMAN+CLOSE+UPON+THE+REBELS+MORGAN%27S+RAID.+IMPORTANT+FROM+GEN.+HUNTER--A+GREAT+VICTORY+AT+STAUNTON--FIFTEEN+HUNDRED+REBELPRISONERS+TAKEN%2C+AND+THREE+THOUSANDSTAND+OF+ARMS-CAVALRY+FIGHTING+IN+THE+ARMY+OF+THE+POTOMAC--THE+LATEST+FROM+SHERMAN--HE+IS+WITHIN+FIVE+HUNDRED+YARDS+OF+THE+ENEMY.%5BOFFICIAL.%5D+QUIET+IN+THE+ARMY+OF+THE+POTOMAC-LATER+FROM+SHERMAN--THE+REBELS+ON+THE+HILLS+BETWEEN+KENESAW+AND+LOST+MOUNTAIN--+ADVANCE+ON+PETERSBURGH+GEN.+KAUTZ--+THE+REBELS+NEAR+VICKSBURGH--MORGAN%27S+RAID.+%5BOFFICIAL.%5D&amp;rft.au=&amp;rft.aulast=&amp;rft.aufirst=&amp;rft.date=1864-06-13&amp;rft.volume=&amp;rft.issue=&amp;rft.spage=1&amp;rft.isbn=&amp;rft.btitle=&amp;rft.title=New+York+Times+%281857-1922%29&amp;rft.issn=03624331,ProQuest Historical Newspapers: The New York Times (1851-2009) with Index (1851-1993)
THE REBELLION.,"The news this morning from the army East and West, without being of a startling character, is interesting. A dispatch from Gen. GRANT, dated on Saturday afternoon, reports considerable cavalry skirmishing--the rebels making the attack on Gen. WILSON'S lines near the Jenny House. BEAUREGARD'S army is reported to be between Bottom's Bridge and the James River. In the",91861790,Historical Newspapers,," Copyright New York Times Company Jun 13, 1864"," 80295944 , 1459069 , 113715", article," Jun 13, 1864",0362-4331, English, English, 4," New York, N.Y.","Jun 13, 1864",New York Times (1857-1922),1864,http://search.proquest.com/docview/91861790?accountid=13567, 4,http://openurl.lib.rochester.edu/find?ctx_ver=Z39.88-2004&amp;ctx_enc=info:ofi/enc:UTF-8&amp;rfr_id=info:sid/ProQ%3Ahnpnewyorktimeswindex&amp;rft_val_fmt=info:ofi/fmt:kev:mtx:journal&amp;rft.genre=article&amp;rft.jtitle=New+York+Times+%281857-1922%29&amp;rft.atitle=THE+REBELLION.&amp;rft.au=&amp;rft.aulast=&amp;rft.aufirst=&amp;rft.date=1864-06-13&amp;rft.volume=&amp;rft.issue=&amp;rft.spage=4&amp;rft.isbn=&amp;rft.btitle=&amp;rft.title=New+York+Times+%281857-1922%29&amp;rft.issn=03624331,ProQuest Historical Newspapers: The New York Times (1851-2009) with Index (1851-1993)
GRANT'S ARMY.,,91831794,Historical Newspapers,," Copyright New York Times Company Jun 13, 1864"," 80295950 , 1459069 , 113715", article," Jun 13, 1864",0362-4331, English, English, 4," New York, N.Y.","Jun 13, 1864",New York Times (1857-1922),1864,http://search.proquest.com/docview/91831794?accountid=13567, 4,http://openurl.lib.rochester.edu/find?ctx_ver=Z39.88-2004&amp;ctx_enc=info:ofi/enc:UTF-8&amp;rfr_id=info:sid/ProQ%3Ahnpnewyorktimeswindex&amp;rft_val_fmt=info:ofi/fmt:kev:mtx:journal&amp;rft.genre=article&amp;rft.jtitle=New+York+Times+%281857-1922%29&amp;rft.atitle=GRANT%27S+ARMY.&amp;rft.au=&amp;rft.aulast=&amp;rft.aufirst=&amp;rft.date=1864-06-13&amp;rft.volume=&amp;rft.issue=&amp;rft.spage=4&amp;rft.isbn=&amp;rft.btitle=&amp;rft.title=New+York+Times+%281857-1922%29&amp;rft.issn=03624331,ProQuest Historical Newspapers: The New York Times (1851-2009) with Index (1851-1993)
THE ARMY OF THE POTOMAC.,"There was heavy, persistent firing all along the lines yesterday. A simultaneous attack was ordered to begin at 4:30 A. M. I believe that the order was executed. The extreme left of the army (HANCOCK'S corps) was and still is in position a little in advance of the Gaines Mill road, not far from McCLLELLAN'S old battle field.",91853221,Historical Newspapers," From Our Own Coespondent.
From Our Own Coespondent."," Copyright New York Times Company Jun 12, 1864"," 80295846-1 , 1459068 , 113715", front_page," Jun 12, 1864",0362-4331, English, English, 1," New York, N.Y.","Jun 12, 1864",New York Times (1857-1922),1864,http://search.proquest.com/docview/91853221?accountid=13567, 1,http://openurl.lib.rochester.edu/find?ctx_ver=Z39.88-2004&amp;ctx_enc=info:ofi/enc:UTF-8&amp;rfr_id=info:sid/ProQ%3Ahnpnewyorktimeswindex&amp;rft_val_fmt=info:ofi/fmt:kev:mtx:journal&amp;rft.genre=unknown&amp;rft.jtitle=New+York+Times+%281857-1922%29&amp;rft.atitle=THE+ARMY+OF+THE+POTOMAC.%3A+DETAILS+OF+THE+BATTLE+ON+FRIDAY%2C+JUNE+3--+DESPERATE+CHARACTER+OF+THE+STRUGGLE--+CASUALTIES.+THE+FOLLOWING+SOLDIERS+WERE+BURIED+AT+THE+EIGHTEENTH+ARMY+CORPS+HOSPITAL+BURYING-GROUND+TO+JUNE+2%3A+THE+WHITE+HOUSE+AS+A+BASE+OF+SUPPLIES--+THE+RAILWAY+TRACK+TORN+UP--LIST+OF+WOUNDED.+A+FLAG+OF+TRUCE--THE+PROCEEDINGS+UNDER+TO+--SUCCESSFUL+MOVEMENT+OF+THE+FIFTH+CORPS+--REBEL+RAILROAD+BATTERY.&amp;rft.au=From+Our+Own+Coespondent.&amp;rft.aulast=From+Our+Own+Coespondent.&amp;rft.aufirst=&amp;rft.date=1864-06-12&amp;rft.volume=&amp;rft.issue=&amp;rft.spage=1&amp;rft.isbn=&amp;rft.btitle=&amp;rft.title=New+York+Times+%281857-1922%29&amp;rft.issn=03624331,ProQuest Historical Newspapers: The New York Times (1851-2009) with Index (1851-1993)
THE ARMIES.,,91852318,Historical Newspapers,," Copyright New York Times Company Jun 12, 1864"," 80295845 , 1459068 , 113715", front_page," Jun 12, 1864",0362-4331, English, English, 1," New York, N.Y.","Jun 12, 1864",New York Times (1857-1922),1864,http://search.proquest.com/docview/91852318?accountid=13567, 1,http://openurl.lib.rochester.edu/find?ctx_ver=Z39.88-2004&amp;ctx_enc=info:ofi/enc:UTF-8&amp;rfr_id=info:sid/ProQ%3Ahnpnewyorktimeswindex&amp;rft_val_fmt=info:ofi/fmt:kev:mtx:journal&amp;rft.genre=unknown&amp;rft.jtitle=New+York+Times+%281857-1922%29&amp;rft.atitle=THE+ARMIES.%3A+AN+ADVANCE+ON+PETERSBURGH.+GEN.+KAUTZ+CARRIES+THE+ENEMY%27S+WORKS.+HE+FALLS+BACK+FOR+WANT+OF+SUPPORT.+NEWS+FROM+VICKSBURGH+MORGAN%27S+RAID.+NO+CHANGE+IN+GRANT%27S+POSITION.+LATER+FROM+NEW-ORLEANS.+BATTLE+AT+COLUMBIA.+%5BOFFICIAL.%5D&amp;rft.au=&amp;rft.aulast=&amp;rft.aufirst=&amp;rft.date=1864-06-12&amp;rft.volume=&amp;rft.issue=&amp;rft.spage=1&amp;rft.isbn=&amp;rft.btitle=&amp;rft.title=New+York+Times+%281857-1922%29&amp;rft.issn=03624331,ProQuest Historical Newspapers: The New York Times (1851-2009) with Index (1851-1993)
HUNTER'S VICTORY.,"The following brief, but highly satisfactory, dispatch, has just been received at this office, from Staunton, Va., via Harper's Ferry:",91806258,Historical Newspapers,," Copyright New York Times Company Jun 11, 1864"," 80295750 , 1459067 , 113715", front_page," Jun 11, 1864",0362-4331, English, English, 1," New York, N.Y.","Jun 11, 1864",New York Times (1857-1922),1864,http://search.proquest.com/docview/91806258?accountid=13567, 1,http://openurl.lib.rochester.edu/find?ctx_ver=Z39.88-2004&amp;ctx_enc=info:ofi/enc:UTF-8&amp;rfr_id=info:sid/ProQ%3Ahnpnewyorktimeswindex&amp;rft_val_fmt=info:ofi/fmt:kev:mtx:journal&amp;rft.genre=unknown&amp;rft.jtitle=New+York+Times+%281857-1922%29&amp;rft.atitle=HUNTER%27S+VICTORY.%3A+THE+BATTLE+NEAR+STAUNTON+IN+THE+VALLEY+OF+VIRGINIA.+GREAT+SUCCESS+OF+OUR+FORCES.+SIX+GUNS%2C+MANY+PRISONERS+AND+SUPPLIES+CAPTURED.+STAUNTON+OCCUPIED+ON+THE+6TH+INSTANT.+NEWS+FROM+GENERAL+GRANT+TO+THURSDAY+NIGHT.ALL+QUIET+AT+THAT+TIME.DISPATCH+STATION+OCCUPIED+BYOUR+TROOPS.+FURTHER+PARTICULARS.+NEWS+FROM+GEN.+GRANT+TO+THURSDAY+NIGHT--+HUNTER%27S+VICTORY.+OCCUPATION+OF+DISPATCH+STATION--POSSESSION+OF+THE+RAILROAD+BRIDGE--HEAVY+ORDANCE+OF+THE+REBELS.+NOTHING+OF+INTEREST+TRANSPIRING.+ALL+QUIET+ON+THURSDAY--THE+DEAD+BURIED+AND+WOUNDED+RECOVERED--CASUALTIES.+DEATHS+OF+SOLDIERS+AT+WHITE+HOUSE.+FROM+FORTRESS+MONROE.&amp;rft.au=&amp;rft.aulast=&amp;rft.aufirst=&amp;rft.date=1864-06-11&amp;rft.volume=&amp;rft.issue=&amp;rft.spage=1&amp;rft.isbn=&amp;rft.btitle=&amp;rft.title=New+York+Times+%281857-1922%29&amp;rft.issn=03624331,ProQuest Historical Newspapers: The New York Times (1851-2009) with Index (1851-1993)
THE REBELLION.,"The news from Gen. GRANT is up to Tuesday afternoon, at 3 o'clock. No further fighting is reported. Considerable changes in our lines had occurred, but they are not proper for immediate Publication. The wounded had nearly all been sent so the rear. Communication between Gen. GRANT and Gen. BUTLER had been effected by way of the ...",91833936,Historical Newspapers,," Copyright New York Times Company Jun 9, 1864"," 80295618 , 1459065 , 113715", article," Jun 9, 1864",0362-4331, English, English, 4," New York, N.Y.","Jun 9, 1864",New York Times (1857-1922),1864,http://search.proquest.com/docview/91833936?accountid=13567, 4,http://openurl.lib.rochester.edu/find?ctx_ver=Z39.88-2004&amp;ctx_enc=info:ofi/enc:UTF-8&amp;rfr_id=info:sid/ProQ%3Ahnpnewyorktimeswindex&amp;rft_val_fmt=info:ofi/fmt:kev:mtx:journal&amp;rft.genre=article&amp;rft.jtitle=New+York+Times+%281857-1922%29&amp;rft.atitle=THE+REBELLION.&amp;rft.au=&amp;rft.aulast=&amp;rft.aufirst=&amp;rft.date=1864-06-09&amp;rft.volume=&amp;rft.issue=&amp;rft.spage=4&amp;rft.isbn=&amp;rft.btitle=&amp;rft.title=New+York+Times+%281857-1922%29&amp;rft.issn=03624331,ProQuest Historical Newspapers: The New York Times (1851-2009) with Index (1851-1993)
NEWS FROM THE SOUTH.,"The Sentinel of the 3d instant announces the arrival of eight hundred and fifty Yankee prisoners on Friday last at Libby Prison. It calls them an uncultivated and barbarous mass, etc. It says that on Friday fourteen assaults were made by Gen. GRANT'S army on the right of their line, held by KERSHAW, HOKE and BRECKINRIDGE, all of ...",91840819,Historical Newspapers,," Copyright New York Times Company Jun 9, 1864"," 80295651 , 1459065 , 113715", article," Jun 9, 1864",0362-4331, English, English, 8," New York, N.Y.","Jun 9, 1864",New York Times (1857-1922),1864,http://search.proquest.com/docview/91840819?accountid=13567, 8,http://openurl.lib.rochester.edu/find?ctx_ver=Z39.88-2004&amp;ctx_enc=info:ofi/enc:UTF-8&amp;rfr_id=info:sid/ProQ%3Ahnpnewyorktimeswindex&amp;rft_val_fmt=info:ofi/fmt:kev:mtx:journal&amp;rft.genre=article&amp;rft.jtitle=New+York+Times+%281857-1922%29&amp;rft.atitle=NEWS+FROM+THE+SOUTH.%3A+RICHMOND+PAPERS+OF+JUNE+3+RECEIVED.+REBEL+ACCOUNTS+OF+THE+BATTLE+ON+FRIDAY.+A+GREAT+VICTORY+CLAIMED.+REPORTS+OF+THE+SITUATION+IN+GEORGIA.+THE+REBELS+DELUDED+INTO+THE+IDEA+THAT+SHERMAN+WAS+RETREATING.+THE+WAR+IN+VIRGINIA.+THE+BATTLIE+OF+FRIDAY%2C+JUNE+3.+THE+WAR+IN+GEORGIA.+THE+WAR+IN+LOUISIANA.+ARRIVAL+OF+A+PRIZE+STEAMER.+A+RAID+ON+CONNTERFEITERS.+EXPORT+OF+PETROLEUM.+EVENING+EXCHANGE.&amp;rft.au=&amp;rft.aulast=&amp;rft.aufirst=&amp;rft.date=1864-06-09&amp;rft.volume=&amp;rft.issue=&amp;rft.spage=8&amp;rft.isbn=&amp;rft.btitle=&amp;rft.title=New+York+Times+%281857-1922%29&amp;rft.issn=03624331,ProQuest Historical Newspapers: The New York Times (1851-2009) with Index (1851-1993)
GRANT'S ARMY.,"To Maj.-Gen Dix: A dispatch from Gen. GRANT, dated yesterday afternoon, 3.05 P.M., reports all has been very quiet to-day. No casualties are reported.",91857260,Historical Newspapers,," Copyright New York Times Company Jun 9, 1864"," 80295648-1 , 1459065 , 113715", article," Jun 9, 1864",0362-4331, English, English, 8," New York, N.Y.","Jun 9, 1864",New York Times (1857-1922),1864,http://search.proquest.com/docview/91857260?accountid=13567, 8,http://openurl.lib.rochester.edu/find?ctx_ver=Z39.88-2004&amp;ctx_enc=info:ofi/enc:UTF-8&amp;rfr_id=info:sid/ProQ%3Ahnpnewyorktimeswindex&amp;rft_val_fmt=info:ofi/fmt:kev:mtx:journal&amp;rft.genre=article&amp;rft.jtitle=New+York+Times+%281857-1922%29&amp;rft.atitle=GRANT%27S+ARMY.%3A+HANDSOME+VICTORY+BY+GENERAL+HUNTER.+THE+REBELS+DEFEATED%2C+THEIR+COMMANDER+KILLED%2C+AND+STAUNTON+OCCUPIED.+NEWS+FROM+GEN.+GRANT+UP+TO+TUESDAY+EVENING.+ALL+QUIET+ALONG+THE+LINES.+ADVICES+FROM+GENERAL+SHERMAN+NO+ENEMY+IN+HIS+IMMEDIATE+FRONT.+ALL+QUIET+WITH+GEN.+GRANT-NEWS+FROM+GEN.+SHERMAN-OCCUPATION+OF+ALLATOONA+PASS+THE+ENEMY+NOT+IN+GEN.+SHERMAN%27S+IMMEDIATE+FRONT-NEWS+FROM+%28GEN.+CANBY.+FIRST+DISPATCH.+A+VICTORY+BY+GENERAL+HUNTER-THE+REBELS+UNDER+GEN.+W.E.+JONES+DEFEATED%2C+AND+JONES+KILLED+STAUNTON+OCCUPIED+BY+OUR+TROOPS.+ALL+QUIET+ON+GEN.+BUTLER%27S+LINES+GEN.+HUNTER%27S+VICTORY+CONFIRMED.+THIRD+DISPATCH.+SITUATION+ON+MONDAY.+DEATH+OF+THE+REBEL+GEN.+A.G.+JENKINS.&amp;rft.au=&amp;rft.aulast=&amp;rft.aufirst=&amp;rft.date=1864-06-09&amp;rft.volume=&amp;rft.issue=&amp;rft.spage=8&amp;rft.isbn=&amp;rft.btitle=&amp;rft.title=New+York+Times+%281857-1922%29&amp;rft.issn=03624331,ProQuest Historical Newspapers: The New York Times (1851-2009) with Index (1851-1993)
BATTLE OF SUNDAY.,"The enemy appear to be exceedingly anxious to break up our lines, particularly on the left, so as to cut off all communication with White House Landing.",91807515,Historical Newspapers,," Copyright New York Times Company Jun 8, 1864"," 80295510 , 1459064 , 113715", front_page," Jun 8, 1864",0362-4331, English, English, 1," New York, N.Y.","Jun 8, 1864",New York Times (1857-1922),1864,http://search.proquest.com/docview/91807515?accountid=13567, 1,http://openurl.lib.rochester.edu/find?ctx_ver=Z39.88-2004&amp;ctx_enc=info:ofi/enc:UTF-8&amp;rfr_id=info:sid/ProQ%3Ahnpnewyorktimeswindex&amp;rft_val_fmt=info:ofi/fmt:kev:mtx:journal&amp;rft.genre=unknown&amp;rft.jtitle=New+York+Times+%281857-1922%29&amp;rft.atitle=BATTLE+OF+SUNDAY.&amp;rft.au=&amp;rft.aulast=&amp;rft.aufirst=&amp;rft.date=1864-06-08&amp;rft.volume=&amp;rft.issue=&amp;rft.spage=1&amp;rft.isbn=&amp;rft.btitle=&amp;rft.title=New+York+Times+%281857-1922%29&amp;rft.issn=03624331,ProQuest Historical Newspapers: The New York Times (1851-2009) with Index (1851-1993)
THE BATTLE OF FRIDAY.,"Since my dispatch of 9 o'clock A.M., I have gathered some additional particulars of the contest this morning.",91816829,Historical Newspapers," From Our Special Correspondent.
From Our Special Correspondent."," Copyright New York Times Company Jun 8, 1864"," 80295512 , 1459064 , 113715", front_page," Jun 8, 1864",0362-4331, English, English, 1," New York, N.Y.","Jun 8, 1864",New York Times (1857-1922),1864,http://search.proquest.com/docview/91816829?accountid=13567, 1,http://openurl.lib.rochester.edu/find?ctx_ver=Z39.88-2004&amp;ctx_enc=info:ofi/enc:UTF-8&amp;rfr_id=info:sid/ProQ%3Ahnpnewyorktimeswindex&amp;rft_val_fmt=info:ofi/fmt:kev:mtx:journal&amp;rft.genre=unknown&amp;rft.jtitle=New+York+Times+%281857-1922%29&amp;rft.atitle=THE+BATTLE+OF+FRIDAY.%3A+FURTHER+PARTICULARS+THE+GALLANTRY+OF+GIBBONS%27+AND+BARLOW%27S+DIVISIONS+LIST+OF+CASUALTIES.&amp;rft.au=From+Our+Special+Correspondent.&amp;rft.aulast=From+Our+Special+Correspondent.&amp;rft.aufirst=&amp;rft.date=1864-06-08&amp;rft.volume=&amp;rft.issue=&amp;rft.spage=1&amp;rft.isbn=&amp;rft.btitle=&amp;rft.title=New+York+Times+%281857-1922%29&amp;rft.issn=03624331,ProQuest Historical Newspapers: The New York Times (1851-2009) with Index (1851-1993)
GRANT'S ARMY.,,91816371,Historical Newspapers,," Copyright New York Times Company Jun 8, 1864"," 80295509 , 1459064 , 113715", front_page," Jun 8, 1864",0362-4331, English, English, 1," New York, N.Y.","Jun 8, 1864",New York Times (1857-1922),1864,http://search.proquest.com/docview/91816371?accountid=13567, 1,http://openurl.lib.rochester.edu/find?ctx_ver=Z39.88-2004&amp;ctx_enc=info:ofi/enc:UTF-8&amp;rfr_id=info:sid/ProQ%3Ahnpnewyorktimeswindex&amp;rft_val_fmt=info:ofi/fmt:kev:mtx:journal&amp;rft.genre=unknown&amp;rft.jtitle=New+York+Times+%281857-1922%29&amp;rft.atitle=GRANT%27S+ARMY.%3A+INTELLIGENCE+UP+TO+TUESDAY+MORNING.+THREE+REBEL+NIGHT+ASSAULTS+REPULSED.+A+MIDNIGHT+ATTACK+ON+BURNSIDE.+A+FOGGY+ATTACK+ON+HANCOCK.+THE+ENEMY+DRIVEN+BACK+WITH+HEAVY+LOSS.+GRANT+BESIEGING+LEE%27S+LINES.+FLAGS+OF+TRUCE+FOR+THE+CARE+OF+THE+DEAD+AND+WOUNDED.+LATE+NEWS+FROM+GEN.+GRANT--AN+ATTACK+ON+BURNSIDE+REPULSED--EXCHANGE+OF+FLAGS+OF+TRUCE+IN+REFERENCE+TO+THE+KILLED+AND+WOUNDED--GRANT+BESIEGING+LEE+IN+HIS+LINES.+%5BOFFICIAL.%5D&amp;rft.au=&amp;rft.aulast=&amp;rft.aufirst=&amp;rft.date=1864-06-08&amp;rft.volume=&amp;rft.issue=&amp;rft.spage=1&amp;rft.isbn=&amp;rft.btitle=&amp;rft.title=New+York+Times+%281857-1922%29&amp;rft.issn=03624331,ProQuest Historical Newspapers: The New York Times (1851-2009) with Index (1851-1993)
ARMY OF THE POTOMAC.,The news from the front hes been meagre for the last two days. Nothing but skirmishing has occurred except the usual nightly attack for the purpose of feeling our lines and learning whether any change of position is being made.,91821623,Historical Newspapers,," Copyright New York Times Company Jun 8, 1864"," 80295549 , 1459064 , 113715", article," Jun 8, 1864",0362-4331, English, English, 4," New York, N.Y.","Jun 8, 1864",New York Times (1857-1922),1864,http://search.proquest.com/docview/91821623?accountid=13567, 4,http://openurl.lib.rochester.edu/find?ctx_ver=Z39.88-2004&amp;ctx_enc=info:ofi/enc:UTF-8&amp;rfr_id=info:sid/ProQ%3Ahnpnewyorktimeswindex&amp;rft_val_fmt=info:ofi/fmt:kev:mtx:journal&amp;rft.genre=article&amp;rft.jtitle=New+York+Times+%281857-1922%29&amp;rft.atitle=ARMY+OF+THE+POTOMAC.%3A+LATEST+FROM+THE+FRONT-FURTHER+LISTS+OF+CASUALTIES.&amp;rft.au=&amp;rft.aulast=&amp;rft.aufirst=&amp;rft.date=1864-06-08&amp;rft.volume=&amp;rft.issue=&amp;rft.spage=4&amp;rft.isbn=&amp;rft.btitle=&amp;rft.title=New+York+Times+%281857-1922%29&amp;rft.issn=03624331,ProQuest Historical Newspapers: The New York Times (1851-2009) with Index (1851-1993)
THE GRAND CAMPAIGN.,"Judged by the severity of the encounter and the heavy losses we have experienced, the engagement which opened at gray dawn this morning and spent its fury in little over an hour, should take its place among the battles of the war; but viewed in its relations to the whole campaign, it is, perhaps, hardly more than a grand reconnoissance--a reconnoissance, however, which has cost as not less than five or six thousand killed and wounded.",91863318,Historical Newspapers,," Copyright New York Times Company Jun 7, 1864"," 82398709-1 , 1474715 , 113715", front_page," Jun 7, 1864",0362-4331, English, English, 1," New York, N.Y.","Jun 7, 1864",New York Times (1857-1922),1864,http://search.proquest.com/docview/91863318?accountid=13567, 1,http://openurl.lib.rochester.edu/find?ctx_ver=Z39.88-2004&amp;ctx_enc=info:ofi/enc:UTF-8&amp;rfr_id=info:sid/ProQ%3Ahnpnewyorktimeswindex&amp;rft_val_fmt=info:ofi/fmt:kev:mtx:journal&amp;rft.genre=unknown&amp;rft.jtitle=New+York+Times+%281857-1922%29&amp;rft.atitle=THE+GRAND+CAMPAIGN.%3A+THE+BATTLE+OF+THE+CHICKAHOMINY.+THE+GREAT+ACTION+ON+FRIDAY.+GEN.+GRANT%27S+OBJECT+IN+THE+MOVEMENT.+BRILLIANT+ASSAULT+ON+THE+REBEL+WORKS.+THE+ENEMY%27S+LINES+CARRIED+IN+FRONT+OF+HANCOCK+AND+WRIGHT.+THE+REBELS+RALLY+AND+RETAKE+THEM.+TEN+MINUTES+OF+HISTORY.+THE+LOSS+OF+OUR+KEY+POSITION.+INCIDENTS+OF+THE+AFTERNOON%27S+WORK.+REBEL+NIGHT+ATTACK+THE+BESULT+OF+THE+DAY%27S+OPERATIONS.+FULL+AND+THRILLING+DETAILS+OF+THE+BATTLE+FROM+OUR+SPECIAL+CORRESPONDENT.+GENERAL+VIEW+OF+THE+BATTLE.+STRATEGIC+OPERATIONS+FROM+THE+PAMUNKY+TO+THE+CHICKAHOMINY.+III.+WEDNESDAY%27S+FIGHT+AT+COLD+HARBOR.+COLD+HARBOR--ITS+MILITARY+IMPORTANCE+BEFORE+THE+BATTLE.+THE+SITUATION+AT+4+A.M.%2C+FRIDAY.+TEN+MINUTES+OF+HISTORY.+VIII.+THE+LEFT--HANCOCK%27S+CORPS.+IX.+THE+KEY-POINT+OF+THE+BATTLE%2C+AND+HOW+IT+WAS+LOST.+X+THE+LEFT+CENTER+AND+CENTRE.--WRIGHT+AND+SMITH.+XI.+OPERATIONS+ON+THE+RIGHT+AND+RIGHT-CENTRE--+WARREN+AND+BURNSIDE.+XII.+A+LONG+LULL--INCIDENTS+OF+THE+DAY.+THE+BATTLE+OF+FRIDAY.+XIII.+A+REBEL+NIGHT+ATTACK.+XIV.+CHICKAHOMINY+IN+HISTORY.&amp;rft.au=&amp;rft.aulast=&amp;rft.aufirst=&amp;rft.date=1864-06-07&amp;rft.volume=&amp;rft.issue=&amp;rft.spage=1&amp;rft.isbn=&amp;rft.btitle=&amp;rft.title=New+York+Times+%281857-1922%29&amp;rft.issn=03624331,ProQuest Historical Newspapers: The New York Times (1851-2009) with Index (1851-1993)
REBEL ACCOUNTS.,"GRANT'S army crossed the Pamunky on Saturday and snowed itself on our front on Sunday evening, at which time our men, after restin in bivouac during Saturday night, formed in line of battle with our left resting near Atlee's Station, and our right extending to and across the Mechaniesville pike, about eight or nine miles out from Richmond.",91851176,Historical Newspapers," Correspondence of the Richmond Examiner ARMY OF NORTHERN VIRGINIA.
Correspondence of the Richmond Examiner ARMY OF NORTHERN VIRGINIA."," Copyright New York Times Company Jun 7, 1864"," 82398923 , 1474715 , 113715", article," Jun 7, 1864",0362-4331, English, English, 4," New York, N.Y.","Jun 7, 1864",New York Times (1857-1922),1864,http://search.proquest.com/docview/91851176?accountid=13567, 4,http://openurl.lib.rochester.edu/find?ctx_ver=Z39.88-2004&amp;ctx_enc=info:ofi/enc:UTF-8&amp;rfr_id=info:sid/ProQ%3Ahnpnewyorktimeswindex&amp;rft_val_fmt=info:ofi/fmt:kev:mtx:journal&amp;rft.genre=article&amp;rft.jtitle=New+York+Times+%281857-1922%29&amp;rft.atitle=REBEL+ACCOUNTS.%3A+GEN.+LEE%27S+ARMY.&amp;rft.au=Correspondence+of+the+Richmond+Examiner+ARMY+OF+NORTHERN+VIRGINIA.&amp;rft.aulast=Correspondence+of+the+Richmond+Examiner+ARMY+OF+NORTHERN+VIRGINIA.&amp;rft.aufirst=&amp;rft.date=1864-06-07&amp;rft.volume=&amp;rft.issue=&amp;rft.spage=4&amp;rft.isbn=&amp;rft.btitle=&amp;rft.title=New+York+Times+%281857-1922%29&amp;rft.issn=03624331,ProQuest Historical Newspapers: The New York Times (1851-2009) with Index (1851-1993)
THE LATEST.,,91833566,Historical Newspapers,," Copyright New York Times Company Jun 7, 1864"," 82398980 , 1474715 , 113715", article," Jun 7, 1864",0362-4331, English, English, 8," New York, N.Y.","Jun 7, 1864",New York Times (1857-1922),1864,http://search.proquest.com/docview/91833566?accountid=13567, 8,http://openurl.lib.rochester.edu/find?ctx_ver=Z39.88-2004&amp;ctx_enc=info:ofi/enc:UTF-8&amp;rfr_id=info:sid/ProQ%3Ahnpnewyorktimeswindex&amp;rft_val_fmt=info:ofi/fmt:kev:mtx:journal&amp;rft.genre=article&amp;rft.jtitle=New+York+Times+%281857-1922%29&amp;rft.atitle=THE+LATEST.%3A+NEWS+FROM+GENERAL+GRANT+TO+YESTERDAY.+NO+FIGHTING+ON+SUNDAY+OR+MONDAY.+EVERYTHING+GOING+ON+WELL.+LATER+FROM+GENERAL+SHERMAN.+THE+REBELS+AGAIN+RETREATING.+OUR+ARMY+ADVANCING+ON+MARIETTA.+NEWS+TO+6+P.M.+OF+SUNDAY--REPULSE+OF+REBEL+ATTACKS--HANCOCK%27S+LINES+WITHIN+FORTY+RODS+OF+THE+REBEL+WORKS--ANOTHER+FLANK+MOVEMENT+BY+SHERMAN--OUR+ARMY+MOVING+ON+MARIETTA.+%5BOFFICIAL.%5D+NEWS+FROM+GENERAL+GRANT+UP+TO+YESTERDAY+NO+MORE+FIGHTING+IMPORTANT+MOVEMENTS+GOING+ON.+%5BOFFICIAL.%5D+THE+BATTLE+OF+FRIDAY.&amp;rft.au=&amp;rft.aulast=&amp;rft.aufirst=&amp;rft.date=1864-06-07&amp;rft.volume=&amp;rft.issue=&amp;rft.spage=8&amp;rft.isbn=&amp;rft.btitle=&amp;rft.title=New+York+Times+%281857-1922%29&amp;rft.issn=03624331,ProQuest Historical Newspapers: The New York Times (1851-2009) with Index (1851-1993)
THE EIGHTEENTH ARMY CORPS.,"The Eighteenth Corps left White House late on Tuesday afternoon, under orders to march for Newcastle, twelve miles distant in a northwesterly direction, on the Pamunky. The position of the...",91862750,Historical Newspapers,," Copyright New York Times Company Jun 7, 1864"," 82398979-1 , 1474715 , 113715", article," Jun 7, 1864",0362-4331, English, English, 8," New York, N.Y.","Jun 7, 1864",New York Times (1857-1922),1864,http://search.proquest.com/docview/91862750?accountid=13567, 8,http://openurl.lib.rochester.edu/find?ctx_ver=Z39.88-2004&amp;ctx_enc=info:ofi/enc:UTF-8&amp;rfr_id=info:sid/ProQ%3Ahnpnewyorktimeswindex&amp;rft_val_fmt=info:ofi/fmt:kev:mtx:journal&amp;rft.genre=article&amp;rft.jtitle=New+York+Times+%281857-1922%29&amp;rft.atitle=THE+EIGHTEENTH+ARMY+CORPS.%3A+THE+BATTLE+OF+WEDNESDAY--GEN.+SMITH%27S+OPERATIONS--THE+LOSSES--ANOTHER+FLANK+MOVEMENT.+FURTHER+PARTICULARS+OF+WEDNESDAY%27S+FIGHT--+THE+SEVERITY+OF+THE+BATTLE--THE+GALLANT+CHANGE+OF+DRAKE%27S+AND+BARTON%27S+BRIGADES.+THE+OPERATIONS+OF+OUR+CAVALRY.&amp;rft.au=&amp;rft.aulast=&amp;rft.aufirst=&amp;rft.date=1864-06-07&amp;rft.volume=&amp;rft.issue=&amp;rft.spage=8&amp;rft.isbn=&amp;rft.btitle=&amp;rft.title=New+York+Times+%281857-1922%29&amp;rft.issn=03624331,ProQuest Historical Newspapers: The New York Times (1851-2009) with Index (1851-1993)
THE ARMY,"A dispatch from Gen. GRANT'S headquarters, lated 8:30 o'clock last night has been received. It states that about 7 P.M. yesterday, (Friday, 3d of June.) the enemy suddenly attacked SMITH'S brigade, GIBBONS' division. The battle lasted with great fury for half an hour. The attack was unwaveringly repulsed. SMITH'S losses were inconsiderable.",91820563,Historical Newspapers,," Copyright New York Times Company Jun 6, 1864"," 78725097 , 1446324 , 113715", front_page," Jun 6, 1864",0362-4331, English, English, 1," New York, N.Y.","Jun 6, 1864",New York Times (1857-1922),1864,http://search.proquest.com/docview/91820563?accountid=13567, 1,http://openurl.lib.rochester.edu/find?ctx_ver=Z39.88-2004&amp;ctx_enc=info:ofi/enc:UTF-8&amp;rfr_id=info:sid/ProQ%3Ahnpnewyorktimeswindex&amp;rft_val_fmt=info:ofi/fmt:kev:mtx:journal&amp;rft.genre=unknown&amp;rft.jtitle=New+York+Times+%281857-1922%29&amp;rft.atitle=THE+ARMY%3A+STEADY+PROGRESS.+GRANT+MOVING+ON+THE+ENEMY%27S+WORKS.+LEE+NARROWING+HIS+LINE.+HEAVY+LOSSES.+LARGE+REINFORCEMENTS+SHERMAN+PUSHING+SOUTHWARD.+%5BOFFICIAL.%5D+A+BATTLE+ON+FRIDAY--COMBINED+ASSAULT+ON+THE+REBEL+WORKS--NO+DECISIVE+ADVANTAGE+GAINED--THE+REBELS+DRIVEN+WITHIN+THEIR+WORKS.&amp;rft.au=&amp;rft.aulast=&amp;rft.aufirst=&amp;rft.date=1864-06-06&amp;rft.volume=&amp;rft.issue=&amp;rft.spage=1&amp;rft.isbn=&amp;rft.btitle=&amp;rft.title=New+York+Times+%281857-1922%29&amp;rft.issn=03624331,ProQuest Historical Newspapers: The New York Times (1851-2009) with Index (1851-1993)
IN FRONT OF RICHMOND,"No heavy firing took place yesterday. Skirmishing at different points was brisk during the afternoon, and BURNSIDE withdrawing from the right, the enemy followed up and made a demonstration to turn WARREN'S right, but were compelled to give it up, as our position was too strong.",91860505,Historical Newspapers,," Copyright New York Times Company Jun 6, 1864"," 78725150-1 , 1446324 , 113715", article," Jun 6, 1864",0362-4331, English, English, 8," New York, N.Y.","Jun 6, 1864",New York Times (1857-1922),1864,http://search.proquest.com/docview/91860505?accountid=13567, 8,http://openurl.lib.rochester.edu/find?ctx_ver=Z39.88-2004&amp;ctx_enc=info:ofi/enc:UTF-8&amp;rfr_id=info:sid/ProQ%3Ahnpnewyorktimeswindex&amp;rft_val_fmt=info:ofi/fmt:kev:mtx:journal&amp;rft.genre=article&amp;rft.jtitle=New+York+Times+%281857-1922%29&amp;rft.atitle=IN+FRONT+OF+RICHMOND%3A+THE+FIGHTING+ON+FRIDAY+AND+SATURDAY.+TERRIBLE+ASSAULTS+OF+THE+REBELS.+STUBBORN+VALOR+OF+THE+NATIONAL+TROOPS.+RACING+IN+NEW-JERSEY+INSTITUTE+OF+REWARD+FOR+ORPHANS+OF+PATRIOTS.+COURT+CALENDAR+THIS+DAY+ARRIVALS+IN+THE+CITY.&amp;rft.au=&amp;rft.aulast=&amp;rft.aufirst=&amp;rft.date=1864-06-06&amp;rft.volume=&amp;rft.issue=&amp;rft.spage=8&amp;rft.isbn=&amp;rft.btitle=&amp;rft.title=New+York+Times+%281857-1922%29&amp;rft.issn=03624331,ProQuest Historical Newspapers: The New York Times (1851-2009) with Index (1851-1993)
BEFORE RICHMOND.,"To Major-Gen. Dix: Dispatches from Gen. GRANT'S headquarters, dated 3 o'clock yesterday, have just been received. No operations took place on Thursday. Yesterday, at 4:30 o'clock A.M., Gen. GRANT made an assault on the enemy's lines, of which he makes the following report:",91862806,Historical Newspapers,," Copyright New York Times Company Jun 5, 1864"," 78725022-1 , 1446323 , 113715", front_page," Jun 5, 1864",0362-4331, English, English, 1," New York, N.Y.","Jun 5, 1864",New York Times (1857-1922),1864,http://search.proquest.com/docview/91862806?accountid=13567, 1,http://openurl.lib.rochester.edu/find?ctx_ver=Z39.88-2004&amp;ctx_enc=info:ofi/enc:UTF-8&amp;rfr_id=info:sid/ProQ%3Ahnpnewyorktimeswindex&amp;rft_val_fmt=info:ofi/fmt:kev:mtx:journal&amp;rft.genre=unknown&amp;rft.jtitle=New+York+Times+%281857-1922%29&amp;rft.atitle=BEFORE+RICHMOND.%3A+A+BATTLE+ON+FRIDAY.+THE+REBEL+LINES+ASSAULTED.+THE+ENEMY+DRIVEN+WITHIN+THEIR+INTRENCHMENTS.+THE+GROUND+GAINED+HELD+BY+OUR+TROOPS.+THREE+HUNDRED+PRISONERS+TAKEN.+OUR+LOSS+ABOUT+THREE+THOUSAND.+GEN.+R.O.+TYLER+WOUNDED.+A+BATTLE+ON+FRIDAY+COMBINED+ASSAULT+ON+THE+REBEL+WORKS+NO+DECISIVE+ADVANTAGE+GAINED+OUR+LOSSES+THREE+THOUSAND+THREE+HUNDRED+PRISONERS+CAPTURED+THE+REBELS+DRIVEN+WITHIN+THEIR+WORKS.+%5BOFFICIAL.%5D+DETAILS+OF+PREVIOUS+MOVEMENTS.+NEWS+FROM+THE+WHITE+HOUSE+CONFLAGRATION+REPORTED+IN+RICHMOND+LEE+AGAIN+REPORTED+SICK.+THE+FIGHTING+OF+TUESDAY+AND+WEDNESDAY+THE+ENEMY%27S+DEAD+AND+WOUNDED+LEFT+ON+THE+FIELD+THE+POSITION+AND+EXTENT+OF+OUR+LINE.+SPECIAL+DISPATCH+TO+THE+TRIBUNE.+REPORTS+FROM+BALTIMORE.&amp;rft.au=&amp;rft.aulast=&amp;rft.aufirst=&amp;rft.date=1864-06-05&amp;rft.volume=&amp;rft.issue=&amp;rft.spage=1&amp;rft.isbn=&amp;rft.btitle=&amp;rft.title=New+York+Times+%281857-1922%29&amp;rft.issn=03624331,ProQuest Historical Newspapers: The New York Times (1851-2009) with Index (1851-1993)
DETAILS OF OPERATIONS.,"By one of those odd coincidences of which the history of the Virginia campaigns is so full, Gen. GRANT'S headquarters are this morning at the very point which formed the extreme right wing of the Army of the Potomac in the Peninsular campaign two years ago.",91863816,Historical Newspapers,," Copyright New York Times Company Jun 4, 1864"," 82083342-1 , 1470963 , 113715", front_page," Jun 4, 1864",0362-4331, English, English, 1," New York, N.Y.","Jun 4, 1864",New York Times (1857-1922),1864,http://search.proquest.com/docview/91863816?accountid=13567, 1,http://openurl.lib.rochester.edu/find?ctx_ver=Z39.88-2004&amp;ctx_enc=info:ofi/enc:UTF-8&amp;rfr_id=info:sid/ProQ%3Ahnpnewyorktimeswindex&amp;rft_val_fmt=info:ofi/fmt:kev:mtx:journal&amp;rft.genre=unknown&amp;rft.jtitle=New+York+Times+%281857-1922%29&amp;rft.atitle=DETAILS+OF+OPERATIONS.&amp;rft.au=&amp;rft.aulast=&amp;rft.aufirst=&amp;rft.date=1864-06-04&amp;rft.volume=&amp;rft.issue=&amp;rft.spage=1&amp;rft.isbn=&amp;rft.btitle=&amp;rft.title=New+York+Times+%281857-1922%29&amp;rft.issn=03624331,ProQuest Historical Newspapers: The New York Times (1851-2009) with Index (1851-1993)
The Loyal Meeting this Evening.,"This demonstration of public sentiment in regard to the war, the services of the Union armies and the gratitude due to Gen. GRANT, officers and men, will take place at the southern terminator of Union-square, at 6 o'clock.",91863551,Historical Newspapers,," Copyright New York Times Company Jun 4, 1864"," 82083383-1 , 1470963 , 113715", article," Jun 4, 1864",0362-4331, English, English, 4," New York, N.Y.","Jun 4, 1864",New York Times (1857-1922),1864,http://search.proquest.com/docview/91863551?accountid=13567, 4,http://openurl.lib.rochester.edu/find?ctx_ver=Z39.88-2004&amp;ctx_enc=info:ofi/enc:UTF-8&amp;rfr_id=info:sid/ProQ%3Ahnpnewyorktimeswindex&amp;rft_val_fmt=info:ofi/fmt:kev:mtx:journal&amp;rft.genre=article&amp;rft.jtitle=New+York+Times+%281857-1922%29&amp;rft.atitle=The+Loyal+Meeting+this+Evening.&amp;rft.au=&amp;rft.aulast=&amp;rft.aufirst=&amp;rft.date=1864-06-04&amp;rft.volume=&amp;rft.issue=&amp;rft.spage=4&amp;rft.isbn=&amp;rft.btitle=&amp;rft.title=New+York+Times+%281857-1922%29&amp;rft.issn=03624331,ProQuest Historical Newspapers: The New York Times (1851-2009) with Index (1851-1993)
The Two Armies.,"The two great armies now confront each other definitely in the strip of country, some ten miles wide, that lies between the Pamunky and the upper waters of the Chickahominy. GRANT'S line, from Cold Harbor to Atlee's, on the Central Railroad, is fully seven miles in length; while LEE'S we judge to be somewhat more contracted.",91865939,Historical Newspapers,," Copyright New York Times Company Jun 4, 1864"," 82083377 , 1470963 , 113715", article," Jun 4, 1864",0362-4331, English, English, 4," New York, N.Y.","Jun 4, 1864",New York Times (1857-1922),1864,http://search.proquest.com/docview/91865939?accountid=13567, 4,http://openurl.lib.rochester.edu/find?ctx_ver=Z39.88-2004&amp;ctx_enc=info:ofi/enc:UTF-8&amp;rfr_id=info:sid/ProQ%3Ahnpnewyorktimeswindex&amp;rft_val_fmt=info:ofi/fmt:kev:mtx:journal&amp;rft.genre=article&amp;rft.jtitle=New+York+Times+%281857-1922%29&amp;rft.atitle=The+Two+Armies.&amp;rft.au=&amp;rft.aulast=&amp;rft.aufirst=&amp;rft.date=1864-06-04&amp;rft.volume=&amp;rft.issue=&amp;rft.spage=4&amp;rft.isbn=&amp;rft.btitle=&amp;rft.title=New+York+Times+%281857-1922%29&amp;rft.issn=03624331,ProQuest Historical Newspapers: The New York Times (1851-2009) with Index (1851-1993)
GRANT'S ARMY.,"Major-Gen. Dix: A dispatch from Gen. GRANT'S headquarters, dated yesterday, June 1, at 10 A.M., has been received by this department. It states that about 5 P.M. yesterday, (May 31,) Gen.",91866719,Historical Newspapers,," Copyright New York Times Company Jun 3, 1864"," 78724911-1 , 1446322 , 113715", front_page," Jun 3, 1864",0362-4331, English, English, 1," New York, N.Y.","Jun 3, 1864",New York Times (1857-1922),1864,http://search.proquest.com/docview/91866719?accountid=13567, 1,http://openurl.lib.rochester.edu/find?ctx_ver=Z39.88-2004&amp;ctx_enc=info:ofi/enc:UTF-8&amp;rfr_id=info:sid/ProQ%3Ahnpnewyorktimeswindex&amp;rft_val_fmt=info:ofi/fmt:kev:mtx:journal&amp;rft.genre=unknown&amp;rft.jtitle=New+York+Times+%281857-1922%29&amp;rft.atitle=GRANT%27S+ARMY.%3A+A+BATTLE+AT+COLD+HARBOR+THE+COMMANDS+OF+GENS.+WRIGHT+AND+SMITH+ENGAGED.+THE+REBELS+DRIVEN+FROM+THEIR+WORKS.+ALL+THEIR+ATTEMPTS+TO+REGAIN+THEM+REPULSED.+SEVERE+CAVALRY+BATTLE+ON+TUESDAY.+ENCOURAGING+SUCCESS+AT+EVERY+POINT.+NEWS+FROM+GENERAL+BUTLER.+ARTILLERY+DEMONSTRATIONS+AGAINST+HIS+LINES.+NEWS+FROM+GEN.+GRANT+TO+7+O%27CLOCK+THURSDAY+MORNING.+A+SEVERE+CAVALRY+FIGHT+AT+COLD+HARBOR+ANOTHER+AT+HANOVER+COURT-HOUSE+THE+REBELS+SEVERELY+DEFEATED+IS+EACH+INSTANCE-OUR+CENTRE+WITHIN+ONE+AND+A+HALF+MILES+OF+MECHANIESVILLE.%5BOFFICIAL.%5D+A+BATTLE+AT+COLD+HARBOR+ON+WEDNESDAY+EVENING+THE+REBEL+WORKS+CARRIED+BY+THE+SIXTH+CORPS+SEVERAL+HUNDRED+PRISONERS+TAKEN+THE+REBELS+REPULSED+IN+THEIR+ATTEMPTS+TO+REGAIN+THEIR+WORKS...&amp;rft.au=&amp;rft.aulast=&amp;rft.aufirst=&amp;rft.date=1864-06-03&amp;rft.volume=&amp;rft.issue=&amp;rft.spage=1&amp;rft.isbn=&amp;rft.btitle=&amp;rft.title=New+York+Times+%281857-1922%29&amp;rft.issn=03624331,ProQuest Historical Newspapers: The New York Times (1851-2009) with Index (1851-1993)
GEN. SMITH'S COMMAND.,,91837937,Historical Newspapers," From our Special Correspondent.
From our Special Correspondent."," Copyright New York Times Company Jun 3, 1864"," 78724912 , 1446322 , 113715", front_page," Jun 3, 1864",0362-4331, English, English, 1," New York, N.Y.","Jun 3, 1864",New York Times (1857-1922),1864,http://search.proquest.com/docview/91837937?accountid=13567, 1,http://openurl.lib.rochester.edu/find?ctx_ver=Z39.88-2004&amp;ctx_enc=info:ofi/enc:UTF-8&amp;rfr_id=info:sid/ProQ%3Ahnpnewyorktimeswindex&amp;rft_val_fmt=info:ofi/fmt:kev:mtx:journal&amp;rft.genre=unknown&amp;rft.jtitle=New+York+Times+%281857-1922%29&amp;rft.atitle=GEN.+SMITH%27S+COMMAND.%3A+THE+DEATH+OF+LIEUT.+HUNT%2C+U.S.A.--COMMUNICATION+WITH+GEN.+GRANT--MOVEMENT+OF+GEN.+SMITH%27S+COMMAND.&amp;rft.au=From+our+Special+Correspondent.&amp;rft.aulast=From+our+Special+Correspondent.&amp;rft.aufirst=&amp;rft.date=1864-06-03&amp;rft.volume=&amp;rft.issue=&amp;rft.spage=1&amp;rft.isbn=&amp;rft.btitle=&amp;rft.title=New+York+Times+%281857-1922%29&amp;rft.issn=03624331,ProQuest Historical Newspapers: The New York Times (1851-2009) with Index (1851-1993)
All Quiet at Bermuda Hundred--Grant's Forces at Mechanicsville--Cavalry Skirmishes--Cannonading Heard.,The steamer Thomas Powell has just arrived from Bermuda Hundred. All was quiet with Gen. BUTLER'S forces to-day.,91854774,Historical Newspapers,," Copyright New York Times Company Jun 2, 1864"," 78724802 , 1446321 , 113715", front_page," Jun 2, 1864",0362-4331, English, English, 1," New York, N.Y.","Jun 2, 1864",New York Times (1857-1922),1864,http://search.proquest.com/docview/91854774?accountid=13567, 1,http://openurl.lib.rochester.edu/find?ctx_ver=Z39.88-2004&amp;ctx_enc=info:ofi/enc:UTF-8&amp;rfr_id=info:sid/ProQ%3Ahnpnewyorktimeswindex&amp;rft_val_fmt=info:ofi/fmt:kev:mtx:journal&amp;rft.genre=unknown&amp;rft.jtitle=New+York+Times+%281857-1922%29&amp;rft.atitle=All+Quiet+at+Bermuda+Hundred--Grant%27s+Forces+at+Mechanicsville--Cavalry+Skirmishes--Cannonading+Heard.&amp;rft.au=&amp;rft.aulast=&amp;rft.aufirst=&amp;rft.date=1864-06-02&amp;rft.volume=&amp;rft.issue=&amp;rft.spage=1&amp;rft.isbn=&amp;rft.btitle=&amp;rft.title=New+York+Times+%281857-1922%29&amp;rft.issn=03624331,ProQuest Historical Newspapers: The New York Times (1851-2009) with Index (1851-1993)
GRANT'S ARMY.,"Our lines have advanced and moved to the left to-day. The enemy resisted the movement but feebly till about three hours ago, when he suddenly threw a strong force along and on both sides of the...",91863659,Historical Newspapers,," Copyright New York Times Company Jun 2, 1864"," 78724797-1 , 1446321 , 113715", front_page," Jun 2, 1864",0362-4331, English, English, 1," New York, N.Y.","Jun 2, 1864",New York Times (1857-1922),1864,http://search.proquest.com/docview/91863659?accountid=13567, 1,http://openurl.lib.rochester.edu/find?ctx_ver=Z39.88-2004&amp;ctx_enc=info:ofi/enc:UTF-8&amp;rfr_id=info:sid/ProQ%3Ahnpnewyorktimeswindex&amp;rft_val_fmt=info:ofi/fmt:kev:mtx:journal&amp;rft.genre=unknown&amp;rft.jtitle=New+York+Times+%281857-1922%29&amp;rft.atitle=GRANT%27S+ARMY.%3A+THE+FIGHTING+OF+MONDAY+AND+TUESDAY.+HANCOCK%27S+AND+WARREN%27S+OPERATIONS.+THE+REBELS+MAKE+A+NIGHT+ATTACK+ON+HANCOCK.+THEY+ARE+REPULSED%2C+WITH+THE+LOSS+OF+MANY+PRISONERS.+THE+BRILLIANT+CAVALRY+BATTLE+OF+SATURDAY.+THE+ENEMY+ADMIT+A+SEVERE+DEFEAT.+NEWS+TO+10+O%27CLOCK+TUESDAY+MORNING.+THE+BATTLE+OF+MONDAY+EVENING+HANCOCK+DRIVES+THE+ENEMY+FROM+THEIR+RIFLE+PITS+THE+REBELS+ATTEMPT+TO+SURPRISE+HIM+AT+NIGHT+AND+MEET+WITH+A+BLOODY+REPULSE+OUR+LINES+GENERALLY+ADVANCED+ON+TUESDAY+MORNING+REBEL+ADMISSIONS+OF+DEFEAT.+DETAILS+OF+RECENT+MOVEMENTS+THE+BRILLIANT+CAVALRY+OPERATIONS+OF+SATURDAY+AND+SUNDAY.+LIEUT.-GEN.+GRANT+IN+COMMUNICATION+WITH+THE+WHITE+HOUSE+INTELLIGENCE+FROM+RICHMOND+THE+REBELS+BEGINNING+TO+APPRECIATE+GRANT.&amp;rft.au=&amp;rft.aulast=&amp;rft.aufirst=&amp;rft.date=1864-06-02&amp;rft.volume=&amp;rft.issue=&amp;rft.spage=1&amp;rft.isbn=&amp;rft.btitle=&amp;rft.title=New+York+Times+%281857-1922%29&amp;rft.issn=03624331,ProQuest Historical Newspapers: The New York Times (1851-2009) with Index (1851-1993)
FROM FORTRESS MONROE.,"It is no longer improper to speak of the im portant movements that have been progressing in this department during the past two days, as they are now fully accomplished.",91864140,Historical Newspapers,," Copyright New York Times Company Jun 1, 1864"," 82014409-1 , 1470618 , 113715", front_page," Jun 1, 1864",0362-4331, English, English, 1," New York, N.Y.","Jun 1, 1864",New York Times (1857-1922),1864,http://search.proquest.com/docview/91864140?accountid=13567, 1,http://openurl.lib.rochester.edu/find?ctx_ver=Z39.88-2004&amp;ctx_enc=info:ofi/enc:UTF-8&amp;rfr_id=info:sid/ProQ%3Ahnpnewyorktimeswindex&amp;rft_val_fmt=info:ofi/fmt:kev:mtx:journal&amp;rft.genre=unknown&amp;rft.jtitle=New+York+Times+%281857-1922%29&amp;rft.atitle=FROM+FORTRESS+MONROE.%3A+REINFORCEMENT+OF+GRANT+BY+GEN.+SMITH--SUPPLIES+SENT+TO+WHITE+HOUSE.+GEN.+GRANT%27S+NEW+BASE--TRANSFER+OF+A+PORTION+OF+GEN.+BUTLER%27S+TROOPS+TO+THE+WHITE+HOUSE.+LIST+OF+FEDERAL+OFFICERS+AT+LIBBY+PRISON.+BALTIMORE%2C+TUESDAY%2C+MAY+31.&amp;rft.au=&amp;rft.aulast=&amp;rft.aufirst=&amp;rft.date=1864-06-01&amp;rft.volume=&amp;rft.issue=&amp;rft.spage=1&amp;rft.isbn=&amp;rft.btitle=&amp;rft.title=New+York+Times+%281857-1922%29&amp;rft.issn=03624331,ProQuest Historical Newspapers: The New York Times (1851-2009) with Index (1851-1993)
GRANT'S ARMY.,"WAR DEPARTMENT, WASHINGTON, May 31 4 P.M. Maj.-Gen. Dix: We have dispatches from Gen. GRANT down to 4 o'clock yesterday afternoon. There seemed, the dispatch says, to be some prospect of LEE'S making a stand north of the Chickahominy. His forces were on the Mechanicsville road, south of ...",91864050,Historical Newspapers,," Copyright New York Times Company Jun 1, 1864"," 82014405-1 , 1470618 , 113715", front_page," Jun 1, 1864",0362-4331, English, English, 1," New York, N.Y.","Jun 1, 1864",New York Times (1857-1922),1864,http://search.proquest.com/docview/91864050?accountid=13567, 1,http://openurl.lib.rochester.edu/find?ctx_ver=Z39.88-2004&amp;ctx_enc=info:ofi/enc:UTF-8&amp;rfr_id=info:sid/ProQ%3Ahnpnewyorktimeswindex&amp;rft_val_fmt=info:ofi/fmt:kev:mtx:journal&amp;rft.genre=unknown&amp;rft.jtitle=New+York+Times+%281857-1922%29&amp;rft.atitle=GRANT%27S+ARMY.%3A+FIGHTING+RENEWED.+WARREN%27S+CORPS+ATTACKED+ON+MONDAY.+THE+REBELS+PROMPTLY+REPULSED+GENERAL+HANCOCK+CARRIES+A+REBEL+LINE+OF+WORKS.+THE+SITUATION+UP+TO+SIX+O%27CLOCK+TUESDAY+MORNING.+SEVEN+MILES+TO+RICHMOND.+INDICATIONS+THAT+LEE+IS+FALLING+BACK.+OUR+CAVALRY+DESTROYING+RAILROADS.+GEN.+SMITH%27S+FORCES+EN+ROUTE+TO+JOIN+GENERAL+GRANT.+IMPORTANT+FROM+GEN.+BUTLER.+THE+ENEMY+ATTACK+HIM+ON+MONDAY%2C+BUT+ARE+REPULSED.+NEWS+FROM+GEN.+GRANT+TO+4+O%27CLOCK+P.M.+OF+MONDAY+PROSPECT+OF+LEE+MAKING+A+STAND+NORTH+OF+THE+CHICKAHOMINY-GEN.+GRANT+MAKING+DISPOSITIONS+FOR+AN+AT+TACK+OUR+CAVALRY+ORDERED+TO+DESTROY+THE+RAILROADS.+%5BOFFICIAL.%5D&amp;rft.au=&amp;rft.aulast=&amp;rft.aufirst=&amp;rft.date=1864-06-01&amp;rft.volume=&amp;rft.issue=&amp;rft.spage=1&amp;rft.isbn=&amp;rft.btitle=&amp;rft.title=New+York+Times+%281857-1922%29&amp;rft.issn=03624331,ProQuest Historical Newspapers: The New York Times (1851-2009) with Index (1851-1993)
SECOND DISPATCH.,"Major-Gen. Dix: A dispatch from Gen. GRANT, dated at 6 o'clock this morning, at Hawes' Shop, has just been received. It is as follows:",91868525,Historical Newspapers,," Copyright New York Times Company Jun 1, 1864"," 82014406 , 1470618 , 113715", front_page," Jun 1, 1864",0362-4331, English, English, 1," New York, N.Y.","Jun 1, 1864",New York Times (1857-1922),1864,http://search.proquest.com/docview/91868525?accountid=13567, 1,http://openurl.lib.rochester.edu/find?ctx_ver=Z39.88-2004&amp;ctx_enc=info:ofi/enc:UTF-8&amp;rfr_id=info:sid/ProQ%3Ahnpnewyorktimeswindex&amp;rft_val_fmt=info:ofi/fmt:kev:mtx:journal&amp;rft.genre=unknown&amp;rft.jtitle=New+York+Times+%281857-1922%29&amp;rft.atitle=SECOND+DISPATCH.%3A+NEWS+FROM+GEN.+GRANT+TO+6+O%27CLOCK+TUESDAY+MORNING+A+PARTIAL+BATTLE+ON+MONDAY+EVENING+THE+ENEMY+ATTACK+WARREN+AND+ARE+REPULSED+HANCOCK+ENGAGED+AND+DRIVES+THE+REBELS+FROM+AN+INTRENCHED+POSITION+INDICATIONS+THAT+LEE+IS+GETTING+BEHIND+THE+CHICKAHOMINY.%5BOFFICIAL.%5D&amp;rft.au=&amp;rft.aulast=&amp;rft.aufirst=&amp;rft.date=1864-06-01&amp;rft.volume=&amp;rft.issue=&amp;rft.spage=1&amp;rft.isbn=&amp;rft.btitle=&amp;rft.title=New+York+Times+%281857-1922%29&amp;rft.issn=03624331,ProQuest Historical Newspapers: The New York Times (1851-2009) with Index (1851-1993)
EIGHTEENTH ARMY CORPS.,"A portion of Gen. BUTLER'S army has been detached by order of Lieut.-Gen. GRANT, and placed under command of Major-Gen. SMITH. It is now moving on transports down the James River. I ac company this expedition, and hope very soon to write of the good it hopes to accomplish.",91864168,Historical Newspapers," From Our Special Correspondent.
From Our Special Correspondent."," Copyright New York Times Company Jun 1, 1864"," 82014408-1 , 1470618 , 113715", front_page," Jun 1, 1864",0362-4331, English, English, 1," New York, N.Y.","Jun 1, 1864",New York Times (1857-1922),1864,http://search.proquest.com/docview/91864168?accountid=13567, 1,http://openurl.lib.rochester.edu/find?ctx_ver=Z39.88-2004&amp;ctx_enc=info:ofi/enc:UTF-8&amp;rfr_id=info:sid/ProQ%3Ahnpnewyorktimeswindex&amp;rft_val_fmt=info:ofi/fmt:kev:mtx:journal&amp;rft.genre=unknown&amp;rft.jtitle=New+York+Times+%281857-1922%29&amp;rft.atitle=EIGHTEENTH+ARMY+CORPS.%3A+A+PART+OF+GEN.+BUTLER%27S+ARMY+GOING+SOMEWHERE--WHAT+THE+REBELS+MAY+DO--ALL+QUIET+AT+BERMUDA.+PORT+ROYAL%2C+VA.+THE+WOUNDED.&amp;rft.au=From+Our+Special+Correspondent.&amp;rft.aulast=From+Our+Special+Correspondent.&amp;rft.aufirst=&amp;rft.date=1864-06-01&amp;rft.volume=&amp;rft.issue=&amp;rft.spage=1&amp;rft.isbn=&amp;rft.btitle=&amp;rft.title=New+York+Times+%281857-1922%29&amp;rft.issn=03624331,ProQuest Historical Newspapers: The New York Times (1851-2009) with Index (1851-1993)
THIRD DISPATCH.,"Major-Gen. Dix: The following dispatch has been received from Gen. BUTLER: ""Yesterday all day heavy firing in the direction of Mechanicsville.",91864108,Historical Newspapers,," Copyright New York Times Company Jun 1, 1864"," 82014407-1 , 1470618 , 113715", front_page," Jun 1, 1864",0362-4331, English, English, 1," New York, N.Y.","Jun 1, 1864",New York Times (1857-1922),1864,http://search.proquest.com/docview/91864108?accountid=13567, 1,http://openurl.lib.rochester.edu/find?ctx_ver=Z39.88-2004&amp;ctx_enc=info:ofi/enc:UTF-8&amp;rfr_id=info:sid/ProQ%3Ahnpnewyorktimeswindex&amp;rft_val_fmt=info:ofi/fmt:kev:mtx:journal&amp;rft.genre=unknown&amp;rft.jtitle=New+York+Times+%281857-1922%29&amp;rft.atitle=THIRD+DISPATCH.%3A+NEWS+FROM+GEN.+GRANT+VIA+GEN.+BUTLER--+STATE+OF+AFFAIRS+IN+RICHMOND--SHALL+THE+CITY+BE+BURNED+OR+SURRENDERED--THE+MAYOR+PUT+IN+CASTLE+THUNDER+FOR+ADVOCATING+A+SURRENDER--THE+ENEMY+ATTACK+GEN.+BUTLER+AND+ARE+REPULSED.&amp;rft.au=&amp;rft.aulast=&amp;rft.aufirst=&amp;rft.date=1864-06-01&amp;rft.volume=&amp;rft.issue=&amp;rft.spage=1&amp;rft.isbn=&amp;rft.btitle=&amp;rft.title=New+York+Times+%281857-1922%29&amp;rft.issn=03624331,ProQuest Historical Newspapers: The New York Times (1851-2009) with Index (1851-1993)
NEWS OF THE DAY.,"The news from Gen. GRANT is up to yesterday morning at 6 o'clock. On Monday evening a partial engagement occurred, brought on by the rebels making an attack on WARREN, who held our left, in which the enemy were driven back with severe loss, leaving their killed and wounded in our hands.",91869003,Historical Newspapers,," Copyright New York Times Company Jun 1, 1864"," 82014431 , 1470618 , 113715", article," Jun 1, 1864",0362-4331, English, English, 4," New York, N.Y.","Jun 1, 1864",New York Times (1857-1922),1864,http://search.proquest.com/docview/91869003?accountid=13567, 4,http://openurl.lib.rochester.edu/find?ctx_ver=Z39.88-2004&amp;ctx_enc=info:ofi/enc:UTF-8&amp;rfr_id=info:sid/ProQ%3Ahnpnewyorktimeswindex&amp;rft_val_fmt=info:ofi/fmt:kev:mtx:journal&amp;rft.genre=article&amp;rft.jtitle=New+York+Times+%281857-1922%29&amp;rft.atitle=NEWS+OF+THE+DAY.%3A+THE+REBELLION.&amp;rft.au=&amp;rft.aulast=&amp;rft.aufirst=&amp;rft.date=1864-06-01&amp;rft.volume=&amp;rft.issue=&amp;rft.spage=4&amp;rft.isbn=&amp;rft.btitle=&amp;rft.title=New+York+Times+%281857-1922%29&amp;rft.issn=03624331,ProQuest Historical Newspapers: The New York Times (1851-2009) with Index (1851-1993)
