Title,Abstract,StoreId,ArticleType,copyright,digitalObjectIdentifier,documentType,entryDate,issn,language,languageOfSummary,pages,placeOfPublication,pubdate,pubtitle,year,DocumentURL,startPage,FindACopy,Database
GEN. BANKS' DEPARTMENT.,"A reconnoissance made this afternoon discovered a large force of the enemy, consisting of infantry, artillery and cavalry, some six or seven miles from here, on the Manchester road.",91645820,Historical Newspapers," Copyright New York Times Company Jun 3, 1862"," 78690650-1 , 1445975 , 113715", article," Jun 3, 1862",0362-4331, English, English, 8," New York, N.Y.","Jun 3, 1862",New York Times (1857-1922),1862,http://search.proquest.com/docview/91645820?accountid=13567, 8,http://openurl.lib.rochester.edu/find?ctx_ver=Z39.88-2004&amp;ctx_enc=info:ofi/enc:UTF-8&amp;rfr_id=info:sid/ProQ%3Ahnpnewyorktimeswindex&amp;rft_val_fmt=info:ofi/fmt:kev:mtx:journal&amp;rft.genre=article&amp;rft.jtitle=New+York+Times+%281857-1922%29&amp;rft.atitle=GEN.+BANKS%27+DEPARTMENT.%3A+A+SUCCESSFUL+RECONNOISSANCE+FROM+FRONT+ROYAL.+THE+ENEMY+DISCOVERED+IN+CONSIDERABLE+FORCE+ON+THE+WINCHESTER+ROAD.+THEIR+DISPERSION+AT+THE+FIRST+FIRE.+A+CANNON+AND+TWELVE+WAGONS+CAPTURED.+FURTHER+PARTICULARS+OF+GEN.+BANKS%27+RETREAT.&amp;rft.au=&amp;rft.aulast=&amp;rft.aufirst=&amp;rft.date=1862-06-03&amp;rft.volume=&amp;rft.issue=&amp;rft.spage=8&amp;rft.isbn=&amp;rft.btitle=&amp;rft.title=New+York+Times+%281857-1922%29&amp;rft.issn=03624331,ProQuest Historical Newspapers: The New York Times (1851-2009) with Index (1851-1993)
OUR WASHINGTON CORRESPONDENCE.,"Recovering a little from the flurry into which we were thrown by the bold dash of JACKSON upon Gen. BANKS, we are able to make the adventure pro ductive of some useful lessons.",91591910,Historical Newspapers," Copyright New York Times Company Jun 1, 1862"," 78690520 , 1445974 , 113715", article," Jun 1, 1862",0362-4331, English, English, 5," New York, N.Y.","Jun 1, 1862",New York Times (1857-1922),1862,http://search.proquest.com/docview/91591910?accountid=13567, 5,http://openurl.lib.rochester.edu/find?ctx_ver=Z39.88-2004&amp;ctx_enc=info:ofi/enc:UTF-8&amp;rfr_id=info:sid/ProQ%3Ahnpnewyorktimeswindex&amp;rft_val_fmt=info:ofi/fmt:kev:mtx:journal&amp;rft.genre=article&amp;rft.jtitle=New+York+Times+%281857-1922%29&amp;rft.atitle=OUR+WASHINGTON+CORRESPONDENCE.%3A+THE+LESSONS+OF+THE+RECENT+OPERATIONS+IN+THE+VIRGINIA+VALLEY+IMPROVEMENT+OF+SENTIMENT+IN+MARYLAND+GOV.+ANDREW+AND+MASSACHUSETTS+REBEL+NEWSPAPERS+IN+THE+CONQUERED+SOUTH+THE+NORFOLK+DAY+LOOK+GEN.+SIGEL+ETC.&amp;rft.au=&amp;rft.aulast=&amp;rft.aufirst=&amp;rft.date=1862-06-01&amp;rft.volume=&amp;rft.issue=&amp;rft.spage=5&amp;rft.isbn=&amp;rft.btitle=&amp;rft.title=New+York+Times+%281857-1922%29&amp;rft.issn=03624331,ProQuest Historical Newspapers: The New York Times (1851-2009) with Index (1851-1993)
OUR WASHINGTON CORRESPONDENCE.,"The news of Gen. BANKS' retreat from Strasburgh to Winchester was very depressing in Washington, and its effects were visible all day Saturday on the countenances of the people.",91703480,Historical Newspapers," Copyright New York Times Company May 28, 1862"," 78689872 , 1445968 , 113715", article," May 28, 1862",0362-4331, English, English, 5," New York, N.Y.","May 28, 1862",New York Times (1857-1922),1862,http://search.proquest.com/docview/91703480?accountid=13567, 5,http://openurl.lib.rochester.edu/find?ctx_ver=Z39.88-2004&amp;ctx_enc=info:ofi/enc:UTF-8&amp;rfr_id=info:sid/ProQ%3Ahnpnewyorktimeswindex&amp;rft_val_fmt=info:ofi/fmt:kev:mtx:journal&amp;rft.genre=article&amp;rft.jtitle=New+York+Times+%281857-1922%29&amp;rft.atitle=OUR+WASHINGTON+CORRESPONDENCE.%3A+DEFEAT+OF+BANKS+CAUSE+OF+IT+GENERAL+ADVANCE+OF+THE+UNION+ARMS.&amp;rft.au=&amp;rft.aulast=&amp;rft.aufirst=&amp;rft.date=1862-05-28&amp;rft.volume=&amp;rft.issue=&amp;rft.spage=5&amp;rft.isbn=&amp;rft.btitle=&amp;rft.title=New+York+Times+%281857-1922%29&amp;rft.issn=03624331,ProQuest Historical Newspapers: The New York Times (1851-2009) with Index (1851-1993)
THE RETREAT OF GEN. BANKS.,"Hon. Edwin M. Stanton, Secretary of War: We believe that our whole force, trains and all, will cross in safety. The men are in fine spirits, and crossing to good order. The labor of last night was fearful. The enemy followed us last night on our",91675450,Historical Newspapers," Copyright New York Times Company May 27, 1862"," 78689704-1 , 1445967 , 113715", front_page," May 27, 1862",0362-4331, English, English, 1," New York, N.Y.","May 27, 1862",New York Times (1857-1922),1862,http://search.proquest.com/docview/91675450?accountid=13567, 1,http://openurl.lib.rochester.edu/find?ctx_ver=Z39.88-2004&amp;ctx_enc=info:ofi/enc:UTF-8&amp;rfr_id=info:sid/ProQ%3Ahnpnewyorktimeswindex&amp;rft_val_fmt=info:ofi/fmt:kev:mtx:journal&amp;rft.genre=unknown&amp;rft.jtitle=New+York+Times+%281857-1922%29&amp;rft.atitle=THE+RETREAT+OF+GEN.+BANKS.%3A+HIS+WHOLE+FORCE+AND+TRAINS+ACROSS+THE+POTOMAC+IN+SAFETY.+THE+RETREAT+CONDUCTED+IN+A+MOST+MASTERLY+MANNER.+THE+NATIONAL+TROOPS+REPORTED+TO+BE+HEAVILY+REINFORCED.+THE+PLANS+OF+THE+REBELS+CIRCUMVENTED.+JACKSON+BELIEVED+TO+BE+AGAIN+IN+FULL+RETREAT+TO+STAUNTON.SPECULATIONS+AS+TO+THE+CAUSE+OFTHE+MOVEMENT.DISPATCH+FROM+GEN.+BANKS.+THE+LATEST+FROM+GEN.+BANKS.&amp;rft.au=&amp;rft.aulast=&amp;rft.aufirst=&amp;rft.date=1862-05-27&amp;rft.volume=&amp;rft.issue=&amp;rft.spage=1&amp;rft.isbn=&amp;rft.btitle=&amp;rft.title=New+York+Times+%281857-1922%29&amp;rft.issn=03624331,ProQuest Historical Newspapers: The New York Times (1851-2009) with Index (1851-1993)
RETREAT OF GEN. BANKS.,,91731210,Historical Newspapers," Copyright New York Times Company May 26, 1862"," 78689605-1 , 1445966 , 113715", front_page," May 26, 1862",0362-4331, English, English, 1," New York, N.Y.","May 26, 1862",New York Times (1857-1922),1862,http://search.proquest.com/docview/91731210?accountid=13567, 1,http://openurl.lib.rochester.edu/find?ctx_ver=Z39.88-2004&amp;ctx_enc=info:ofi/enc:UTF-8&amp;rfr_id=info:sid/ProQ%3Ahnpnewyorktimeswindex&amp;rft_val_fmt=info:ofi/fmt:kev:mtx:journal&amp;rft.genre=unknown&amp;rft.jtitle=New+York+Times+%281857-1922%29&amp;rft.atitle=RETREAT+OF+GEN.+BANKS.%3A+SUDDEN+APPEARANCE+OF+THE+REBELS+IN+HEAVY+FORCE.+OUR+TROOPS+DRIVEN+FROM+FRONT+ROYAL+WITH+CONSIDERABLE+LOSS.+RETIREMENT+OF+GEN.+BANKS+TO+WINCHESTER+ON+SATURDAY.FURTHER+RETIREMENT+TOWARDMARTINSBURGH+AND+HARPER%27SFERRY+ON+SUNDAY.A+BATTLE+LASTING+SIX+HOURS.THE+REVERSE+AT+FRONT+ROYAL.&amp;rft.au=&amp;rft.aulast=&amp;rft.aufirst=&amp;rft.date=1862-05-26&amp;rft.volume=&amp;rft.issue=&amp;rft.spage=1&amp;rft.isbn=&amp;rft.btitle=&amp;rft.title=New+York+Times+%281857-1922%29&amp;rft.issn=03624331,ProQuest Historical Newspapers: The New York Times (1851-2009) with Index (1851-1993)
RETREAT OF OUR FORCES TO WINCHESTER.,,91727071,Historical Newspapers," Copyright New York Times Company May 26, 1862"," 78689606 , 1445966 , 113715", front_page," May 26, 1862",0362-4331, English, English, 1," New York, N.Y.","May 26, 1862",New York Times (1857-1922),1862,http://search.proquest.com/docview/91727071?accountid=13567, 1,http://openurl.lib.rochester.edu/find?ctx_ver=Z39.88-2004&amp;ctx_enc=info:ofi/enc:UTF-8&amp;rfr_id=info:sid/ProQ%3Ahnpnewyorktimeswindex&amp;rft_val_fmt=info:ofi/fmt:kev:mtx:journal&amp;rft.genre=unknown&amp;rft.jtitle=New+York+Times+%281857-1922%29&amp;rft.atitle=RETREAT+OF+OUR+FORCES+TO+WINCHESTER.&amp;rft.au=&amp;rft.aulast=&amp;rft.aufirst=&amp;rft.date=1862-05-26&amp;rft.volume=&amp;rft.issue=&amp;rft.spage=1&amp;rft.isbn=&amp;rft.btitle=&amp;rft.title=New+York+Times+%281857-1922%29&amp;rft.issn=03624331,ProQuest Historical Newspapers: The New York Times (1851-2009) with Index (1851-1993)
THE NEWS IN WASHINGTON.,,91739173,Historical Newspapers," Copyright New York Times Company May 26, 1862"," 78689687-1 , 1445966 , 113715", article," May 26, 1862",0362-4331, English, English, 8," New York, N.Y.","May 26, 1862",New York Times (1857-1922),1862,http://search.proquest.com/docview/91739173?accountid=13567, 8,http://openurl.lib.rochester.edu/find?ctx_ver=Z39.88-2004&amp;ctx_enc=info:ofi/enc:UTF-8&amp;rfr_id=info:sid/ProQ%3Ahnpnewyorktimeswindex&amp;rft_val_fmt=info:ofi/fmt:kev:mtx:journal&amp;rft.genre=article&amp;rft.jtitle=New+York+Times+%281857-1922%29&amp;rft.atitle=THE+NEWS+IN+WASHINGTON.&amp;rft.au=&amp;rft.aulast=&amp;rft.aufirst=&amp;rft.date=1862-05-26&amp;rft.volume=&amp;rft.issue=&amp;rft.spage=8&amp;rft.isbn=&amp;rft.btitle=&amp;rft.title=New+York+Times+%281857-1922%29&amp;rft.issn=03624331,ProQuest Historical Newspapers: The New York Times (1851-2009) with Index (1851-1993)
LATE AND IMPORTANT.,,91661119,Historical Newspapers," Copyright New York Times Company May 26, 1862"," 78689684 , 1445966 , 113715", article," May 26, 1862",0362-4331, English, English, 8," New York, N.Y.","May 26, 1862",New York Times (1857-1922),1862,http://search.proquest.com/docview/91661119?accountid=13567, 8,http://openurl.lib.rochester.edu/find?ctx_ver=Z39.88-2004&amp;ctx_enc=info:ofi/enc:UTF-8&amp;rfr_id=info:sid/ProQ%3Ahnpnewyorktimeswindex&amp;rft_val_fmt=info:ofi/fmt:kev:mtx:journal&amp;rft.genre=article&amp;rft.jtitle=New+York+Times+%281857-1922%29&amp;rft.atitle=LATE+AND+IMPORTANT.%3A+A+BATTLE+LASTING+SIX+HOURS.+GEN.+BANKS+ATTACKED+BY+EWELL+AND+JACKSON.+THE+ENEMY+REPORTED+TO+BE+ADVANCING+TO+HARPER%27S+FERRY.+RETIREMENT+OF+OUR+FORCES+INTO+MARYLAND.&amp;rft.au=&amp;rft.aulast=&amp;rft.aufirst=&amp;rft.date=1862-05-26&amp;rft.volume=&amp;rft.issue=&amp;rft.spage=8&amp;rft.isbn=&amp;rft.btitle=&amp;rft.title=New+York+Times+%281857-1922%29&amp;rft.issn=03624331,ProQuest Historical Newspapers: The New York Times (1851-2009) with Index (1851-1993)
